EESchema Schematic File Version 4
LIBS:sc-cache
EELAYER 29 0
EELAYER END
$Descr A4 11693 8268
encoding utf-8
Sheet 1 1
Title ""
Date ""
Rev ""
Comp ""
Comment1 ""
Comment2 ""
Comment3 ""
Comment4 ""
$EndDescr
Text GLabel 2450 1800 2    50   Input ~ 0
IMD_BMS_reset
Text GLabel 1650 1700 2    50   Input ~ 0
BMS
Text GLabel 1650 1600 2    50   Input ~ 0
IMD
Text GLabel 1650 1500 2    50   Input ~ 0
uC
$Comp
L power:GND #PWR0101
U 1 1 5C1CACD0
P 1900 2000
F 0 "#PWR0101" H 1900 1750 50  0001 C CNN
F 1 "GND" V 1905 1872 50  0000 R CNN
F 2 "" H 1900 2000 50  0001 C CNN
F 3 "" H 1900 2000 50  0001 C CNN
	1    1900 2000
	1    0    0    -1  
$EndComp
$Comp
L G3VM-41DY1:G3VM-41DY1 K1
U 1 1 5C1CB867
P 6950 1800
F 0 "K1" H 7350 2065 50  0000 C CNN
F 1 "G3VM-41DY1" H 7350 1974 50  0000 C CNN
F 2 "G3VM-41DY1:SOP254P1000X380-4N" H 7600 1900 50  0001 L CNN
F 3 "https://www.omron.com/ecb/products/pdf/en-g3vm_ay_dy.pdf" H 7600 1800 50  0001 L CNN
F 4 "OMRON ELECTRONIC COMPONENTS - G3VM-41DY1 - MOSFET RELAY, SPST-NO, 40V, 2A" H 7600 1700 50  0001 L CNN "Description"
F 5 "3.8" H 7600 1600 50  0001 L CNN "Height"
F 6 "Omron Electronics" H 7600 1500 50  0001 L CNN "Manufacturer_Name"
F 7 "G3VM-41DY1" H 7600 1400 50  0001 L CNN "Manufacturer_Part_Number"
F 8 "G3VM-41DY1" H 7600 1100 50  0001 L CNN "Arrow Part Number"
F 9 "https://www.arrow.com/en/products/g3vm-41dy1/omron" H 7600 1000 50  0001 L CNN "Arrow Price/Stock"
	1    6950 1800
	1    0    0    -1  
$EndComp
Wire Wire Line
	6900 1950 6900 1900
Wire Wire Line
	6900 1900 6950 1900
$Comp
L Device:R_Small R7
U 1 1 5C1CB9CD
P 6900 2050
F 0 "R7" H 6959 2096 50  0000 L CNN
F 1 "180R" H 6959 2005 50  0000 L CNN
F 2 "Resistor_SMD:R_0603_1608Metric" H 6900 2050 50  0001 C CNN
F 3 "~" H 6900 2050 50  0001 C CNN
	1    6900 2050
	1    0    0    -1  
$EndComp
Wire Wire Line
	6950 1800 6900 1800
Wire Wire Line
	6900 1800 6900 1750
$Comp
L power:+5V #PWR0106
U 1 1 5C1CBA4F
P 6900 1300
F 0 "#PWR0106" H 6900 1150 50  0001 C CNN
F 1 "+5V" H 6915 1473 50  0000 C CNN
F 2 "" H 6900 1300 50  0001 C CNN
F 3 "" H 6900 1300 50  0001 C CNN
	1    6900 1300
	1    0    0    -1  
$EndComp
Wire Wire Line
	6900 1300 6900 1350
$Comp
L G3VM-41DY1:G3VM-41DY1 K2
U 1 1 5C1CBEA3
P 9150 1800
F 0 "K2" H 9550 2065 50  0000 C CNN
F 1 "G3VM-41DY1" H 9550 1974 50  0000 C CNN
F 2 "G3VM-41DY1:SOP254P1000X380-4N" H 9800 1900 50  0001 L CNN
F 3 "https://www.omron.com/ecb/products/pdf/en-g3vm_ay_dy.pdf" H 9800 1800 50  0001 L CNN
F 4 "OMRON ELECTRONIC COMPONENTS - G3VM-41DY1 - MOSFET RELAY, SPST-NO, 40V, 2A" H 9800 1700 50  0001 L CNN "Description"
F 5 "3.8" H 9800 1600 50  0001 L CNN "Height"
F 6 "Omron Electronics" H 9800 1500 50  0001 L CNN "Manufacturer_Name"
F 7 "G3VM-41DY1" H 9800 1400 50  0001 L CNN "Manufacturer_Part_Number"
F 8 "G3VM-41DY1" H 9800 1100 50  0001 L CNN "Arrow Part Number"
F 9 "https://www.arrow.com/en/products/g3vm-41dy1/omron" H 9800 1000 50  0001 L CNN "Arrow Price/Stock"
	1    9150 1800
	1    0    0    -1  
$EndComp
Wire Wire Line
	9100 1950 9100 1900
Wire Wire Line
	9100 1900 9150 1900
Wire Wire Line
	9150 1800 9100 1800
Wire Wire Line
	9100 1800 9100 1750
$Comp
L G3VM-41DY1:G3VM-41DY1 K3
U 1 1 5C1CC48F
P 4450 1550
F 0 "K3" H 4850 1815 50  0000 C CNN
F 1 "G3VM-41DY1" H 4850 1724 50  0000 C CNN
F 2 "G3VM-41DY1:SOP254P1000X380-4N" H 5100 1650 50  0001 L CNN
F 3 "https://www.omron.com/ecb/products/pdf/en-g3vm_ay_dy.pdf" H 5100 1550 50  0001 L CNN
F 4 "OMRON ELECTRONIC COMPONENTS - G3VM-41DY1 - MOSFET RELAY, SPST-NO, 40V, 2A" H 5100 1450 50  0001 L CNN "Description"
F 5 "3.8" H 5100 1350 50  0001 L CNN "Height"
F 6 "Omron Electronics" H 5100 1250 50  0001 L CNN "Manufacturer_Name"
F 7 "G3VM-41DY1" H 5100 1150 50  0001 L CNN "Manufacturer_Part_Number"
F 8 "G3VM-41DY1" H 5100 850 50  0001 L CNN "Arrow Part Number"
F 9 "https://www.arrow.com/en/products/g3vm-41dy1/omron" H 5100 750 50  0001 L CNN "Arrow Price/Stock"
	1    4450 1550
	1    0    0    -1  
$EndComp
Wire Wire Line
	4400 1700 4400 1650
Wire Wire Line
	4400 1650 4450 1650
$Comp
L Device:R_Small R11
U 1 1 5C1CC498
P 4400 1400
F 0 "R11" H 4459 1446 50  0000 L CNN
F 1 "180R" H 4459 1355 50  0000 L CNN
F 2 "Resistor_SMD:R_0603_1608Metric" H 4400 1400 50  0001 C CNN
F 3 "~" H 4400 1400 50  0001 C CNN
	1    4400 1400
	1    0    0    -1  
$EndComp
Wire Wire Line
	4450 1550 4400 1550
Wire Wire Line
	4400 1550 4400 1500
$Comp
L power:+5V #PWR0110
U 1 1 5C1CC4A1
P 4400 1250
F 0 "#PWR0110" H 4400 1100 50  0001 C CNN
F 1 "+5V" H 4415 1423 50  0000 C CNN
F 2 "" H 4400 1250 50  0001 C CNN
F 3 "" H 4400 1250 50  0001 C CNN
	1    4400 1250
	1    0    0    -1  
$EndComp
Wire Wire Line
	4400 1250 4400 1300
Text GLabel 1350 2500 0    50   Input ~ 0
BMS
$Comp
L Device:R_Small R1
U 1 1 5C1D02B9
P 1400 2650
F 0 "R1" H 1459 2696 50  0000 L CNN
F 1 "4k7" H 1459 2605 50  0000 L CNN
F 2 "Resistor_SMD:R_0603_1608Metric" H 1400 2650 50  0001 C CNN
F 3 "~" H 1400 2650 50  0001 C CNN
	1    1400 2650
	1    0    0    -1  
$EndComp
$Comp
L Device:R_Small R2
U 1 1 5C1D0381
P 1400 2950
F 0 "R2" H 1459 2996 50  0000 L CNN
F 1 "1k" H 1459 2905 50  0000 L CNN
F 2 "Resistor_SMD:R_0603_1608Metric" H 1400 2950 50  0001 C CNN
F 3 "~" H 1400 2950 50  0001 C CNN
	1    1400 2950
	1    0    0    -1  
$EndComp
$Comp
L power:GND #PWR0111
U 1 1 5C1D03EF
P 1400 3100
F 0 "#PWR0111" H 1400 2850 50  0001 C CNN
F 1 "GND" H 1405 2927 50  0000 C CNN
F 2 "" H 1400 3100 50  0001 C CNN
F 3 "" H 1400 3100 50  0001 C CNN
	1    1400 3100
	1    0    0    -1  
$EndComp
Wire Wire Line
	1350 2500 1400 2500
Wire Wire Line
	1400 2500 1400 2550
Wire Wire Line
	1400 3050 1400 3100
$Comp
L Device:R_Small R3
U 1 1 5C1D11E3
P 1400 3700
F 0 "R3" H 1459 3746 50  0000 L CNN
F 1 "4k7" H 1459 3655 50  0000 L CNN
F 2 "Resistor_SMD:R_0603_1608Metric" H 1400 3700 50  0001 C CNN
F 3 "~" H 1400 3700 50  0001 C CNN
	1    1400 3700
	1    0    0    -1  
$EndComp
$Comp
L Device:R_Small R4
U 1 1 5C1D11EA
P 1400 4000
F 0 "R4" H 1459 4046 50  0000 L CNN
F 1 "1k" H 1459 3955 50  0000 L CNN
F 2 "Resistor_SMD:R_0603_1608Metric" H 1400 4000 50  0001 C CNN
F 3 "~" H 1400 4000 50  0001 C CNN
	1    1400 4000
	1    0    0    -1  
$EndComp
$Comp
L power:GND #PWR0112
U 1 1 5C1D11F1
P 1400 4150
F 0 "#PWR0112" H 1400 3900 50  0001 C CNN
F 1 "GND" H 1405 3977 50  0000 C CNN
F 2 "" H 1400 4150 50  0001 C CNN
F 3 "" H 1400 4150 50  0001 C CNN
	1    1400 4150
	1    0    0    -1  
$EndComp
Wire Wire Line
	1350 3550 1400 3550
Wire Wire Line
	1400 3550 1400 3600
Wire Wire Line
	1400 4100 1400 4150
Text GLabel 1350 3550 0    50   Input ~ 0
IMD
$Comp
L CD4044BDR:CD4044BDR IC1
U 1 1 5C1DD803
P 2850 3100
F 0 "IC1" H 3450 3365 50  0000 C CNN
F 1 "CD4044BD" H 3450 3274 50  0000 C CNN
F 2 "Package_SO:SOIC-16_3.9x9.9mm_P1.27mm" H 3900 3200 50  0001 L CNN
F 3 "http://www.ti.com/lit/ds/symlink/cd4044b.pdf" H 3900 3100 50  0001 L CNN
F 4 "CD4044BE, Quad SR Type Latch Transparent 3 State 3  18 V 16-Pin PDIP" H 3900 3000 50  0001 L CNN "Description"
F 5 "5.08" H 3900 2900 50  0001 L CNN "Height"
F 6 "Texas Instruments" H 3900 2800 50  0001 L CNN "Manufacturer_Name"
F 7 "CD4044BE" H 3900 2700 50  0001 L CNN "Manufacturer_Part_Number"
F 8 "2508238865" H 3900 2600 50  0001 L CNN "RS Part Number"
F 9 "http://uk.rs-online.com/web/p/products/2508238865" H 3900 2500 50  0001 L CNN "RS Price/Stock"
F 10 "CD4044BE" H 3900 2400 50  0001 L CNN "Arrow Part Number"
F 11 "https://www.arrow.com/en/products/cd4044be/texas-instruments" H 3900 2300 50  0001 L CNN "Arrow Price/Stock"
	1    2850 3100
	1    0    0    -1  
$EndComp
$Comp
L Device:R_Small R5
U 1 1 5C1E025F
P 2400 1650
F 0 "R5" H 2459 1696 50  0000 L CNN
F 1 "10k" H 2459 1605 50  0000 L CNN
F 2 "Resistor_SMD:R_0603_1608Metric" H 2400 1650 50  0001 C CNN
F 3 "~" H 2400 1650 50  0001 C CNN
	1    2400 1650
	1    0    0    -1  
$EndComp
$Comp
L power:+5V #PWR0120
U 1 1 5C1E48A2
P 4150 2500
F 0 "#PWR0120" H 4150 2350 50  0001 C CNN
F 1 "+5V" V 4165 2628 50  0000 L CNN
F 2 "" H 4150 2500 50  0001 C CNN
F 3 "" H 4150 2500 50  0001 C CNN
	1    4150 2500
	1    0    0    -1  
$EndComp
Text GLabel 5650 3700 0    50   Input ~ 0
SC_OUT
$Comp
L Device:D_Small D1
U 1 1 5C1EE105
P 5800 3700
F 0 "D1" H 5800 3495 50  0000 C CNN
F 1 "D_Small" H 5800 3586 50  0000 C CNN
F 2 "Diode_SMD:D_SMA" V 5800 3700 50  0001 C CNN
F 3 "~" V 5800 3700 50  0001 C CNN
	1    5800 3700
	-1   0    0    1   
$EndComp
$Comp
L Device:CP_Small C1
U 1 1 5C1EE343
P 6350 3850
F 0 "C1" H 6438 3896 50  0000 L CNN
F 1 "10m" H 6438 3805 50  0000 L CNN
F 2 "Capacitor_THT:CP_Axial_L55.0mm_D26.0mm_P60.00mm_Horizontal" H 6350 3850 50  0001 C CNN
F 3 "~" H 6350 3850 50  0001 C CNN
	1    6350 3850
	1    0    0    -1  
$EndComp
Wire Wire Line
	5650 3700 5700 3700
Wire Wire Line
	6350 3700 6350 3750
$Comp
L power:GND #PWR0121
U 1 1 5C1F025E
P 6500 4000
F 0 "#PWR0121" H 6500 3750 50  0001 C CNN
F 1 "GND" V 6505 3872 50  0000 R CNN
F 2 "" H 6500 4000 50  0001 C CNN
F 3 "" H 6500 4000 50  0001 C CNN
	1    6500 4000
	1    0    0    -1  
$EndComp
Text GLabel 6700 3700 2    50   Input ~ 0
SC_OUT_DELAY
Connection ~ 6350 3700
Text GLabel 5250 1650 2    50   Input ~ 0
SC_IN
Text GLabel 5250 1550 2    50   Input ~ 0
SC_uC
Text GLabel 7750 1900 2    50   Input ~ 0
SC_uC
Text GLabel 7750 1800 2    50   Input ~ 0
SC_IMD
Text GLabel 9950 1900 2    50   Input ~ 0
SC_IMD
Text GLabel 9950 1800 2    50   Input ~ 0
SC_OUT
$Comp
L Device:CP_Small C2
U 1 1 5C1CE7CF
P 6500 3850
F 0 "C2" H 6588 3896 50  0000 L CNN
F 1 "10m" H 6588 3805 50  0000 L CNN
F 2 "Capacitor_THT:CP_Axial_L55.0mm_D26.0mm_P60.00mm_Horizontal" H 6500 3850 50  0001 C CNN
F 3 "~" H 6500 3850 50  0001 C CNN
	1    6500 3850
	1    0    0    -1  
$EndComp
$Comp
L Device:CP_Small C3
U 1 1 5C1CE81D
P 6650 3850
F 0 "C3" H 6738 3896 50  0000 L CNN
F 1 "10m" H 6738 3805 50  0000 L CNN
F 2 "Capacitor_THT:CP_Axial_L55.0mm_D26.0mm_P60.00mm_Horizontal" H 6650 3850 50  0001 C CNN
F 3 "~" H 6650 3850 50  0001 C CNN
	1    6650 3850
	1    0    0    -1  
$EndComp
Wire Wire Line
	6350 3700 6500 3700
Wire Wire Line
	6500 3750 6500 3700
Connection ~ 6500 3700
Wire Wire Line
	6500 3700 6650 3700
Wire Wire Line
	6650 3750 6650 3700
Connection ~ 6650 3700
Wire Wire Line
	6650 3700 6700 3700
Wire Wire Line
	6350 3950 6500 3950
Connection ~ 6500 3950
Wire Wire Line
	6500 3950 6650 3950
Wire Wire Line
	6500 3950 6500 4000
$Comp
L power:GND #PWR0119
U 1 1 5C1D8D44
P 2800 3850
F 0 "#PWR0119" H 2800 3600 50  0001 C CNN
F 1 "GND" V 2805 3722 50  0000 R CNN
F 2 "" H 2800 3850 50  0001 C CNN
F 3 "" H 2800 3850 50  0001 C CNN
	1    2800 3850
	1    0    0    -1  
$EndComp
$Comp
L Connector:DB9_Female_MountingHoles J1
U 1 1 5C6602BE
P 1350 1600
F 0 "J1" H 1529 1509 50  0000 L CNN
F 1 "DB9_Female_MountingHoles" H 1529 1600 50  0000 L CNN
F 2 "1-106505-2:11065052" H 1350 1600 50  0001 C CNN
F 3 " ~" H 1350 1600 50  0001 C CNN
	1    1350 1600
	-1   0    0    1   
$EndComp
$Comp
L power:GND #PWR0127
U 1 1 5C6624E4
P 1350 1000
F 0 "#PWR0127" H 1350 750 50  0001 C CNN
F 1 "GND" H 1355 827 50  0000 C CNN
F 2 "" H 1350 1000 50  0001 C CNN
F 3 "" H 1350 1000 50  0001 C CNN
	1    1350 1000
	-1   0    0    1   
$EndComp
Wire Wire Line
	1400 3800 1400 3850
Text GLabel 4050 3400 2    50   Input ~ 0
BMS_latch
Text GLabel 4050 3800 2    50   Input ~ 0
IMD_latch
$Comp
L power:+5V #PWR0104
U 1 1 5C844A46
P 2400 1500
F 0 "#PWR0104" H 2400 1350 50  0001 C CNN
F 1 "+5V" V 2415 1628 50  0000 L CNN
F 2 "" H 2400 1500 50  0001 C CNN
F 3 "" H 2400 1500 50  0001 C CNN
	1    2400 1500
	1    0    0    -1  
$EndComp
$Comp
L power:+24V #PWR0124
U 1 1 5C58ADDA
P 5850 2850
F 0 "#PWR0124" H 5850 2700 50  0001 C CNN
F 1 "+24V" H 5865 3023 50  0000 C CNN
F 2 "" H 5850 2850 50  0001 C CNN
F 3 "" H 5850 2850 50  0001 C CNN
	1    5850 2850
	1    0    0    -1  
$EndComp
$Comp
L Mechanical:MountingHole H1
U 1 1 5C1D36C6
P 6850 5300
F 0 "H1" H 6950 5346 50  0000 L CNN
F 1 "MountingHole" H 6950 5255 50  0000 L CNN
F 2 "MountingHole:MountingHole_3.2mm_M3_Pad" H 6850 5300 50  0001 C CNN
F 3 "~" H 6850 5300 50  0001 C CNN
	1    6850 5300
	1    0    0    -1  
$EndComp
$Comp
L Mechanical:MountingHole H3
U 1 1 5C1D366E
P 7000 5300
F 0 "H3" H 7100 5346 50  0000 L CNN
F 1 "MountingHole" H 7100 5255 50  0000 L CNN
F 2 "MountingHole:MountingHole_3.2mm_M3_Pad" H 7000 5300 50  0001 C CNN
F 3 "~" H 7000 5300 50  0001 C CNN
	1    7000 5300
	1    0    0    -1  
$EndComp
$Comp
L Mechanical:MountingHole H4
U 1 1 5C1D34C1
P 7000 5450
F 0 "H4" H 7100 5496 50  0000 L CNN
F 1 "MountingHole" H 7100 5405 50  0000 L CNN
F 2 "MountingHole:MountingHole_3.2mm_M3_Pad" H 7000 5450 50  0001 C CNN
F 3 "~" H 7000 5450 50  0001 C CNN
	1    7000 5450
	1    0    0    -1  
$EndComp
$Comp
L Mechanical:MountingHole H2
U 1 1 5C1D3425
P 6850 5450
F 0 "H2" H 6950 5496 50  0000 L CNN
F 1 "MountingHole" H 6950 5405 50  0000 L CNN
F 2 "MountingHole:MountingHole_3.2mm_M3_Pad" H 6850 5450 50  0001 C CNN
F 3 "~" H 6850 5450 50  0001 C CNN
	1    6850 5450
	1    0    0    -1  
$EndComp
$Comp
L power:+5V #PWR0103
U 1 1 5C1CAFFE
P 6450 2850
F 0 "#PWR0103" H 6450 2700 50  0001 C CNN
F 1 "+5V" V 6465 2978 50  0000 L CNN
F 2 "" H 6450 2850 50  0001 C CNN
F 3 "" H 6450 2850 50  0001 C CNN
	1    6450 2850
	1    0    0    -1  
$EndComp
$Comp
L power:GND #PWR0102
U 1 1 5C1CAF8F
P 6150 3150
F 0 "#PWR0102" H 6150 2900 50  0001 C CNN
F 1 "GND" V 6155 3022 50  0000 R CNN
F 2 "" H 6150 3150 50  0001 C CNN
F 3 "" H 6150 3150 50  0001 C CNN
	1    6150 3150
	1    0    0    -1  
$EndComp
$Comp
L Regulator_Switching:R-78E5.0-0.5 U1
U 1 1 5C1CAE2D
P 6150 2850
F 0 "U1" H 6750 3115 50  0000 C CNN
F 1 "R-78E5.0-0.5" H 6100 3150 50  0000 C CNN
F 2 "Converter_DCDC:Converter_DCDC_RECOM_R-78E-0.5_THT" H 7200 2950 50  0001 L CNN
F 3 "http://docs-emea.rs-online.com/webdocs/10a2/0900766b810a2db7.pdf" H 7200 2850 50  0001 L CNN
F 4 "Switching Regulator,7-28Vin,5Vout 0.5A Switching Regulator, 7" H 7200 2750 50  0001 L CNN "Description"
F 5 "10.4" H 7200 2650 50  0001 L CNN "Height"
F 6 "RECOM Power" H 7200 2550 50  0001 L CNN "Manufacturer_Name"
F 7 "R-78E5.0-0.5" H 7200 2450 50  0001 L CNN "Manufacturer_Part_Number"
F 8 "1666675" H 7200 2350 50  0001 L CNN "RS Part Number"
F 9 "http://uk.rs-online.com/web/p/products/1666675" H 7200 2250 50  0001 L CNN "RS Price/Stock"
F 10 "R-78E5.0-0.5" H 7200 2150 50  0001 L CNN "Arrow Part Number"
F 11 "https://www.arrow.com/en/products/r-78e5.0-0.5/recom-power" H 7200 2050 50  0001 L CNN "Arrow Price/Stock"
	1    6150 2850
	1    0    0    -1  
$EndComp
Text GLabel 2850 3400 0    50   Input ~ 0
IMD_BMS_reset
Text GLabel 2850 3600 0    50   Input ~ 0
IMD_BMS_reset
Wire Wire Line
	2850 3500 3450 3500
Wire Wire Line
	3450 3500 3450 3100
Wire Wire Line
	3450 3100 4050 3100
Connection ~ 4050 3100
Wire Wire Line
	4050 3100 4150 3100
Wire Wire Line
	4150 3100 4150 2600
$Comp
L Device:C_Small C4
U 1 1 5C853388
P 4250 2750
F 0 "C4" H 4342 2796 50  0000 L CNN
F 1 "100n" H 4342 2705 50  0000 L CNN
F 2 "Capacitor_SMD:C_0603_1608Metric" H 4250 2750 50  0001 C CNN
F 3 "~" H 4250 2750 50  0001 C CNN
	1    4250 2750
	1    0    0    -1  
$EndComp
$Comp
L power:GND #PWR0107
U 1 1 5C85397F
P 4250 2900
F 0 "#PWR0107" H 4250 2650 50  0001 C CNN
F 1 "GND" V 4255 2772 50  0000 R CNN
F 2 "" H 4250 2900 50  0001 C CNN
F 3 "" H 4250 2900 50  0001 C CNN
	1    4250 2900
	1    0    0    -1  
$EndComp
Wire Wire Line
	4150 2600 4250 2600
Wire Wire Line
	4250 2600 4250 2650
Connection ~ 4150 2600
Wire Wire Line
	4150 2600 4150 2500
Wire Wire Line
	4250 2850 4250 2900
Wire Wire Line
	2800 3850 2800 3800
Wire Wire Line
	2800 3800 2850 3800
Wire Wire Line
	1400 2750 1400 2800
Wire Wire Line
	1400 2800 2150 2800
Wire Wire Line
	2150 2800 2150 3300
Wire Wire Line
	2150 3300 2850 3300
Connection ~ 1400 2800
Wire Wire Line
	1400 2800 1400 2850
Wire Wire Line
	1400 3850 2150 3850
Wire Wire Line
	2150 3850 2150 3700
Wire Wire Line
	2150 3700 2850 3700
Connection ~ 1400 3850
Wire Wire Line
	1400 3850 1400 3900
Text Notes 3200 4550 0    50   ~ 0
[ERROR], Error has to be removed to allow reset 
Text Notes 3100 4550 0    50   ~ 0
0
Text Notes 3000 4550 0    50   ~ 0
0
Text Notes 3300 4450 0    50   ~ 0
Reset line pulled low
Text Notes 3200 4450 0    50   ~ 0
0
Text Notes 3000 4450 0    50   ~ 0
1
Text Notes 3100 4450 0    50   ~ 0
0
Text Notes 3300 4350 0    50   ~ 0
BMS or IMD triggered, signal went low
Text Notes 3200 4350 0    50   ~ 0
1
Text Notes 3100 4350 0    50   ~ 0
1
Text Notes 3000 4350 0    50   ~ 0
0
Text Notes 3200 4250 0    50   ~ 0
No change, default condition, no error
Text Notes 3100 4250 0    50   ~ 0
1
Text Notes 3000 4250 0    50   ~ 0
1
Wire Notes Line
	2750 4150 3750 4150
Text Notes 3000 4150 0    50   ~ 0
S
Text Notes 3200 4150 0    50   ~ 0
Q
Text Notes 3100 4150 0    50   ~ 0
R\n
Wire Notes Line
	3200 3950 3200 4900
Wire Notes Line
	3100 4000 3100 4950
$Comp
L Transistor_BJT:BC857 Q2
U 1 1 5C86525B
P 6800 1550
F 0 "Q2" H 6991 1504 50  0000 L CNN
F 1 "BC857" H 6991 1595 50  0000 L CNN
F 2 "Package_TO_SOT_SMD:SOT-23" H 7000 1475 50  0001 L CIN
F 3 "http://www.fairchildsemi.com/ds/BC/BC856.pdf" H 6800 1550 50  0001 L CNN
	1    6800 1550
	1    0    0    1   
$EndComp
$Comp
L Transistor_BJT:BC847 Q1
U 1 1 5C8706BC
P 4300 1900
F 0 "Q1" H 4491 1946 50  0000 L CNN
F 1 "BC847" H 4491 1855 50  0000 L CNN
F 2 "Package_TO_SOT_SMD:SOT-23" H 4500 1825 50  0001 L CIN
F 3 "http://www.infineon.com/dgdl/Infineon-BC847SERIES_BC848SERIES_BC849SERIES_BC850SERIES-DS-v01_01-en.pdf?fileId=db3a304314dca389011541d4630a1657" H 4300 1900 50  0001 L CNN
	1    4300 1900
	1    0    0    -1  
$EndComp
$Comp
L power:GND #PWR0108
U 1 1 5C871457
P 4400 2100
F 0 "#PWR0108" H 4400 1850 50  0001 C CNN
F 1 "GND" V 4405 1972 50  0000 R CNN
F 2 "" H 4400 2100 50  0001 C CNN
F 3 "" H 4400 2100 50  0001 C CNN
	1    4400 2100
	1    0    0    -1  
$EndComp
$Comp
L Device:R_Small R6
U 1 1 5C871F2E
P 4000 1900
F 0 "R6" V 4196 1900 50  0000 C CNN
F 1 "1k" V 4105 1900 50  0000 C CNN
F 2 "Resistor_SMD:R_0603_1608Metric" H 4000 1900 50  0001 C CNN
F 3 "~" H 4000 1900 50  0001 C CNN
	1    4000 1900
	0    -1   -1   0   
$EndComp
Text GLabel 3900 1900 0    50   Input ~ 0
uC
Text Notes 3450 1850 0    50   ~ 0
high active
$Comp
L power:GND #PWR0109
U 1 1 5C8771F2
P 6900 2150
F 0 "#PWR0109" H 6900 1900 50  0001 C CNN
F 1 "GND" V 6905 2022 50  0000 R CNN
F 2 "" H 6900 2150 50  0001 C CNN
F 3 "" H 6900 2150 50  0001 C CNN
	1    6900 2150
	1    0    0    -1  
$EndComp
Text GLabel 6400 1550 0    50   Input ~ 0
IMD_latch
$Comp
L power:+5V #PWR0113
U 1 1 5C878E3C
P 9100 1300
F 0 "#PWR0113" H 9100 1150 50  0001 C CNN
F 1 "+5V" H 9115 1473 50  0000 C CNN
F 2 "" H 9100 1300 50  0001 C CNN
F 3 "" H 9100 1300 50  0001 C CNN
	1    9100 1300
	1    0    0    -1  
$EndComp
Wire Wire Line
	9100 1300 9100 1350
$Comp
L Transistor_BJT:BC857 Q3
U 1 1 5C878E43
P 9000 1550
F 0 "Q3" H 9191 1504 50  0000 L CNN
F 1 "BC857" H 9191 1595 50  0000 L CNN
F 2 "Package_TO_SOT_SMD:SOT-23" H 9200 1475 50  0001 L CIN
F 3 "http://www.fairchildsemi.com/ds/BC/BC856.pdf" H 9000 1550 50  0001 L CNN
	1    9000 1550
	1    0    0    1   
$EndComp
$Comp
L Device:R_Small R10
U 1 1 5C87A081
P 9100 2050
F 0 "R10" H 9159 2096 50  0000 L CNN
F 1 "180R" H 9159 2005 50  0000 L CNN
F 2 "Resistor_SMD:R_0603_1608Metric" H 9100 2050 50  0001 C CNN
F 3 "~" H 9100 2050 50  0001 C CNN
	1    9100 2050
	1    0    0    -1  
$EndComp
$Comp
L power:GND #PWR0114
U 1 1 5C87A087
P 9100 2150
F 0 "#PWR0114" H 9100 1900 50  0001 C CNN
F 1 "GND" V 9105 2022 50  0000 R CNN
F 2 "" H 9100 2150 50  0001 C CNN
F 3 "" H 9100 2150 50  0001 C CNN
	1    9100 2150
	1    0    0    -1  
$EndComp
Text GLabel 8600 1550 0    50   Input ~ 0
BMS_latch
$Comp
L Device:R_Small R8
U 1 1 5C87F51F
P 6500 1550
F 0 "R8" V 6696 1550 50  0000 C CNN
F 1 "1k" V 6605 1550 50  0000 C CNN
F 2 "Resistor_SMD:R_0603_1608Metric" H 6500 1550 50  0001 C CNN
F 3 "~" H 6500 1550 50  0001 C CNN
	1    6500 1550
	0    -1   -1   0   
$EndComp
$Comp
L Device:R_Small R9
U 1 1 5C8867A5
P 8700 1550
F 0 "R9" V 8896 1550 50  0000 C CNN
F 1 "1k" V 8805 1550 50  0000 C CNN
F 2 "Resistor_SMD:R_0603_1608Metric" H 8700 1550 50  0001 C CNN
F 3 "~" H 8700 1550 50  0001 C CNN
	1    8700 1550
	0    -1   -1   0   
$EndComp
Text Notes 6000 1500 0    50   ~ 0
low active
Text Notes 8150 1500 0    50   ~ 0
low active
Wire Wire Line
	2400 1500 2400 1550
Wire Wire Line
	2400 1750 2400 1800
Wire Wire Line
	2400 1800 2450 1800
Wire Wire Line
	1650 1800 2400 1800
Wire Wire Line
	1900 1900 1900 2000
$Comp
L Device:LED_Small D2
U 1 1 5C8B867A
P 4200 1500
F 0 "D2" V 4246 1598 50  0000 L CNN
F 1 "LED_Small" V 4155 1598 50  0000 L CNN
F 2 "LED_SMD:LED_0603_1608Metric" V 4200 1500 50  0001 C CNN
F 3 "~" V 4200 1500 50  0001 C CNN
	1    4200 1500
	0    1    -1   0   
$EndComp
Wire Wire Line
	4400 1650 4200 1650
Wire Wire Line
	4200 1650 4200 1600
Connection ~ 4400 1650
$Comp
L Device:R_Small R12
U 1 1 5C8C57A0
P 4200 1250
F 0 "R12" H 4259 1296 50  0000 L CNN
F 1 "180R" H 4259 1205 50  0000 L CNN
F 2 "Resistor_SMD:R_0603_1608Metric" H 4200 1250 50  0001 C CNN
F 3 "~" H 4200 1250 50  0001 C CNN
	1    4200 1250
	1    0    0    -1  
$EndComp
$Comp
L power:+5V #PWR0115
U 1 1 5C8C5BE0
P 4200 1100
F 0 "#PWR0115" H 4200 950 50  0001 C CNN
F 1 "+5V" H 4215 1273 50  0000 C CNN
F 2 "" H 4200 1100 50  0001 C CNN
F 3 "" H 4200 1100 50  0001 C CNN
	1    4200 1100
	1    0    0    -1  
$EndComp
Wire Wire Line
	4200 1100 4200 1150
Wire Wire Line
	4200 1350 4200 1400
$Comp
L Device:LED_Small D3
U 1 1 5C8C992A
P 6500 1950
F 0 "D3" V 6546 2048 50  0000 L CNN
F 1 "LED_Small" V 6455 2048 50  0000 L CNN
F 2 "LED_SMD:LED_0603_1608Metric" V 6500 1950 50  0001 C CNN
F 3 "~" V 6500 1950 50  0001 C CNN
	1    6500 1950
	0    1    -1   0   
$EndComp
Wire Wire Line
	6500 1850 6500 1800
$Comp
L Device:R_Small R13
U 1 1 5C8CBE84
P 6500 2200
F 0 "R13" H 6559 2246 50  0000 L CNN
F 1 "180R" H 6559 2155 50  0000 L CNN
F 2 "Resistor_SMD:R_0603_1608Metric" H 6500 2200 50  0001 C CNN
F 3 "~" H 6500 2200 50  0001 C CNN
	1    6500 2200
	1    0    0    -1  
$EndComp
$Comp
L power:GND #PWR0116
U 1 1 5C8CC2FD
P 6500 2350
F 0 "#PWR0116" H 6500 2100 50  0001 C CNN
F 1 "GND" V 6505 2222 50  0000 R CNN
F 2 "" H 6500 2350 50  0001 C CNN
F 3 "" H 6500 2350 50  0001 C CNN
	1    6500 2350
	1    0    0    -1  
$EndComp
Wire Wire Line
	6500 2050 6500 2100
Wire Wire Line
	6500 2300 6500 2350
$Comp
L Device:LED_Small D4
U 1 1 5C8D110E
P 8650 1950
F 0 "D4" V 8696 2048 50  0000 L CNN
F 1 "LED_Small" V 8605 2048 50  0000 L CNN
F 2 "LED_SMD:LED_0603_1608Metric" V 8650 1950 50  0001 C CNN
F 3 "~" V 8650 1950 50  0001 C CNN
	1    8650 1950
	0    1    -1   0   
$EndComp
Wire Wire Line
	8650 1850 8650 1800
$Comp
L Device:R_Small R14
U 1 1 5C8D1116
P 8650 2200
F 0 "R14" H 8709 2246 50  0000 L CNN
F 1 "180R" H 8709 2155 50  0000 L CNN
F 2 "Resistor_SMD:R_0603_1608Metric" H 8650 2200 50  0001 C CNN
F 3 "~" H 8650 2200 50  0001 C CNN
	1    8650 2200
	1    0    0    -1  
$EndComp
$Comp
L power:GND #PWR0117
U 1 1 5C8D111C
P 8650 2350
F 0 "#PWR0117" H 8650 2100 50  0001 C CNN
F 1 "GND" V 8655 2222 50  0000 R CNN
F 2 "" H 8650 2350 50  0001 C CNN
F 3 "" H 8650 2350 50  0001 C CNN
	1    8650 2350
	1    0    0    -1  
$EndComp
Wire Wire Line
	8650 2050 8650 2100
Wire Wire Line
	8650 2300 8650 2350
$Comp
L Device:C_Small C5
U 1 1 5C8DE88F
P 6450 2950
F 0 "C5" H 6542 2996 50  0000 L CNN
F 1 "100n" H 6542 2905 50  0000 L CNN
F 2 "Capacitor_SMD:C_0603_1608Metric" H 6450 2950 50  0001 C CNN
F 3 "~" H 6450 2950 50  0001 C CNN
	1    6450 2950
	1    0    0    -1  
$EndComp
Connection ~ 6450 2850
$Comp
L power:GND #PWR0123
U 1 1 5C8DEEF8
P 6450 3050
F 0 "#PWR0123" H 6450 2800 50  0001 C CNN
F 1 "GND" V 6455 2922 50  0000 R CNN
F 2 "" H 6450 3050 50  0001 C CNN
F 3 "" H 6450 3050 50  0001 C CNN
	1    6450 3050
	1    0    0    -1  
$EndComp
$Comp
L Device:C_Small C6
U 1 1 5C8DF3BB
P 6700 2950
F 0 "C6" H 6792 2996 50  0000 L CNN
F 1 "100n" H 6792 2905 50  0000 L CNN
F 2 "Capacitor_SMD:C_0603_1608Metric" H 6700 2950 50  0001 C CNN
F 3 "~" H 6700 2950 50  0001 C CNN
	1    6700 2950
	1    0    0    -1  
$EndComp
$Comp
L power:GND #PWR0125
U 1 1 5C8DF7E0
P 6700 3050
F 0 "#PWR0125" H 6700 2800 50  0001 C CNN
F 1 "GND" V 6705 2922 50  0000 R CNN
F 2 "" H 6700 3050 50  0001 C CNN
F 3 "" H 6700 3050 50  0001 C CNN
	1    6700 3050
	1    0    0    -1  
$EndComp
Wire Wire Line
	6450 2850 6700 2850
Wire Wire Line
	6500 1800 6900 1800
Connection ~ 6900 1800
Text Label 6500 1800 0    50   ~ 0
IMD_Trans.
Connection ~ 9100 1800
Text Label 8650 1800 0    50   ~ 0
BMS_Trans.
Wire Wire Line
	8650 1800 9100 1800
Text GLabel 1650 1400 2    50   Input ~ 0
SC_OUT_DELAY
Text GLabel 1650 1200 2    50   Input ~ 0
SC_OUT
Text GLabel 1650 1300 2    50   Input ~ 0
SC_IN
$Comp
L power:+24V #PWR0105
U 1 1 5C845434
P 1650 2000
F 0 "#PWR0105" H 1650 1850 50  0001 C CNN
F 1 "+24V" V 1665 2128 50  0000 L CNN
F 2 "" H 1650 2000 50  0001 C CNN
F 3 "" H 1650 2000 50  0001 C CNN
	1    1650 2000
	0    1    1    0   
$EndComp
Wire Wire Line
	1650 1900 1900 1900
Connection ~ 2400 1800
$Comp
L Device:L_Small L?
U 1 1 5CC0DCF7
P 6150 3700
F 0 "L?" V 6335 3700 50  0000 C CNN
F 1 "L_Small" V 6244 3700 50  0000 C CNN
F 2 "" H 6150 3700 50  0001 C CNN
F 3 "~" H 6150 3700 50  0001 C CNN
	1    6150 3700
	0    -1   -1   0   
$EndComp
Wire Wire Line
	6250 3700 6350 3700
Wire Wire Line
	6050 3700 5900 3700
$EndSCHEMATC
