G04 #@! TF.GenerationSoftware,KiCad,Pcbnew,5.1.0-060a0da~80~ubuntu18.04.1*
G04 #@! TF.CreationDate,2019-04-21T09:34:18+02:00*
G04 #@! TF.ProjectId,sc,73632e6b-6963-4616-945f-706362585858,rev?*
G04 #@! TF.SameCoordinates,Original*
G04 #@! TF.FileFunction,Copper,L2,Bot*
G04 #@! TF.FilePolarity,Positive*
%FSLAX46Y46*%
G04 Gerber Fmt 4.6, Leading zero omitted, Abs format (unit mm)*
G04 Created by KiCad (PCBNEW 5.1.0-060a0da~80~ubuntu18.04.1) date 2019-04-21 09:34:18*
%MOMM*%
%LPD*%
G04 APERTURE LIST*
%ADD10O,1.500000X2.300000*%
%ADD11R,1.500000X2.300000*%
%ADD12C,4.800000*%
%ADD13C,1.300000*%
%ADD14O,2.400000X2.400000*%
%ADD15R,2.400000X2.400000*%
%ADD16C,6.400000*%
%ADD17C,0.800000*%
%ADD18C,0.500000*%
%ADD19C,0.254000*%
G04 APERTURE END LIST*
D10*
X97380000Y-50100000D03*
X94840000Y-50100000D03*
D11*
X92300000Y-50100000D03*
D12*
X81730000Y-87380000D03*
X81730000Y-62380000D03*
D13*
X80460000Y-78990000D03*
X80460000Y-76250000D03*
X80460000Y-73510000D03*
X80460000Y-70770000D03*
X83000000Y-80360000D03*
X83000000Y-77620000D03*
X83000000Y-74880000D03*
X83000000Y-72140000D03*
X83000000Y-69400000D03*
D14*
X192000000Y-50000000D03*
D15*
X192000000Y-110000000D03*
D14*
X138500000Y-50000000D03*
D15*
X138500000Y-110000000D03*
D14*
X165250000Y-50000000D03*
D15*
X165250000Y-110000000D03*
D16*
X75000000Y-115000000D03*
X215000000Y-115000000D03*
X215000000Y-45000000D03*
X75000000Y-45000000D03*
D17*
X92700000Y-74200000D03*
X115175000Y-103725000D03*
X118650000Y-45150000D03*
X102825000Y-91100000D03*
X96575000Y-91500000D03*
X110125000Y-91100000D03*
X102377500Y-74360000D03*
X107300000Y-51350000D03*
X92350000Y-105450000D03*
X105000000Y-45150000D03*
X94005000Y-98200000D03*
X108400000Y-45150000D03*
X103845000Y-98200000D03*
X111750000Y-45150000D03*
X111145000Y-98200000D03*
X115150000Y-45150000D03*
D18*
X118650000Y-57800000D02*
X118650000Y-45150000D01*
X121500044Y-60650044D02*
X118650000Y-57800000D01*
X121500044Y-88899956D02*
X121500044Y-60650044D01*
X115175000Y-103725000D02*
X115175000Y-95225000D01*
X115175000Y-95225000D02*
X121500044Y-88899956D01*
X102825000Y-91100000D02*
X110125000Y-91100000D01*
X96575000Y-91500000D02*
X99500000Y-91500000D01*
X99900000Y-91100000D02*
X102825000Y-91100000D01*
X99500000Y-91500000D02*
X99900000Y-91100000D01*
X102825000Y-91100000D02*
X102825000Y-83425000D01*
X102377500Y-82977500D02*
X102377500Y-74360000D01*
X102825000Y-83425000D02*
X102377500Y-82977500D01*
X102377500Y-74360000D02*
X102377500Y-62877500D01*
X97380000Y-57880000D02*
X97380000Y-50100000D01*
X102377500Y-62877500D02*
X97380000Y-57880000D01*
X105000000Y-57750000D02*
X105000000Y-45150000D01*
X107600000Y-60350000D02*
X105000000Y-57750000D01*
X117150000Y-60350000D02*
X107600000Y-60350000D01*
X92350000Y-98150000D02*
X97900000Y-92600000D01*
X92350000Y-105450000D02*
X92350000Y-98150000D01*
X97900000Y-92600000D02*
X113800000Y-92600000D01*
X113800000Y-92600000D02*
X118700000Y-87700000D01*
X118700000Y-87700000D02*
X118700000Y-61900000D01*
X118700000Y-61900000D02*
X117150000Y-60350000D01*
X108400000Y-57300000D02*
X108400000Y-45150000D01*
X110750000Y-59650000D02*
X108400000Y-57300000D01*
X98855011Y-93349989D02*
X114039976Y-93349989D01*
X94005000Y-98200000D02*
X98855011Y-93349989D01*
X114039976Y-93349989D02*
X119400011Y-87989954D01*
X119400011Y-61600011D02*
X117450000Y-59650000D01*
X119400011Y-87989954D02*
X119400011Y-61600011D01*
X117450000Y-59650000D02*
X110750000Y-59650000D01*
X112149999Y-45549999D02*
X111750000Y-45150000D01*
X112149999Y-57549999D02*
X112149999Y-45549999D01*
X113550000Y-58950000D02*
X112149999Y-57549999D01*
X107995000Y-94050000D02*
X114329930Y-94050000D01*
X103845000Y-98200000D02*
X107995000Y-94050000D01*
X114329930Y-94050000D02*
X120100022Y-88279908D01*
X120100022Y-88279908D02*
X120100022Y-61300022D01*
X120100022Y-61300022D02*
X117750000Y-58950000D01*
X117750000Y-58950000D02*
X113550000Y-58950000D01*
X115150000Y-56850000D02*
X115150000Y-45150000D01*
X111145000Y-98200000D02*
X111200000Y-98200000D01*
X120800033Y-88599967D02*
X120800033Y-61000033D01*
X120800033Y-61000033D02*
X118050000Y-58250000D01*
X118050000Y-58250000D02*
X116550000Y-58250000D01*
X111200000Y-98200000D02*
X120800033Y-88599967D01*
X116550000Y-58250000D02*
X115150000Y-56850000D01*
D19*
G36*
X219273001Y-119273000D02*
G01*
X70727000Y-119273000D01*
X70727000Y-114623073D01*
X71173000Y-114623073D01*
X71173000Y-115376927D01*
X71320070Y-116116295D01*
X71608557Y-116812764D01*
X72027375Y-117439570D01*
X72560430Y-117972625D01*
X73187236Y-118391443D01*
X73883705Y-118679930D01*
X74623073Y-118827000D01*
X75376927Y-118827000D01*
X76116295Y-118679930D01*
X76812764Y-118391443D01*
X77439570Y-117972625D01*
X77972625Y-117439570D01*
X78391443Y-116812764D01*
X78679930Y-116116295D01*
X78827000Y-115376927D01*
X78827000Y-114623073D01*
X211173000Y-114623073D01*
X211173000Y-115376927D01*
X211320070Y-116116295D01*
X211608557Y-116812764D01*
X212027375Y-117439570D01*
X212560430Y-117972625D01*
X213187236Y-118391443D01*
X213883705Y-118679930D01*
X214623073Y-118827000D01*
X215376927Y-118827000D01*
X216116295Y-118679930D01*
X216812764Y-118391443D01*
X217439570Y-117972625D01*
X217972625Y-117439570D01*
X218391443Y-116812764D01*
X218679930Y-116116295D01*
X218827000Y-115376927D01*
X218827000Y-114623073D01*
X218679930Y-113883705D01*
X218391443Y-113187236D01*
X217972625Y-112560430D01*
X217439570Y-112027375D01*
X216812764Y-111608557D01*
X216116295Y-111320070D01*
X215376927Y-111173000D01*
X214623073Y-111173000D01*
X213883705Y-111320070D01*
X213187236Y-111608557D01*
X212560430Y-112027375D01*
X212027375Y-112560430D01*
X211608557Y-113187236D01*
X211320070Y-113883705D01*
X211173000Y-114623073D01*
X78827000Y-114623073D01*
X78679930Y-113883705D01*
X78391443Y-113187236D01*
X77972625Y-112560430D01*
X77439570Y-112027375D01*
X76812764Y-111608557D01*
X76116295Y-111320070D01*
X75376927Y-111173000D01*
X74623073Y-111173000D01*
X73883705Y-111320070D01*
X73187236Y-111608557D01*
X72560430Y-112027375D01*
X72027375Y-112560430D01*
X71608557Y-113187236D01*
X71320070Y-113883705D01*
X71173000Y-114623073D01*
X70727000Y-114623073D01*
X70727000Y-108800000D01*
X136669967Y-108800000D01*
X136669967Y-111200000D01*
X136682073Y-111322913D01*
X136717925Y-111441103D01*
X136776147Y-111550028D01*
X136854499Y-111645501D01*
X136949972Y-111723853D01*
X137058897Y-111782075D01*
X137177087Y-111817927D01*
X137300000Y-111830033D01*
X139700000Y-111830033D01*
X139822913Y-111817927D01*
X139941103Y-111782075D01*
X140050028Y-111723853D01*
X140145501Y-111645501D01*
X140223853Y-111550028D01*
X140282075Y-111441103D01*
X140317927Y-111322913D01*
X140330033Y-111200000D01*
X140330033Y-108800000D01*
X163419967Y-108800000D01*
X163419967Y-111200000D01*
X163432073Y-111322913D01*
X163467925Y-111441103D01*
X163526147Y-111550028D01*
X163604499Y-111645501D01*
X163699972Y-111723853D01*
X163808897Y-111782075D01*
X163927087Y-111817927D01*
X164050000Y-111830033D01*
X166450000Y-111830033D01*
X166572913Y-111817927D01*
X166691103Y-111782075D01*
X166800028Y-111723853D01*
X166895501Y-111645501D01*
X166973853Y-111550028D01*
X167032075Y-111441103D01*
X167067927Y-111322913D01*
X167080033Y-111200000D01*
X167080033Y-108800000D01*
X190169967Y-108800000D01*
X190169967Y-111200000D01*
X190182073Y-111322913D01*
X190217925Y-111441103D01*
X190276147Y-111550028D01*
X190354499Y-111645501D01*
X190449972Y-111723853D01*
X190558897Y-111782075D01*
X190677087Y-111817927D01*
X190800000Y-111830033D01*
X193200000Y-111830033D01*
X193322913Y-111817927D01*
X193441103Y-111782075D01*
X193550028Y-111723853D01*
X193645501Y-111645501D01*
X193723853Y-111550028D01*
X193782075Y-111441103D01*
X193817927Y-111322913D01*
X193830033Y-111200000D01*
X193830033Y-108800000D01*
X193817927Y-108677087D01*
X193782075Y-108558897D01*
X193723853Y-108449972D01*
X193645501Y-108354499D01*
X193550028Y-108276147D01*
X193441103Y-108217925D01*
X193322913Y-108182073D01*
X193200000Y-108169967D01*
X190800000Y-108169967D01*
X190677087Y-108182073D01*
X190558897Y-108217925D01*
X190449972Y-108276147D01*
X190354499Y-108354499D01*
X190276147Y-108449972D01*
X190217925Y-108558897D01*
X190182073Y-108677087D01*
X190169967Y-108800000D01*
X167080033Y-108800000D01*
X167067927Y-108677087D01*
X167032075Y-108558897D01*
X166973853Y-108449972D01*
X166895501Y-108354499D01*
X166800028Y-108276147D01*
X166691103Y-108217925D01*
X166572913Y-108182073D01*
X166450000Y-108169967D01*
X164050000Y-108169967D01*
X163927087Y-108182073D01*
X163808897Y-108217925D01*
X163699972Y-108276147D01*
X163604499Y-108354499D01*
X163526147Y-108449972D01*
X163467925Y-108558897D01*
X163432073Y-108677087D01*
X163419967Y-108800000D01*
X140330033Y-108800000D01*
X140317927Y-108677087D01*
X140282075Y-108558897D01*
X140223853Y-108449972D01*
X140145501Y-108354499D01*
X140050028Y-108276147D01*
X139941103Y-108217925D01*
X139822913Y-108182073D01*
X139700000Y-108169967D01*
X137300000Y-108169967D01*
X137177087Y-108182073D01*
X137058897Y-108217925D01*
X136949972Y-108276147D01*
X136854499Y-108354499D01*
X136776147Y-108449972D01*
X136717925Y-108558897D01*
X136682073Y-108677087D01*
X136669967Y-108800000D01*
X70727000Y-108800000D01*
X70727000Y-105348849D01*
X91323000Y-105348849D01*
X91323000Y-105551151D01*
X91362467Y-105749565D01*
X91439885Y-105936467D01*
X91552277Y-106104674D01*
X91695326Y-106247723D01*
X91863533Y-106360115D01*
X92050435Y-106437533D01*
X92248849Y-106477000D01*
X92451151Y-106477000D01*
X92649565Y-106437533D01*
X92836467Y-106360115D01*
X93004674Y-106247723D01*
X93147723Y-106104674D01*
X93260115Y-105936467D01*
X93337533Y-105749565D01*
X93377000Y-105551151D01*
X93377000Y-105348849D01*
X93337533Y-105150435D01*
X93260115Y-104963533D01*
X93227000Y-104913973D01*
X93227000Y-98874397D01*
X93350326Y-98997723D01*
X93518533Y-99110115D01*
X93705435Y-99187533D01*
X93903849Y-99227000D01*
X94106151Y-99227000D01*
X94304565Y-99187533D01*
X94491467Y-99110115D01*
X94659674Y-98997723D01*
X94802723Y-98854674D01*
X94915115Y-98686467D01*
X94992533Y-98499565D01*
X95004162Y-98441103D01*
X99218276Y-94226989D01*
X106577746Y-94226989D01*
X103603897Y-97200838D01*
X103545435Y-97212467D01*
X103358533Y-97289885D01*
X103190326Y-97402277D01*
X103047277Y-97545326D01*
X102934885Y-97713533D01*
X102857467Y-97900435D01*
X102818000Y-98098849D01*
X102818000Y-98301151D01*
X102857467Y-98499565D01*
X102934885Y-98686467D01*
X103047277Y-98854674D01*
X103190326Y-98997723D01*
X103358533Y-99110115D01*
X103545435Y-99187533D01*
X103743849Y-99227000D01*
X103946151Y-99227000D01*
X104144565Y-99187533D01*
X104331467Y-99110115D01*
X104499674Y-98997723D01*
X104642723Y-98854674D01*
X104755115Y-98686467D01*
X104832533Y-98499565D01*
X104844162Y-98441103D01*
X108358265Y-94927000D01*
X113232735Y-94927000D01*
X110972553Y-97187182D01*
X110845435Y-97212467D01*
X110658533Y-97289885D01*
X110490326Y-97402277D01*
X110347277Y-97545326D01*
X110234885Y-97713533D01*
X110157467Y-97900435D01*
X110118000Y-98098849D01*
X110118000Y-98301151D01*
X110157467Y-98499565D01*
X110234885Y-98686467D01*
X110347277Y-98854674D01*
X110490326Y-98997723D01*
X110658533Y-99110115D01*
X110845435Y-99187533D01*
X111043849Y-99227000D01*
X111246151Y-99227000D01*
X111444565Y-99187533D01*
X111631467Y-99110115D01*
X111799674Y-98997723D01*
X111942723Y-98854674D01*
X112055115Y-98686467D01*
X112126758Y-98513507D01*
X114298001Y-96342264D01*
X114298000Y-103188973D01*
X114264885Y-103238533D01*
X114187467Y-103425435D01*
X114148000Y-103623849D01*
X114148000Y-103826151D01*
X114187467Y-104024565D01*
X114264885Y-104211467D01*
X114377277Y-104379674D01*
X114520326Y-104522723D01*
X114688533Y-104635115D01*
X114875435Y-104712533D01*
X115073849Y-104752000D01*
X115276151Y-104752000D01*
X115474565Y-104712533D01*
X115661467Y-104635115D01*
X115829674Y-104522723D01*
X115972723Y-104379674D01*
X116085115Y-104211467D01*
X116162533Y-104024565D01*
X116202000Y-103826151D01*
X116202000Y-103623849D01*
X116162533Y-103425435D01*
X116085115Y-103238533D01*
X116052000Y-103188973D01*
X116052000Y-95588265D01*
X122089719Y-89550547D01*
X122123177Y-89523089D01*
X122232771Y-89389548D01*
X122314206Y-89237193D01*
X122318481Y-89223100D01*
X122364354Y-89071879D01*
X122381287Y-88899957D01*
X122377044Y-88856877D01*
X122377044Y-60693123D01*
X122381287Y-60650044D01*
X122364354Y-60478121D01*
X122314206Y-60312807D01*
X122275114Y-60239671D01*
X122232771Y-60160452D01*
X122123177Y-60026911D01*
X122089718Y-59999452D01*
X119527000Y-57436735D01*
X119527000Y-45686027D01*
X119560115Y-45636467D01*
X119637533Y-45449565D01*
X119677000Y-45251151D01*
X119677000Y-45048849D01*
X119637533Y-44850435D01*
X119560115Y-44663533D01*
X119533081Y-44623073D01*
X211173000Y-44623073D01*
X211173000Y-45376927D01*
X211320070Y-46116295D01*
X211608557Y-46812764D01*
X212027375Y-47439570D01*
X212560430Y-47972625D01*
X213187236Y-48391443D01*
X213883705Y-48679930D01*
X214623073Y-48827000D01*
X215376927Y-48827000D01*
X216116295Y-48679930D01*
X216812764Y-48391443D01*
X217439570Y-47972625D01*
X217972625Y-47439570D01*
X218391443Y-46812764D01*
X218679930Y-46116295D01*
X218827000Y-45376927D01*
X218827000Y-44623073D01*
X218679930Y-43883705D01*
X218391443Y-43187236D01*
X217972625Y-42560430D01*
X217439570Y-42027375D01*
X216812764Y-41608557D01*
X216116295Y-41320070D01*
X215376927Y-41173000D01*
X214623073Y-41173000D01*
X213883705Y-41320070D01*
X213187236Y-41608557D01*
X212560430Y-42027375D01*
X212027375Y-42560430D01*
X211608557Y-43187236D01*
X211320070Y-43883705D01*
X211173000Y-44623073D01*
X119533081Y-44623073D01*
X119447723Y-44495326D01*
X119304674Y-44352277D01*
X119136467Y-44239885D01*
X118949565Y-44162467D01*
X118751151Y-44123000D01*
X118548849Y-44123000D01*
X118350435Y-44162467D01*
X118163533Y-44239885D01*
X117995326Y-44352277D01*
X117852277Y-44495326D01*
X117739885Y-44663533D01*
X117662467Y-44850435D01*
X117623000Y-45048849D01*
X117623000Y-45251151D01*
X117662467Y-45449565D01*
X117739885Y-45636467D01*
X117773001Y-45686029D01*
X117773000Y-57373000D01*
X116913266Y-57373000D01*
X116027000Y-56486735D01*
X116027000Y-45686027D01*
X116060115Y-45636467D01*
X116137533Y-45449565D01*
X116177000Y-45251151D01*
X116177000Y-45048849D01*
X116137533Y-44850435D01*
X116060115Y-44663533D01*
X115947723Y-44495326D01*
X115804674Y-44352277D01*
X115636467Y-44239885D01*
X115449565Y-44162467D01*
X115251151Y-44123000D01*
X115048849Y-44123000D01*
X114850435Y-44162467D01*
X114663533Y-44239885D01*
X114495326Y-44352277D01*
X114352277Y-44495326D01*
X114239885Y-44663533D01*
X114162467Y-44850435D01*
X114123000Y-45048849D01*
X114123000Y-45251151D01*
X114162467Y-45449565D01*
X114239885Y-45636467D01*
X114273001Y-45686029D01*
X114273000Y-56806920D01*
X114268757Y-56850000D01*
X114285690Y-57021922D01*
X114323716Y-57147274D01*
X114335838Y-57187236D01*
X114417273Y-57339591D01*
X114526867Y-57473133D01*
X114560331Y-57500597D01*
X115132735Y-58073000D01*
X113913265Y-58073000D01*
X113026999Y-57186734D01*
X113026999Y-45593078D01*
X113031242Y-45549998D01*
X113014309Y-45378076D01*
X112964161Y-45212762D01*
X112930614Y-45150000D01*
X112882726Y-45060407D01*
X112773132Y-44926866D01*
X112748757Y-44906862D01*
X112737533Y-44850435D01*
X112660115Y-44663533D01*
X112547723Y-44495326D01*
X112404674Y-44352277D01*
X112236467Y-44239885D01*
X112049565Y-44162467D01*
X111851151Y-44123000D01*
X111648849Y-44123000D01*
X111450435Y-44162467D01*
X111263533Y-44239885D01*
X111095326Y-44352277D01*
X110952277Y-44495326D01*
X110839885Y-44663533D01*
X110762467Y-44850435D01*
X110723000Y-45048849D01*
X110723000Y-45251151D01*
X110762467Y-45449565D01*
X110839885Y-45636467D01*
X110952277Y-45804674D01*
X111095326Y-45947723D01*
X111263533Y-46060115D01*
X111273000Y-46064036D01*
X111272999Y-57506919D01*
X111268756Y-57549999D01*
X111285689Y-57721921D01*
X111307275Y-57793079D01*
X111335837Y-57887235D01*
X111417272Y-58039590D01*
X111526866Y-58173132D01*
X111560331Y-58200596D01*
X112132735Y-58773000D01*
X111113266Y-58773000D01*
X109277000Y-56936735D01*
X109277000Y-45686027D01*
X109310115Y-45636467D01*
X109387533Y-45449565D01*
X109427000Y-45251151D01*
X109427000Y-45048849D01*
X109387533Y-44850435D01*
X109310115Y-44663533D01*
X109197723Y-44495326D01*
X109054674Y-44352277D01*
X108886467Y-44239885D01*
X108699565Y-44162467D01*
X108501151Y-44123000D01*
X108298849Y-44123000D01*
X108100435Y-44162467D01*
X107913533Y-44239885D01*
X107745326Y-44352277D01*
X107602277Y-44495326D01*
X107489885Y-44663533D01*
X107412467Y-44850435D01*
X107373000Y-45048849D01*
X107373000Y-45251151D01*
X107412467Y-45449565D01*
X107489885Y-45636467D01*
X107523001Y-45686029D01*
X107523001Y-50347237D01*
X107401151Y-50323000D01*
X107198849Y-50323000D01*
X107000435Y-50362467D01*
X106813533Y-50439885D01*
X106645326Y-50552277D01*
X106502277Y-50695326D01*
X106389885Y-50863533D01*
X106312467Y-51050435D01*
X106273000Y-51248849D01*
X106273000Y-51451151D01*
X106312467Y-51649565D01*
X106389885Y-51836467D01*
X106502277Y-52004674D01*
X106645326Y-52147723D01*
X106813533Y-52260115D01*
X107000435Y-52337533D01*
X107198849Y-52377000D01*
X107401151Y-52377000D01*
X107523000Y-52352763D01*
X107523000Y-57256920D01*
X107518757Y-57300000D01*
X107535690Y-57471922D01*
X107569303Y-57582727D01*
X107585838Y-57637236D01*
X107667273Y-57789591D01*
X107776867Y-57923133D01*
X107810332Y-57950597D01*
X109332734Y-59473000D01*
X107963265Y-59473000D01*
X105877000Y-57386735D01*
X105877000Y-45686027D01*
X105910115Y-45636467D01*
X105987533Y-45449565D01*
X106027000Y-45251151D01*
X106027000Y-45048849D01*
X105987533Y-44850435D01*
X105910115Y-44663533D01*
X105797723Y-44495326D01*
X105654674Y-44352277D01*
X105486467Y-44239885D01*
X105299565Y-44162467D01*
X105101151Y-44123000D01*
X104898849Y-44123000D01*
X104700435Y-44162467D01*
X104513533Y-44239885D01*
X104345326Y-44352277D01*
X104202277Y-44495326D01*
X104089885Y-44663533D01*
X104012467Y-44850435D01*
X103973000Y-45048849D01*
X103973000Y-45251151D01*
X104012467Y-45449565D01*
X104089885Y-45636467D01*
X104123001Y-45686029D01*
X104123000Y-57706920D01*
X104118757Y-57750000D01*
X104135690Y-57921922D01*
X104180232Y-58068757D01*
X104185838Y-58087236D01*
X104267273Y-58239591D01*
X104376867Y-58373133D01*
X104410332Y-58400597D01*
X106949403Y-60939668D01*
X106976867Y-60973133D01*
X107110408Y-61082727D01*
X107262763Y-61164162D01*
X107428078Y-61214310D01*
X107556921Y-61227000D01*
X107556930Y-61227000D01*
X107599999Y-61231242D01*
X107643069Y-61227000D01*
X116786735Y-61227000D01*
X117823001Y-62263267D01*
X117823000Y-87336735D01*
X113436735Y-91723000D01*
X110943887Y-91723000D01*
X111035115Y-91586467D01*
X111112533Y-91399565D01*
X111152000Y-91201151D01*
X111152000Y-90998849D01*
X111112533Y-90800435D01*
X111035115Y-90613533D01*
X110922723Y-90445326D01*
X110779674Y-90302277D01*
X110611467Y-90189885D01*
X110424565Y-90112467D01*
X110226151Y-90073000D01*
X110023849Y-90073000D01*
X109825435Y-90112467D01*
X109638533Y-90189885D01*
X109588973Y-90223000D01*
X103702000Y-90223000D01*
X103702000Y-83468079D01*
X103706243Y-83425000D01*
X103689310Y-83253077D01*
X103639162Y-83087763D01*
X103557727Y-82935408D01*
X103448133Y-82801867D01*
X103414663Y-82774399D01*
X103254500Y-82614236D01*
X103254500Y-74896027D01*
X103287615Y-74846467D01*
X103365033Y-74659565D01*
X103404500Y-74461151D01*
X103404500Y-74258849D01*
X103365033Y-74060435D01*
X103287615Y-73873533D01*
X103254500Y-73823973D01*
X103254500Y-62920569D01*
X103258742Y-62877499D01*
X103254500Y-62834430D01*
X103254500Y-62834421D01*
X103241810Y-62705578D01*
X103191662Y-62540263D01*
X103110227Y-62387908D01*
X103000633Y-62254367D01*
X102967168Y-62226903D01*
X98257000Y-57516735D01*
X98257000Y-51561611D01*
X98358397Y-51478397D01*
X98530473Y-51268721D01*
X98658337Y-51029505D01*
X98737075Y-50769939D01*
X98757000Y-50567639D01*
X98757000Y-49632360D01*
X98737075Y-49430061D01*
X98658337Y-49170495D01*
X98530473Y-48931279D01*
X98358396Y-48721603D01*
X98148720Y-48549527D01*
X97909504Y-48421663D01*
X97649938Y-48342925D01*
X97380000Y-48316338D01*
X97110061Y-48342925D01*
X96850495Y-48421663D01*
X96611279Y-48549527D01*
X96401603Y-48721604D01*
X96229527Y-48931280D01*
X96101663Y-49170496D01*
X96022925Y-49430062D01*
X96003000Y-49632361D01*
X96003000Y-50567640D01*
X96022925Y-50769939D01*
X96101663Y-51029505D01*
X96229527Y-51268721D01*
X96401604Y-51478397D01*
X96503001Y-51561611D01*
X96503000Y-57836920D01*
X96498757Y-57880000D01*
X96515690Y-58051922D01*
X96525934Y-58085690D01*
X96565838Y-58217236D01*
X96647273Y-58369591D01*
X96756867Y-58503133D01*
X96790332Y-58530597D01*
X101500501Y-63240766D01*
X101500500Y-73823973D01*
X101467385Y-73873533D01*
X101389967Y-74060435D01*
X101350500Y-74258849D01*
X101350500Y-74461151D01*
X101389967Y-74659565D01*
X101467385Y-74846467D01*
X101500501Y-74896029D01*
X101500500Y-82934420D01*
X101496257Y-82977500D01*
X101500500Y-83020578D01*
X101513190Y-83149421D01*
X101563338Y-83314736D01*
X101644773Y-83467091D01*
X101754367Y-83600633D01*
X101787832Y-83628097D01*
X101948001Y-83788266D01*
X101948000Y-90223000D01*
X99943069Y-90223000D01*
X99899999Y-90218758D01*
X99856930Y-90223000D01*
X99856921Y-90223000D01*
X99728078Y-90235690D01*
X99562763Y-90285838D01*
X99410408Y-90367273D01*
X99276867Y-90476867D01*
X99249399Y-90510337D01*
X99136736Y-90623000D01*
X97111027Y-90623000D01*
X97061467Y-90589885D01*
X96874565Y-90512467D01*
X96676151Y-90473000D01*
X96473849Y-90473000D01*
X96275435Y-90512467D01*
X96088533Y-90589885D01*
X95920326Y-90702277D01*
X95777277Y-90845326D01*
X95664885Y-91013533D01*
X95587467Y-91200435D01*
X95548000Y-91398849D01*
X95548000Y-91601151D01*
X95587467Y-91799565D01*
X95664885Y-91986467D01*
X95777277Y-92154674D01*
X95920326Y-92297723D01*
X96088533Y-92410115D01*
X96275435Y-92487533D01*
X96473849Y-92527000D01*
X96676151Y-92527000D01*
X96746785Y-92512950D01*
X91760327Y-97499408D01*
X91726868Y-97526867D01*
X91699409Y-97560326D01*
X91699406Y-97560329D01*
X91617274Y-97660408D01*
X91535838Y-97812764D01*
X91485690Y-97978078D01*
X91468757Y-98150000D01*
X91473001Y-98193090D01*
X91473000Y-104913973D01*
X91439885Y-104963533D01*
X91362467Y-105150435D01*
X91323000Y-105348849D01*
X70727000Y-105348849D01*
X70727000Y-87081867D01*
X78703000Y-87081867D01*
X78703000Y-87678133D01*
X78819326Y-88262943D01*
X79047508Y-88813822D01*
X79378776Y-89309600D01*
X79800400Y-89731224D01*
X80296178Y-90062492D01*
X80847057Y-90290674D01*
X81431867Y-90407000D01*
X82028133Y-90407000D01*
X82612943Y-90290674D01*
X83163822Y-90062492D01*
X83659600Y-89731224D01*
X84081224Y-89309600D01*
X84412492Y-88813822D01*
X84640674Y-88262943D01*
X84757000Y-87678133D01*
X84757000Y-87081867D01*
X84640674Y-86497057D01*
X84412492Y-85946178D01*
X84081224Y-85450400D01*
X83659600Y-85028776D01*
X83163822Y-84697508D01*
X82612943Y-84469326D01*
X82028133Y-84353000D01*
X81431867Y-84353000D01*
X80847057Y-84469326D01*
X80296178Y-84697508D01*
X79800400Y-85028776D01*
X79378776Y-85450400D01*
X79047508Y-85946178D01*
X78819326Y-86497057D01*
X78703000Y-87081867D01*
X70727000Y-87081867D01*
X70727000Y-78864226D01*
X79183000Y-78864226D01*
X79183000Y-79115774D01*
X79232074Y-79362487D01*
X79328337Y-79594886D01*
X79468089Y-79804040D01*
X79645960Y-79981911D01*
X79855114Y-80121663D01*
X80087513Y-80217926D01*
X80334226Y-80267000D01*
X80585774Y-80267000D01*
X80750540Y-80234226D01*
X81723000Y-80234226D01*
X81723000Y-80485774D01*
X81772074Y-80732487D01*
X81868337Y-80964886D01*
X82008089Y-81174040D01*
X82185960Y-81351911D01*
X82395114Y-81491663D01*
X82627513Y-81587926D01*
X82874226Y-81637000D01*
X83125774Y-81637000D01*
X83372487Y-81587926D01*
X83604886Y-81491663D01*
X83814040Y-81351911D01*
X83991911Y-81174040D01*
X84131663Y-80964886D01*
X84227926Y-80732487D01*
X84277000Y-80485774D01*
X84277000Y-80234226D01*
X84227926Y-79987513D01*
X84131663Y-79755114D01*
X83991911Y-79545960D01*
X83814040Y-79368089D01*
X83604886Y-79228337D01*
X83372487Y-79132074D01*
X83125774Y-79083000D01*
X82874226Y-79083000D01*
X82627513Y-79132074D01*
X82395114Y-79228337D01*
X82185960Y-79368089D01*
X82008089Y-79545960D01*
X81868337Y-79755114D01*
X81772074Y-79987513D01*
X81723000Y-80234226D01*
X80750540Y-80234226D01*
X80832487Y-80217926D01*
X81064886Y-80121663D01*
X81274040Y-79981911D01*
X81451911Y-79804040D01*
X81591663Y-79594886D01*
X81687926Y-79362487D01*
X81737000Y-79115774D01*
X81737000Y-78864226D01*
X81687926Y-78617513D01*
X81591663Y-78385114D01*
X81451911Y-78175960D01*
X81274040Y-77998089D01*
X81064886Y-77858337D01*
X80832487Y-77762074D01*
X80585774Y-77713000D01*
X80334226Y-77713000D01*
X80087513Y-77762074D01*
X79855114Y-77858337D01*
X79645960Y-77998089D01*
X79468089Y-78175960D01*
X79328337Y-78385114D01*
X79232074Y-78617513D01*
X79183000Y-78864226D01*
X70727000Y-78864226D01*
X70727000Y-76124226D01*
X79183000Y-76124226D01*
X79183000Y-76375774D01*
X79232074Y-76622487D01*
X79328337Y-76854886D01*
X79468089Y-77064040D01*
X79645960Y-77241911D01*
X79855114Y-77381663D01*
X80087513Y-77477926D01*
X80334226Y-77527000D01*
X80585774Y-77527000D01*
X80750540Y-77494226D01*
X81723000Y-77494226D01*
X81723000Y-77745774D01*
X81772074Y-77992487D01*
X81868337Y-78224886D01*
X82008089Y-78434040D01*
X82185960Y-78611911D01*
X82395114Y-78751663D01*
X82627513Y-78847926D01*
X82874226Y-78897000D01*
X83125774Y-78897000D01*
X83372487Y-78847926D01*
X83604886Y-78751663D01*
X83814040Y-78611911D01*
X83991911Y-78434040D01*
X84131663Y-78224886D01*
X84227926Y-77992487D01*
X84277000Y-77745774D01*
X84277000Y-77494226D01*
X84227926Y-77247513D01*
X84131663Y-77015114D01*
X83991911Y-76805960D01*
X83814040Y-76628089D01*
X83604886Y-76488337D01*
X83372487Y-76392074D01*
X83125774Y-76343000D01*
X82874226Y-76343000D01*
X82627513Y-76392074D01*
X82395114Y-76488337D01*
X82185960Y-76628089D01*
X82008089Y-76805960D01*
X81868337Y-77015114D01*
X81772074Y-77247513D01*
X81723000Y-77494226D01*
X80750540Y-77494226D01*
X80832487Y-77477926D01*
X81064886Y-77381663D01*
X81274040Y-77241911D01*
X81451911Y-77064040D01*
X81591663Y-76854886D01*
X81687926Y-76622487D01*
X81737000Y-76375774D01*
X81737000Y-76124226D01*
X81687926Y-75877513D01*
X81591663Y-75645114D01*
X81451911Y-75435960D01*
X81274040Y-75258089D01*
X81064886Y-75118337D01*
X80832487Y-75022074D01*
X80585774Y-74973000D01*
X80334226Y-74973000D01*
X80087513Y-75022074D01*
X79855114Y-75118337D01*
X79645960Y-75258089D01*
X79468089Y-75435960D01*
X79328337Y-75645114D01*
X79232074Y-75877513D01*
X79183000Y-76124226D01*
X70727000Y-76124226D01*
X70727000Y-73384226D01*
X79183000Y-73384226D01*
X79183000Y-73635774D01*
X79232074Y-73882487D01*
X79328337Y-74114886D01*
X79468089Y-74324040D01*
X79645960Y-74501911D01*
X79855114Y-74641663D01*
X80087513Y-74737926D01*
X80334226Y-74787000D01*
X80585774Y-74787000D01*
X80750540Y-74754226D01*
X81723000Y-74754226D01*
X81723000Y-75005774D01*
X81772074Y-75252487D01*
X81868337Y-75484886D01*
X82008089Y-75694040D01*
X82185960Y-75871911D01*
X82395114Y-76011663D01*
X82627513Y-76107926D01*
X82874226Y-76157000D01*
X83125774Y-76157000D01*
X83372487Y-76107926D01*
X83604886Y-76011663D01*
X83814040Y-75871911D01*
X83991911Y-75694040D01*
X84131663Y-75484886D01*
X84227926Y-75252487D01*
X84277000Y-75005774D01*
X84277000Y-74754226D01*
X84227926Y-74507513D01*
X84131663Y-74275114D01*
X83991911Y-74065960D01*
X83814040Y-73888089D01*
X83604886Y-73748337D01*
X83372487Y-73652074D01*
X83125774Y-73603000D01*
X82874226Y-73603000D01*
X82627513Y-73652074D01*
X82395114Y-73748337D01*
X82185960Y-73888089D01*
X82008089Y-74065960D01*
X81868337Y-74275114D01*
X81772074Y-74507513D01*
X81723000Y-74754226D01*
X80750540Y-74754226D01*
X80832487Y-74737926D01*
X81064886Y-74641663D01*
X81274040Y-74501911D01*
X81451911Y-74324040D01*
X81591663Y-74114886D01*
X81687926Y-73882487D01*
X81737000Y-73635774D01*
X81737000Y-73384226D01*
X81687926Y-73137513D01*
X81591663Y-72905114D01*
X81451911Y-72695960D01*
X81274040Y-72518089D01*
X81064886Y-72378337D01*
X80832487Y-72282074D01*
X80585774Y-72233000D01*
X80334226Y-72233000D01*
X80087513Y-72282074D01*
X79855114Y-72378337D01*
X79645960Y-72518089D01*
X79468089Y-72695960D01*
X79328337Y-72905114D01*
X79232074Y-73137513D01*
X79183000Y-73384226D01*
X70727000Y-73384226D01*
X70727000Y-72014226D01*
X81723000Y-72014226D01*
X81723000Y-72265774D01*
X81772074Y-72512487D01*
X81868337Y-72744886D01*
X82008089Y-72954040D01*
X82185960Y-73131911D01*
X82395114Y-73271663D01*
X82627513Y-73367926D01*
X82874226Y-73417000D01*
X83125774Y-73417000D01*
X83372487Y-73367926D01*
X83604886Y-73271663D01*
X83814040Y-73131911D01*
X83991911Y-72954040D01*
X84131663Y-72744886D01*
X84227926Y-72512487D01*
X84277000Y-72265774D01*
X84277000Y-72014226D01*
X84227926Y-71767513D01*
X84131663Y-71535114D01*
X83991911Y-71325960D01*
X83814040Y-71148089D01*
X83604886Y-71008337D01*
X83372487Y-70912074D01*
X83125774Y-70863000D01*
X82874226Y-70863000D01*
X82627513Y-70912074D01*
X82395114Y-71008337D01*
X82185960Y-71148089D01*
X82008089Y-71325960D01*
X81868337Y-71535114D01*
X81772074Y-71767513D01*
X81723000Y-72014226D01*
X70727000Y-72014226D01*
X70727000Y-69274226D01*
X81723000Y-69274226D01*
X81723000Y-69525774D01*
X81772074Y-69772487D01*
X81868337Y-70004886D01*
X82008089Y-70214040D01*
X82185960Y-70391911D01*
X82395114Y-70531663D01*
X82627513Y-70627926D01*
X82874226Y-70677000D01*
X83125774Y-70677000D01*
X83372487Y-70627926D01*
X83604886Y-70531663D01*
X83814040Y-70391911D01*
X83991911Y-70214040D01*
X84131663Y-70004886D01*
X84227926Y-69772487D01*
X84277000Y-69525774D01*
X84277000Y-69274226D01*
X84227926Y-69027513D01*
X84131663Y-68795114D01*
X83991911Y-68585960D01*
X83814040Y-68408089D01*
X83604886Y-68268337D01*
X83372487Y-68172074D01*
X83125774Y-68123000D01*
X82874226Y-68123000D01*
X82627513Y-68172074D01*
X82395114Y-68268337D01*
X82185960Y-68408089D01*
X82008089Y-68585960D01*
X81868337Y-68795114D01*
X81772074Y-69027513D01*
X81723000Y-69274226D01*
X70727000Y-69274226D01*
X70727000Y-62081867D01*
X78703000Y-62081867D01*
X78703000Y-62678133D01*
X78819326Y-63262943D01*
X79047508Y-63813822D01*
X79378776Y-64309600D01*
X79800400Y-64731224D01*
X80296178Y-65062492D01*
X80847057Y-65290674D01*
X81431867Y-65407000D01*
X82028133Y-65407000D01*
X82612943Y-65290674D01*
X83163822Y-65062492D01*
X83659600Y-64731224D01*
X84081224Y-64309600D01*
X84412492Y-63813822D01*
X84640674Y-63262943D01*
X84757000Y-62678133D01*
X84757000Y-62081867D01*
X84640674Y-61497057D01*
X84412492Y-60946178D01*
X84081224Y-60450400D01*
X83659600Y-60028776D01*
X83163822Y-59697508D01*
X82612943Y-59469326D01*
X82028133Y-59353000D01*
X81431867Y-59353000D01*
X80847057Y-59469326D01*
X80296178Y-59697508D01*
X79800400Y-60028776D01*
X79378776Y-60450400D01*
X79047508Y-60946178D01*
X78819326Y-61497057D01*
X78703000Y-62081867D01*
X70727000Y-62081867D01*
X70727000Y-48950000D01*
X90919967Y-48950000D01*
X90919967Y-51250000D01*
X90932073Y-51372913D01*
X90967925Y-51491103D01*
X91026147Y-51600028D01*
X91104499Y-51695501D01*
X91199972Y-51773853D01*
X91308897Y-51832075D01*
X91427087Y-51867927D01*
X91550000Y-51880033D01*
X93050000Y-51880033D01*
X93172913Y-51867927D01*
X93291103Y-51832075D01*
X93400028Y-51773853D01*
X93495501Y-51695501D01*
X93573853Y-51600028D01*
X93632075Y-51491103D01*
X93667927Y-51372913D01*
X93680033Y-51250000D01*
X93680033Y-48950000D01*
X93667927Y-48827087D01*
X93632075Y-48708897D01*
X93573853Y-48599972D01*
X93495501Y-48504499D01*
X93400028Y-48426147D01*
X93291103Y-48367925D01*
X93172913Y-48332073D01*
X93050000Y-48319967D01*
X91550000Y-48319967D01*
X91427087Y-48332073D01*
X91308897Y-48367925D01*
X91199972Y-48426147D01*
X91104499Y-48504499D01*
X91026147Y-48599972D01*
X90967925Y-48708897D01*
X90932073Y-48827087D01*
X90919967Y-48950000D01*
X70727000Y-48950000D01*
X70727000Y-44623073D01*
X71173000Y-44623073D01*
X71173000Y-45376927D01*
X71320070Y-46116295D01*
X71608557Y-46812764D01*
X72027375Y-47439570D01*
X72560430Y-47972625D01*
X73187236Y-48391443D01*
X73883705Y-48679930D01*
X74623073Y-48827000D01*
X75376927Y-48827000D01*
X76116295Y-48679930D01*
X76812764Y-48391443D01*
X77439570Y-47972625D01*
X77972625Y-47439570D01*
X78391443Y-46812764D01*
X78679930Y-46116295D01*
X78827000Y-45376927D01*
X78827000Y-44623073D01*
X78679930Y-43883705D01*
X78391443Y-43187236D01*
X77972625Y-42560430D01*
X77439570Y-42027375D01*
X76812764Y-41608557D01*
X76116295Y-41320070D01*
X75376927Y-41173000D01*
X74623073Y-41173000D01*
X73883705Y-41320070D01*
X73187236Y-41608557D01*
X72560430Y-42027375D01*
X72027375Y-42560430D01*
X71608557Y-43187236D01*
X71320070Y-43883705D01*
X71173000Y-44623073D01*
X70727000Y-44623073D01*
X70727000Y-40727000D01*
X219273000Y-40727000D01*
X219273001Y-119273000D01*
X219273001Y-119273000D01*
G37*
X219273001Y-119273000D02*
X70727000Y-119273000D01*
X70727000Y-114623073D01*
X71173000Y-114623073D01*
X71173000Y-115376927D01*
X71320070Y-116116295D01*
X71608557Y-116812764D01*
X72027375Y-117439570D01*
X72560430Y-117972625D01*
X73187236Y-118391443D01*
X73883705Y-118679930D01*
X74623073Y-118827000D01*
X75376927Y-118827000D01*
X76116295Y-118679930D01*
X76812764Y-118391443D01*
X77439570Y-117972625D01*
X77972625Y-117439570D01*
X78391443Y-116812764D01*
X78679930Y-116116295D01*
X78827000Y-115376927D01*
X78827000Y-114623073D01*
X211173000Y-114623073D01*
X211173000Y-115376927D01*
X211320070Y-116116295D01*
X211608557Y-116812764D01*
X212027375Y-117439570D01*
X212560430Y-117972625D01*
X213187236Y-118391443D01*
X213883705Y-118679930D01*
X214623073Y-118827000D01*
X215376927Y-118827000D01*
X216116295Y-118679930D01*
X216812764Y-118391443D01*
X217439570Y-117972625D01*
X217972625Y-117439570D01*
X218391443Y-116812764D01*
X218679930Y-116116295D01*
X218827000Y-115376927D01*
X218827000Y-114623073D01*
X218679930Y-113883705D01*
X218391443Y-113187236D01*
X217972625Y-112560430D01*
X217439570Y-112027375D01*
X216812764Y-111608557D01*
X216116295Y-111320070D01*
X215376927Y-111173000D01*
X214623073Y-111173000D01*
X213883705Y-111320070D01*
X213187236Y-111608557D01*
X212560430Y-112027375D01*
X212027375Y-112560430D01*
X211608557Y-113187236D01*
X211320070Y-113883705D01*
X211173000Y-114623073D01*
X78827000Y-114623073D01*
X78679930Y-113883705D01*
X78391443Y-113187236D01*
X77972625Y-112560430D01*
X77439570Y-112027375D01*
X76812764Y-111608557D01*
X76116295Y-111320070D01*
X75376927Y-111173000D01*
X74623073Y-111173000D01*
X73883705Y-111320070D01*
X73187236Y-111608557D01*
X72560430Y-112027375D01*
X72027375Y-112560430D01*
X71608557Y-113187236D01*
X71320070Y-113883705D01*
X71173000Y-114623073D01*
X70727000Y-114623073D01*
X70727000Y-108800000D01*
X136669967Y-108800000D01*
X136669967Y-111200000D01*
X136682073Y-111322913D01*
X136717925Y-111441103D01*
X136776147Y-111550028D01*
X136854499Y-111645501D01*
X136949972Y-111723853D01*
X137058897Y-111782075D01*
X137177087Y-111817927D01*
X137300000Y-111830033D01*
X139700000Y-111830033D01*
X139822913Y-111817927D01*
X139941103Y-111782075D01*
X140050028Y-111723853D01*
X140145501Y-111645501D01*
X140223853Y-111550028D01*
X140282075Y-111441103D01*
X140317927Y-111322913D01*
X140330033Y-111200000D01*
X140330033Y-108800000D01*
X163419967Y-108800000D01*
X163419967Y-111200000D01*
X163432073Y-111322913D01*
X163467925Y-111441103D01*
X163526147Y-111550028D01*
X163604499Y-111645501D01*
X163699972Y-111723853D01*
X163808897Y-111782075D01*
X163927087Y-111817927D01*
X164050000Y-111830033D01*
X166450000Y-111830033D01*
X166572913Y-111817927D01*
X166691103Y-111782075D01*
X166800028Y-111723853D01*
X166895501Y-111645501D01*
X166973853Y-111550028D01*
X167032075Y-111441103D01*
X167067927Y-111322913D01*
X167080033Y-111200000D01*
X167080033Y-108800000D01*
X190169967Y-108800000D01*
X190169967Y-111200000D01*
X190182073Y-111322913D01*
X190217925Y-111441103D01*
X190276147Y-111550028D01*
X190354499Y-111645501D01*
X190449972Y-111723853D01*
X190558897Y-111782075D01*
X190677087Y-111817927D01*
X190800000Y-111830033D01*
X193200000Y-111830033D01*
X193322913Y-111817927D01*
X193441103Y-111782075D01*
X193550028Y-111723853D01*
X193645501Y-111645501D01*
X193723853Y-111550028D01*
X193782075Y-111441103D01*
X193817927Y-111322913D01*
X193830033Y-111200000D01*
X193830033Y-108800000D01*
X193817927Y-108677087D01*
X193782075Y-108558897D01*
X193723853Y-108449972D01*
X193645501Y-108354499D01*
X193550028Y-108276147D01*
X193441103Y-108217925D01*
X193322913Y-108182073D01*
X193200000Y-108169967D01*
X190800000Y-108169967D01*
X190677087Y-108182073D01*
X190558897Y-108217925D01*
X190449972Y-108276147D01*
X190354499Y-108354499D01*
X190276147Y-108449972D01*
X190217925Y-108558897D01*
X190182073Y-108677087D01*
X190169967Y-108800000D01*
X167080033Y-108800000D01*
X167067927Y-108677087D01*
X167032075Y-108558897D01*
X166973853Y-108449972D01*
X166895501Y-108354499D01*
X166800028Y-108276147D01*
X166691103Y-108217925D01*
X166572913Y-108182073D01*
X166450000Y-108169967D01*
X164050000Y-108169967D01*
X163927087Y-108182073D01*
X163808897Y-108217925D01*
X163699972Y-108276147D01*
X163604499Y-108354499D01*
X163526147Y-108449972D01*
X163467925Y-108558897D01*
X163432073Y-108677087D01*
X163419967Y-108800000D01*
X140330033Y-108800000D01*
X140317927Y-108677087D01*
X140282075Y-108558897D01*
X140223853Y-108449972D01*
X140145501Y-108354499D01*
X140050028Y-108276147D01*
X139941103Y-108217925D01*
X139822913Y-108182073D01*
X139700000Y-108169967D01*
X137300000Y-108169967D01*
X137177087Y-108182073D01*
X137058897Y-108217925D01*
X136949972Y-108276147D01*
X136854499Y-108354499D01*
X136776147Y-108449972D01*
X136717925Y-108558897D01*
X136682073Y-108677087D01*
X136669967Y-108800000D01*
X70727000Y-108800000D01*
X70727000Y-105348849D01*
X91323000Y-105348849D01*
X91323000Y-105551151D01*
X91362467Y-105749565D01*
X91439885Y-105936467D01*
X91552277Y-106104674D01*
X91695326Y-106247723D01*
X91863533Y-106360115D01*
X92050435Y-106437533D01*
X92248849Y-106477000D01*
X92451151Y-106477000D01*
X92649565Y-106437533D01*
X92836467Y-106360115D01*
X93004674Y-106247723D01*
X93147723Y-106104674D01*
X93260115Y-105936467D01*
X93337533Y-105749565D01*
X93377000Y-105551151D01*
X93377000Y-105348849D01*
X93337533Y-105150435D01*
X93260115Y-104963533D01*
X93227000Y-104913973D01*
X93227000Y-98874397D01*
X93350326Y-98997723D01*
X93518533Y-99110115D01*
X93705435Y-99187533D01*
X93903849Y-99227000D01*
X94106151Y-99227000D01*
X94304565Y-99187533D01*
X94491467Y-99110115D01*
X94659674Y-98997723D01*
X94802723Y-98854674D01*
X94915115Y-98686467D01*
X94992533Y-98499565D01*
X95004162Y-98441103D01*
X99218276Y-94226989D01*
X106577746Y-94226989D01*
X103603897Y-97200838D01*
X103545435Y-97212467D01*
X103358533Y-97289885D01*
X103190326Y-97402277D01*
X103047277Y-97545326D01*
X102934885Y-97713533D01*
X102857467Y-97900435D01*
X102818000Y-98098849D01*
X102818000Y-98301151D01*
X102857467Y-98499565D01*
X102934885Y-98686467D01*
X103047277Y-98854674D01*
X103190326Y-98997723D01*
X103358533Y-99110115D01*
X103545435Y-99187533D01*
X103743849Y-99227000D01*
X103946151Y-99227000D01*
X104144565Y-99187533D01*
X104331467Y-99110115D01*
X104499674Y-98997723D01*
X104642723Y-98854674D01*
X104755115Y-98686467D01*
X104832533Y-98499565D01*
X104844162Y-98441103D01*
X108358265Y-94927000D01*
X113232735Y-94927000D01*
X110972553Y-97187182D01*
X110845435Y-97212467D01*
X110658533Y-97289885D01*
X110490326Y-97402277D01*
X110347277Y-97545326D01*
X110234885Y-97713533D01*
X110157467Y-97900435D01*
X110118000Y-98098849D01*
X110118000Y-98301151D01*
X110157467Y-98499565D01*
X110234885Y-98686467D01*
X110347277Y-98854674D01*
X110490326Y-98997723D01*
X110658533Y-99110115D01*
X110845435Y-99187533D01*
X111043849Y-99227000D01*
X111246151Y-99227000D01*
X111444565Y-99187533D01*
X111631467Y-99110115D01*
X111799674Y-98997723D01*
X111942723Y-98854674D01*
X112055115Y-98686467D01*
X112126758Y-98513507D01*
X114298001Y-96342264D01*
X114298000Y-103188973D01*
X114264885Y-103238533D01*
X114187467Y-103425435D01*
X114148000Y-103623849D01*
X114148000Y-103826151D01*
X114187467Y-104024565D01*
X114264885Y-104211467D01*
X114377277Y-104379674D01*
X114520326Y-104522723D01*
X114688533Y-104635115D01*
X114875435Y-104712533D01*
X115073849Y-104752000D01*
X115276151Y-104752000D01*
X115474565Y-104712533D01*
X115661467Y-104635115D01*
X115829674Y-104522723D01*
X115972723Y-104379674D01*
X116085115Y-104211467D01*
X116162533Y-104024565D01*
X116202000Y-103826151D01*
X116202000Y-103623849D01*
X116162533Y-103425435D01*
X116085115Y-103238533D01*
X116052000Y-103188973D01*
X116052000Y-95588265D01*
X122089719Y-89550547D01*
X122123177Y-89523089D01*
X122232771Y-89389548D01*
X122314206Y-89237193D01*
X122318481Y-89223100D01*
X122364354Y-89071879D01*
X122381287Y-88899957D01*
X122377044Y-88856877D01*
X122377044Y-60693123D01*
X122381287Y-60650044D01*
X122364354Y-60478121D01*
X122314206Y-60312807D01*
X122275114Y-60239671D01*
X122232771Y-60160452D01*
X122123177Y-60026911D01*
X122089718Y-59999452D01*
X119527000Y-57436735D01*
X119527000Y-45686027D01*
X119560115Y-45636467D01*
X119637533Y-45449565D01*
X119677000Y-45251151D01*
X119677000Y-45048849D01*
X119637533Y-44850435D01*
X119560115Y-44663533D01*
X119533081Y-44623073D01*
X211173000Y-44623073D01*
X211173000Y-45376927D01*
X211320070Y-46116295D01*
X211608557Y-46812764D01*
X212027375Y-47439570D01*
X212560430Y-47972625D01*
X213187236Y-48391443D01*
X213883705Y-48679930D01*
X214623073Y-48827000D01*
X215376927Y-48827000D01*
X216116295Y-48679930D01*
X216812764Y-48391443D01*
X217439570Y-47972625D01*
X217972625Y-47439570D01*
X218391443Y-46812764D01*
X218679930Y-46116295D01*
X218827000Y-45376927D01*
X218827000Y-44623073D01*
X218679930Y-43883705D01*
X218391443Y-43187236D01*
X217972625Y-42560430D01*
X217439570Y-42027375D01*
X216812764Y-41608557D01*
X216116295Y-41320070D01*
X215376927Y-41173000D01*
X214623073Y-41173000D01*
X213883705Y-41320070D01*
X213187236Y-41608557D01*
X212560430Y-42027375D01*
X212027375Y-42560430D01*
X211608557Y-43187236D01*
X211320070Y-43883705D01*
X211173000Y-44623073D01*
X119533081Y-44623073D01*
X119447723Y-44495326D01*
X119304674Y-44352277D01*
X119136467Y-44239885D01*
X118949565Y-44162467D01*
X118751151Y-44123000D01*
X118548849Y-44123000D01*
X118350435Y-44162467D01*
X118163533Y-44239885D01*
X117995326Y-44352277D01*
X117852277Y-44495326D01*
X117739885Y-44663533D01*
X117662467Y-44850435D01*
X117623000Y-45048849D01*
X117623000Y-45251151D01*
X117662467Y-45449565D01*
X117739885Y-45636467D01*
X117773001Y-45686029D01*
X117773000Y-57373000D01*
X116913266Y-57373000D01*
X116027000Y-56486735D01*
X116027000Y-45686027D01*
X116060115Y-45636467D01*
X116137533Y-45449565D01*
X116177000Y-45251151D01*
X116177000Y-45048849D01*
X116137533Y-44850435D01*
X116060115Y-44663533D01*
X115947723Y-44495326D01*
X115804674Y-44352277D01*
X115636467Y-44239885D01*
X115449565Y-44162467D01*
X115251151Y-44123000D01*
X115048849Y-44123000D01*
X114850435Y-44162467D01*
X114663533Y-44239885D01*
X114495326Y-44352277D01*
X114352277Y-44495326D01*
X114239885Y-44663533D01*
X114162467Y-44850435D01*
X114123000Y-45048849D01*
X114123000Y-45251151D01*
X114162467Y-45449565D01*
X114239885Y-45636467D01*
X114273001Y-45686029D01*
X114273000Y-56806920D01*
X114268757Y-56850000D01*
X114285690Y-57021922D01*
X114323716Y-57147274D01*
X114335838Y-57187236D01*
X114417273Y-57339591D01*
X114526867Y-57473133D01*
X114560331Y-57500597D01*
X115132735Y-58073000D01*
X113913265Y-58073000D01*
X113026999Y-57186734D01*
X113026999Y-45593078D01*
X113031242Y-45549998D01*
X113014309Y-45378076D01*
X112964161Y-45212762D01*
X112930614Y-45150000D01*
X112882726Y-45060407D01*
X112773132Y-44926866D01*
X112748757Y-44906862D01*
X112737533Y-44850435D01*
X112660115Y-44663533D01*
X112547723Y-44495326D01*
X112404674Y-44352277D01*
X112236467Y-44239885D01*
X112049565Y-44162467D01*
X111851151Y-44123000D01*
X111648849Y-44123000D01*
X111450435Y-44162467D01*
X111263533Y-44239885D01*
X111095326Y-44352277D01*
X110952277Y-44495326D01*
X110839885Y-44663533D01*
X110762467Y-44850435D01*
X110723000Y-45048849D01*
X110723000Y-45251151D01*
X110762467Y-45449565D01*
X110839885Y-45636467D01*
X110952277Y-45804674D01*
X111095326Y-45947723D01*
X111263533Y-46060115D01*
X111273000Y-46064036D01*
X111272999Y-57506919D01*
X111268756Y-57549999D01*
X111285689Y-57721921D01*
X111307275Y-57793079D01*
X111335837Y-57887235D01*
X111417272Y-58039590D01*
X111526866Y-58173132D01*
X111560331Y-58200596D01*
X112132735Y-58773000D01*
X111113266Y-58773000D01*
X109277000Y-56936735D01*
X109277000Y-45686027D01*
X109310115Y-45636467D01*
X109387533Y-45449565D01*
X109427000Y-45251151D01*
X109427000Y-45048849D01*
X109387533Y-44850435D01*
X109310115Y-44663533D01*
X109197723Y-44495326D01*
X109054674Y-44352277D01*
X108886467Y-44239885D01*
X108699565Y-44162467D01*
X108501151Y-44123000D01*
X108298849Y-44123000D01*
X108100435Y-44162467D01*
X107913533Y-44239885D01*
X107745326Y-44352277D01*
X107602277Y-44495326D01*
X107489885Y-44663533D01*
X107412467Y-44850435D01*
X107373000Y-45048849D01*
X107373000Y-45251151D01*
X107412467Y-45449565D01*
X107489885Y-45636467D01*
X107523001Y-45686029D01*
X107523001Y-50347237D01*
X107401151Y-50323000D01*
X107198849Y-50323000D01*
X107000435Y-50362467D01*
X106813533Y-50439885D01*
X106645326Y-50552277D01*
X106502277Y-50695326D01*
X106389885Y-50863533D01*
X106312467Y-51050435D01*
X106273000Y-51248849D01*
X106273000Y-51451151D01*
X106312467Y-51649565D01*
X106389885Y-51836467D01*
X106502277Y-52004674D01*
X106645326Y-52147723D01*
X106813533Y-52260115D01*
X107000435Y-52337533D01*
X107198849Y-52377000D01*
X107401151Y-52377000D01*
X107523000Y-52352763D01*
X107523000Y-57256920D01*
X107518757Y-57300000D01*
X107535690Y-57471922D01*
X107569303Y-57582727D01*
X107585838Y-57637236D01*
X107667273Y-57789591D01*
X107776867Y-57923133D01*
X107810332Y-57950597D01*
X109332734Y-59473000D01*
X107963265Y-59473000D01*
X105877000Y-57386735D01*
X105877000Y-45686027D01*
X105910115Y-45636467D01*
X105987533Y-45449565D01*
X106027000Y-45251151D01*
X106027000Y-45048849D01*
X105987533Y-44850435D01*
X105910115Y-44663533D01*
X105797723Y-44495326D01*
X105654674Y-44352277D01*
X105486467Y-44239885D01*
X105299565Y-44162467D01*
X105101151Y-44123000D01*
X104898849Y-44123000D01*
X104700435Y-44162467D01*
X104513533Y-44239885D01*
X104345326Y-44352277D01*
X104202277Y-44495326D01*
X104089885Y-44663533D01*
X104012467Y-44850435D01*
X103973000Y-45048849D01*
X103973000Y-45251151D01*
X104012467Y-45449565D01*
X104089885Y-45636467D01*
X104123001Y-45686029D01*
X104123000Y-57706920D01*
X104118757Y-57750000D01*
X104135690Y-57921922D01*
X104180232Y-58068757D01*
X104185838Y-58087236D01*
X104267273Y-58239591D01*
X104376867Y-58373133D01*
X104410332Y-58400597D01*
X106949403Y-60939668D01*
X106976867Y-60973133D01*
X107110408Y-61082727D01*
X107262763Y-61164162D01*
X107428078Y-61214310D01*
X107556921Y-61227000D01*
X107556930Y-61227000D01*
X107599999Y-61231242D01*
X107643069Y-61227000D01*
X116786735Y-61227000D01*
X117823001Y-62263267D01*
X117823000Y-87336735D01*
X113436735Y-91723000D01*
X110943887Y-91723000D01*
X111035115Y-91586467D01*
X111112533Y-91399565D01*
X111152000Y-91201151D01*
X111152000Y-90998849D01*
X111112533Y-90800435D01*
X111035115Y-90613533D01*
X110922723Y-90445326D01*
X110779674Y-90302277D01*
X110611467Y-90189885D01*
X110424565Y-90112467D01*
X110226151Y-90073000D01*
X110023849Y-90073000D01*
X109825435Y-90112467D01*
X109638533Y-90189885D01*
X109588973Y-90223000D01*
X103702000Y-90223000D01*
X103702000Y-83468079D01*
X103706243Y-83425000D01*
X103689310Y-83253077D01*
X103639162Y-83087763D01*
X103557727Y-82935408D01*
X103448133Y-82801867D01*
X103414663Y-82774399D01*
X103254500Y-82614236D01*
X103254500Y-74896027D01*
X103287615Y-74846467D01*
X103365033Y-74659565D01*
X103404500Y-74461151D01*
X103404500Y-74258849D01*
X103365033Y-74060435D01*
X103287615Y-73873533D01*
X103254500Y-73823973D01*
X103254500Y-62920569D01*
X103258742Y-62877499D01*
X103254500Y-62834430D01*
X103254500Y-62834421D01*
X103241810Y-62705578D01*
X103191662Y-62540263D01*
X103110227Y-62387908D01*
X103000633Y-62254367D01*
X102967168Y-62226903D01*
X98257000Y-57516735D01*
X98257000Y-51561611D01*
X98358397Y-51478397D01*
X98530473Y-51268721D01*
X98658337Y-51029505D01*
X98737075Y-50769939D01*
X98757000Y-50567639D01*
X98757000Y-49632360D01*
X98737075Y-49430061D01*
X98658337Y-49170495D01*
X98530473Y-48931279D01*
X98358396Y-48721603D01*
X98148720Y-48549527D01*
X97909504Y-48421663D01*
X97649938Y-48342925D01*
X97380000Y-48316338D01*
X97110061Y-48342925D01*
X96850495Y-48421663D01*
X96611279Y-48549527D01*
X96401603Y-48721604D01*
X96229527Y-48931280D01*
X96101663Y-49170496D01*
X96022925Y-49430062D01*
X96003000Y-49632361D01*
X96003000Y-50567640D01*
X96022925Y-50769939D01*
X96101663Y-51029505D01*
X96229527Y-51268721D01*
X96401604Y-51478397D01*
X96503001Y-51561611D01*
X96503000Y-57836920D01*
X96498757Y-57880000D01*
X96515690Y-58051922D01*
X96525934Y-58085690D01*
X96565838Y-58217236D01*
X96647273Y-58369591D01*
X96756867Y-58503133D01*
X96790332Y-58530597D01*
X101500501Y-63240766D01*
X101500500Y-73823973D01*
X101467385Y-73873533D01*
X101389967Y-74060435D01*
X101350500Y-74258849D01*
X101350500Y-74461151D01*
X101389967Y-74659565D01*
X101467385Y-74846467D01*
X101500501Y-74896029D01*
X101500500Y-82934420D01*
X101496257Y-82977500D01*
X101500500Y-83020578D01*
X101513190Y-83149421D01*
X101563338Y-83314736D01*
X101644773Y-83467091D01*
X101754367Y-83600633D01*
X101787832Y-83628097D01*
X101948001Y-83788266D01*
X101948000Y-90223000D01*
X99943069Y-90223000D01*
X99899999Y-90218758D01*
X99856930Y-90223000D01*
X99856921Y-90223000D01*
X99728078Y-90235690D01*
X99562763Y-90285838D01*
X99410408Y-90367273D01*
X99276867Y-90476867D01*
X99249399Y-90510337D01*
X99136736Y-90623000D01*
X97111027Y-90623000D01*
X97061467Y-90589885D01*
X96874565Y-90512467D01*
X96676151Y-90473000D01*
X96473849Y-90473000D01*
X96275435Y-90512467D01*
X96088533Y-90589885D01*
X95920326Y-90702277D01*
X95777277Y-90845326D01*
X95664885Y-91013533D01*
X95587467Y-91200435D01*
X95548000Y-91398849D01*
X95548000Y-91601151D01*
X95587467Y-91799565D01*
X95664885Y-91986467D01*
X95777277Y-92154674D01*
X95920326Y-92297723D01*
X96088533Y-92410115D01*
X96275435Y-92487533D01*
X96473849Y-92527000D01*
X96676151Y-92527000D01*
X96746785Y-92512950D01*
X91760327Y-97499408D01*
X91726868Y-97526867D01*
X91699409Y-97560326D01*
X91699406Y-97560329D01*
X91617274Y-97660408D01*
X91535838Y-97812764D01*
X91485690Y-97978078D01*
X91468757Y-98150000D01*
X91473001Y-98193090D01*
X91473000Y-104913973D01*
X91439885Y-104963533D01*
X91362467Y-105150435D01*
X91323000Y-105348849D01*
X70727000Y-105348849D01*
X70727000Y-87081867D01*
X78703000Y-87081867D01*
X78703000Y-87678133D01*
X78819326Y-88262943D01*
X79047508Y-88813822D01*
X79378776Y-89309600D01*
X79800400Y-89731224D01*
X80296178Y-90062492D01*
X80847057Y-90290674D01*
X81431867Y-90407000D01*
X82028133Y-90407000D01*
X82612943Y-90290674D01*
X83163822Y-90062492D01*
X83659600Y-89731224D01*
X84081224Y-89309600D01*
X84412492Y-88813822D01*
X84640674Y-88262943D01*
X84757000Y-87678133D01*
X84757000Y-87081867D01*
X84640674Y-86497057D01*
X84412492Y-85946178D01*
X84081224Y-85450400D01*
X83659600Y-85028776D01*
X83163822Y-84697508D01*
X82612943Y-84469326D01*
X82028133Y-84353000D01*
X81431867Y-84353000D01*
X80847057Y-84469326D01*
X80296178Y-84697508D01*
X79800400Y-85028776D01*
X79378776Y-85450400D01*
X79047508Y-85946178D01*
X78819326Y-86497057D01*
X78703000Y-87081867D01*
X70727000Y-87081867D01*
X70727000Y-78864226D01*
X79183000Y-78864226D01*
X79183000Y-79115774D01*
X79232074Y-79362487D01*
X79328337Y-79594886D01*
X79468089Y-79804040D01*
X79645960Y-79981911D01*
X79855114Y-80121663D01*
X80087513Y-80217926D01*
X80334226Y-80267000D01*
X80585774Y-80267000D01*
X80750540Y-80234226D01*
X81723000Y-80234226D01*
X81723000Y-80485774D01*
X81772074Y-80732487D01*
X81868337Y-80964886D01*
X82008089Y-81174040D01*
X82185960Y-81351911D01*
X82395114Y-81491663D01*
X82627513Y-81587926D01*
X82874226Y-81637000D01*
X83125774Y-81637000D01*
X83372487Y-81587926D01*
X83604886Y-81491663D01*
X83814040Y-81351911D01*
X83991911Y-81174040D01*
X84131663Y-80964886D01*
X84227926Y-80732487D01*
X84277000Y-80485774D01*
X84277000Y-80234226D01*
X84227926Y-79987513D01*
X84131663Y-79755114D01*
X83991911Y-79545960D01*
X83814040Y-79368089D01*
X83604886Y-79228337D01*
X83372487Y-79132074D01*
X83125774Y-79083000D01*
X82874226Y-79083000D01*
X82627513Y-79132074D01*
X82395114Y-79228337D01*
X82185960Y-79368089D01*
X82008089Y-79545960D01*
X81868337Y-79755114D01*
X81772074Y-79987513D01*
X81723000Y-80234226D01*
X80750540Y-80234226D01*
X80832487Y-80217926D01*
X81064886Y-80121663D01*
X81274040Y-79981911D01*
X81451911Y-79804040D01*
X81591663Y-79594886D01*
X81687926Y-79362487D01*
X81737000Y-79115774D01*
X81737000Y-78864226D01*
X81687926Y-78617513D01*
X81591663Y-78385114D01*
X81451911Y-78175960D01*
X81274040Y-77998089D01*
X81064886Y-77858337D01*
X80832487Y-77762074D01*
X80585774Y-77713000D01*
X80334226Y-77713000D01*
X80087513Y-77762074D01*
X79855114Y-77858337D01*
X79645960Y-77998089D01*
X79468089Y-78175960D01*
X79328337Y-78385114D01*
X79232074Y-78617513D01*
X79183000Y-78864226D01*
X70727000Y-78864226D01*
X70727000Y-76124226D01*
X79183000Y-76124226D01*
X79183000Y-76375774D01*
X79232074Y-76622487D01*
X79328337Y-76854886D01*
X79468089Y-77064040D01*
X79645960Y-77241911D01*
X79855114Y-77381663D01*
X80087513Y-77477926D01*
X80334226Y-77527000D01*
X80585774Y-77527000D01*
X80750540Y-77494226D01*
X81723000Y-77494226D01*
X81723000Y-77745774D01*
X81772074Y-77992487D01*
X81868337Y-78224886D01*
X82008089Y-78434040D01*
X82185960Y-78611911D01*
X82395114Y-78751663D01*
X82627513Y-78847926D01*
X82874226Y-78897000D01*
X83125774Y-78897000D01*
X83372487Y-78847926D01*
X83604886Y-78751663D01*
X83814040Y-78611911D01*
X83991911Y-78434040D01*
X84131663Y-78224886D01*
X84227926Y-77992487D01*
X84277000Y-77745774D01*
X84277000Y-77494226D01*
X84227926Y-77247513D01*
X84131663Y-77015114D01*
X83991911Y-76805960D01*
X83814040Y-76628089D01*
X83604886Y-76488337D01*
X83372487Y-76392074D01*
X83125774Y-76343000D01*
X82874226Y-76343000D01*
X82627513Y-76392074D01*
X82395114Y-76488337D01*
X82185960Y-76628089D01*
X82008089Y-76805960D01*
X81868337Y-77015114D01*
X81772074Y-77247513D01*
X81723000Y-77494226D01*
X80750540Y-77494226D01*
X80832487Y-77477926D01*
X81064886Y-77381663D01*
X81274040Y-77241911D01*
X81451911Y-77064040D01*
X81591663Y-76854886D01*
X81687926Y-76622487D01*
X81737000Y-76375774D01*
X81737000Y-76124226D01*
X81687926Y-75877513D01*
X81591663Y-75645114D01*
X81451911Y-75435960D01*
X81274040Y-75258089D01*
X81064886Y-75118337D01*
X80832487Y-75022074D01*
X80585774Y-74973000D01*
X80334226Y-74973000D01*
X80087513Y-75022074D01*
X79855114Y-75118337D01*
X79645960Y-75258089D01*
X79468089Y-75435960D01*
X79328337Y-75645114D01*
X79232074Y-75877513D01*
X79183000Y-76124226D01*
X70727000Y-76124226D01*
X70727000Y-73384226D01*
X79183000Y-73384226D01*
X79183000Y-73635774D01*
X79232074Y-73882487D01*
X79328337Y-74114886D01*
X79468089Y-74324040D01*
X79645960Y-74501911D01*
X79855114Y-74641663D01*
X80087513Y-74737926D01*
X80334226Y-74787000D01*
X80585774Y-74787000D01*
X80750540Y-74754226D01*
X81723000Y-74754226D01*
X81723000Y-75005774D01*
X81772074Y-75252487D01*
X81868337Y-75484886D01*
X82008089Y-75694040D01*
X82185960Y-75871911D01*
X82395114Y-76011663D01*
X82627513Y-76107926D01*
X82874226Y-76157000D01*
X83125774Y-76157000D01*
X83372487Y-76107926D01*
X83604886Y-76011663D01*
X83814040Y-75871911D01*
X83991911Y-75694040D01*
X84131663Y-75484886D01*
X84227926Y-75252487D01*
X84277000Y-75005774D01*
X84277000Y-74754226D01*
X84227926Y-74507513D01*
X84131663Y-74275114D01*
X83991911Y-74065960D01*
X83814040Y-73888089D01*
X83604886Y-73748337D01*
X83372487Y-73652074D01*
X83125774Y-73603000D01*
X82874226Y-73603000D01*
X82627513Y-73652074D01*
X82395114Y-73748337D01*
X82185960Y-73888089D01*
X82008089Y-74065960D01*
X81868337Y-74275114D01*
X81772074Y-74507513D01*
X81723000Y-74754226D01*
X80750540Y-74754226D01*
X80832487Y-74737926D01*
X81064886Y-74641663D01*
X81274040Y-74501911D01*
X81451911Y-74324040D01*
X81591663Y-74114886D01*
X81687926Y-73882487D01*
X81737000Y-73635774D01*
X81737000Y-73384226D01*
X81687926Y-73137513D01*
X81591663Y-72905114D01*
X81451911Y-72695960D01*
X81274040Y-72518089D01*
X81064886Y-72378337D01*
X80832487Y-72282074D01*
X80585774Y-72233000D01*
X80334226Y-72233000D01*
X80087513Y-72282074D01*
X79855114Y-72378337D01*
X79645960Y-72518089D01*
X79468089Y-72695960D01*
X79328337Y-72905114D01*
X79232074Y-73137513D01*
X79183000Y-73384226D01*
X70727000Y-73384226D01*
X70727000Y-72014226D01*
X81723000Y-72014226D01*
X81723000Y-72265774D01*
X81772074Y-72512487D01*
X81868337Y-72744886D01*
X82008089Y-72954040D01*
X82185960Y-73131911D01*
X82395114Y-73271663D01*
X82627513Y-73367926D01*
X82874226Y-73417000D01*
X83125774Y-73417000D01*
X83372487Y-73367926D01*
X83604886Y-73271663D01*
X83814040Y-73131911D01*
X83991911Y-72954040D01*
X84131663Y-72744886D01*
X84227926Y-72512487D01*
X84277000Y-72265774D01*
X84277000Y-72014226D01*
X84227926Y-71767513D01*
X84131663Y-71535114D01*
X83991911Y-71325960D01*
X83814040Y-71148089D01*
X83604886Y-71008337D01*
X83372487Y-70912074D01*
X83125774Y-70863000D01*
X82874226Y-70863000D01*
X82627513Y-70912074D01*
X82395114Y-71008337D01*
X82185960Y-71148089D01*
X82008089Y-71325960D01*
X81868337Y-71535114D01*
X81772074Y-71767513D01*
X81723000Y-72014226D01*
X70727000Y-72014226D01*
X70727000Y-69274226D01*
X81723000Y-69274226D01*
X81723000Y-69525774D01*
X81772074Y-69772487D01*
X81868337Y-70004886D01*
X82008089Y-70214040D01*
X82185960Y-70391911D01*
X82395114Y-70531663D01*
X82627513Y-70627926D01*
X82874226Y-70677000D01*
X83125774Y-70677000D01*
X83372487Y-70627926D01*
X83604886Y-70531663D01*
X83814040Y-70391911D01*
X83991911Y-70214040D01*
X84131663Y-70004886D01*
X84227926Y-69772487D01*
X84277000Y-69525774D01*
X84277000Y-69274226D01*
X84227926Y-69027513D01*
X84131663Y-68795114D01*
X83991911Y-68585960D01*
X83814040Y-68408089D01*
X83604886Y-68268337D01*
X83372487Y-68172074D01*
X83125774Y-68123000D01*
X82874226Y-68123000D01*
X82627513Y-68172074D01*
X82395114Y-68268337D01*
X82185960Y-68408089D01*
X82008089Y-68585960D01*
X81868337Y-68795114D01*
X81772074Y-69027513D01*
X81723000Y-69274226D01*
X70727000Y-69274226D01*
X70727000Y-62081867D01*
X78703000Y-62081867D01*
X78703000Y-62678133D01*
X78819326Y-63262943D01*
X79047508Y-63813822D01*
X79378776Y-64309600D01*
X79800400Y-64731224D01*
X80296178Y-65062492D01*
X80847057Y-65290674D01*
X81431867Y-65407000D01*
X82028133Y-65407000D01*
X82612943Y-65290674D01*
X83163822Y-65062492D01*
X83659600Y-64731224D01*
X84081224Y-64309600D01*
X84412492Y-63813822D01*
X84640674Y-63262943D01*
X84757000Y-62678133D01*
X84757000Y-62081867D01*
X84640674Y-61497057D01*
X84412492Y-60946178D01*
X84081224Y-60450400D01*
X83659600Y-60028776D01*
X83163822Y-59697508D01*
X82612943Y-59469326D01*
X82028133Y-59353000D01*
X81431867Y-59353000D01*
X80847057Y-59469326D01*
X80296178Y-59697508D01*
X79800400Y-60028776D01*
X79378776Y-60450400D01*
X79047508Y-60946178D01*
X78819326Y-61497057D01*
X78703000Y-62081867D01*
X70727000Y-62081867D01*
X70727000Y-48950000D01*
X90919967Y-48950000D01*
X90919967Y-51250000D01*
X90932073Y-51372913D01*
X90967925Y-51491103D01*
X91026147Y-51600028D01*
X91104499Y-51695501D01*
X91199972Y-51773853D01*
X91308897Y-51832075D01*
X91427087Y-51867927D01*
X91550000Y-51880033D01*
X93050000Y-51880033D01*
X93172913Y-51867927D01*
X93291103Y-51832075D01*
X93400028Y-51773853D01*
X93495501Y-51695501D01*
X93573853Y-51600028D01*
X93632075Y-51491103D01*
X93667927Y-51372913D01*
X93680033Y-51250000D01*
X93680033Y-48950000D01*
X93667927Y-48827087D01*
X93632075Y-48708897D01*
X93573853Y-48599972D01*
X93495501Y-48504499D01*
X93400028Y-48426147D01*
X93291103Y-48367925D01*
X93172913Y-48332073D01*
X93050000Y-48319967D01*
X91550000Y-48319967D01*
X91427087Y-48332073D01*
X91308897Y-48367925D01*
X91199972Y-48426147D01*
X91104499Y-48504499D01*
X91026147Y-48599972D01*
X90967925Y-48708897D01*
X90932073Y-48827087D01*
X90919967Y-48950000D01*
X70727000Y-48950000D01*
X70727000Y-44623073D01*
X71173000Y-44623073D01*
X71173000Y-45376927D01*
X71320070Y-46116295D01*
X71608557Y-46812764D01*
X72027375Y-47439570D01*
X72560430Y-47972625D01*
X73187236Y-48391443D01*
X73883705Y-48679930D01*
X74623073Y-48827000D01*
X75376927Y-48827000D01*
X76116295Y-48679930D01*
X76812764Y-48391443D01*
X77439570Y-47972625D01*
X77972625Y-47439570D01*
X78391443Y-46812764D01*
X78679930Y-46116295D01*
X78827000Y-45376927D01*
X78827000Y-44623073D01*
X78679930Y-43883705D01*
X78391443Y-43187236D01*
X77972625Y-42560430D01*
X77439570Y-42027375D01*
X76812764Y-41608557D01*
X76116295Y-41320070D01*
X75376927Y-41173000D01*
X74623073Y-41173000D01*
X73883705Y-41320070D01*
X73187236Y-41608557D01*
X72560430Y-42027375D01*
X72027375Y-42560430D01*
X71608557Y-43187236D01*
X71320070Y-43883705D01*
X71173000Y-44623073D01*
X70727000Y-44623073D01*
X70727000Y-40727000D01*
X219273000Y-40727000D01*
X219273001Y-119273000D01*
M02*
