G04 #@! TF.GenerationSoftware,KiCad,Pcbnew,5.1.0-060a0da~80~ubuntu18.04.1*
G04 #@! TF.CreationDate,2019-04-21T09:34:18+02:00*
G04 #@! TF.ProjectId,sc,73632e6b-6963-4616-945f-706362585858,rev?*
G04 #@! TF.SameCoordinates,Original*
G04 #@! TF.FileFunction,Soldermask,Top*
G04 #@! TF.FilePolarity,Negative*
%FSLAX46Y46*%
G04 Gerber Fmt 4.6, Leading zero omitted, Abs format (unit mm)*
G04 Created by KiCad (PCBNEW 5.1.0-060a0da~80~ubuntu18.04.1) date 2019-04-21 09:34:18*
%MOMM*%
%LPD*%
G04 APERTURE LIST*
%ADD10C,0.100000*%
G04 APERTURE END LIST*
D10*
G36*
X215634239Y-111811467D02*
G01*
X215948282Y-111873934D01*
X216539926Y-112119001D01*
X217072392Y-112474784D01*
X217525216Y-112927608D01*
X217880999Y-113460074D01*
X218126066Y-114051718D01*
X218251000Y-114679804D01*
X218251000Y-115320196D01*
X218126066Y-115948282D01*
X217880999Y-116539926D01*
X217525216Y-117072392D01*
X217072392Y-117525216D01*
X216539926Y-117880999D01*
X215948282Y-118126066D01*
X215634239Y-118188533D01*
X215320197Y-118251000D01*
X214679803Y-118251000D01*
X214365761Y-118188533D01*
X214051718Y-118126066D01*
X213460074Y-117880999D01*
X212927608Y-117525216D01*
X212474784Y-117072392D01*
X212119001Y-116539926D01*
X211873934Y-115948282D01*
X211749000Y-115320196D01*
X211749000Y-114679804D01*
X211873934Y-114051718D01*
X212119001Y-113460074D01*
X212474784Y-112927608D01*
X212927608Y-112474784D01*
X213460074Y-112119001D01*
X214051718Y-111873934D01*
X214365761Y-111811467D01*
X214679803Y-111749000D01*
X215320197Y-111749000D01*
X215634239Y-111811467D01*
X215634239Y-111811467D01*
G37*
G36*
X75634239Y-111811467D02*
G01*
X75948282Y-111873934D01*
X76539926Y-112119001D01*
X77072392Y-112474784D01*
X77525216Y-112927608D01*
X77880999Y-113460074D01*
X78126066Y-114051718D01*
X78251000Y-114679804D01*
X78251000Y-115320196D01*
X78126066Y-115948282D01*
X77880999Y-116539926D01*
X77525216Y-117072392D01*
X77072392Y-117525216D01*
X76539926Y-117880999D01*
X75948282Y-118126066D01*
X75634239Y-118188533D01*
X75320197Y-118251000D01*
X74679803Y-118251000D01*
X74365761Y-118188533D01*
X74051718Y-118126066D01*
X73460074Y-117880999D01*
X72927608Y-117525216D01*
X72474784Y-117072392D01*
X72119001Y-116539926D01*
X71873934Y-115948282D01*
X71749000Y-115320196D01*
X71749000Y-114679804D01*
X71873934Y-114051718D01*
X72119001Y-113460074D01*
X72474784Y-112927608D01*
X72927608Y-112474784D01*
X73460074Y-112119001D01*
X74051718Y-111873934D01*
X74365761Y-111811467D01*
X74679803Y-111749000D01*
X75320197Y-111749000D01*
X75634239Y-111811467D01*
X75634239Y-111811467D01*
G37*
G36*
X139751000Y-111251000D02*
G01*
X137249000Y-111251000D01*
X137249000Y-108749000D01*
X139751000Y-108749000D01*
X139751000Y-111251000D01*
X139751000Y-111251000D01*
G37*
G36*
X193251000Y-111251000D02*
G01*
X190749000Y-111251000D01*
X190749000Y-108749000D01*
X193251000Y-108749000D01*
X193251000Y-111251000D01*
X193251000Y-111251000D01*
G37*
G36*
X166501000Y-111251000D02*
G01*
X163999000Y-111251000D01*
X163999000Y-108749000D01*
X166501000Y-108749000D01*
X166501000Y-111251000D01*
X166501000Y-111251000D01*
G37*
G36*
X111946000Y-106451000D02*
G01*
X110344000Y-106451000D01*
X110344000Y-104449000D01*
X111946000Y-104449000D01*
X111946000Y-106451000D01*
X111946000Y-106451000D01*
G37*
G36*
X102106000Y-106451000D02*
G01*
X100504000Y-106451000D01*
X100504000Y-104449000D01*
X102106000Y-104449000D01*
X102106000Y-106451000D01*
X102106000Y-106451000D01*
G37*
G36*
X104646000Y-106451000D02*
G01*
X103044000Y-106451000D01*
X103044000Y-104449000D01*
X104646000Y-104449000D01*
X104646000Y-106451000D01*
X104646000Y-106451000D01*
G37*
G36*
X109406000Y-106451000D02*
G01*
X107804000Y-106451000D01*
X107804000Y-104449000D01*
X109406000Y-104449000D01*
X109406000Y-106451000D01*
X109406000Y-106451000D01*
G37*
G36*
X94806000Y-106451000D02*
G01*
X93204000Y-106451000D01*
X93204000Y-104449000D01*
X94806000Y-104449000D01*
X94806000Y-106451000D01*
X94806000Y-106451000D01*
G37*
G36*
X97346000Y-106451000D02*
G01*
X95744000Y-106451000D01*
X95744000Y-104449000D01*
X97346000Y-104449000D01*
X97346000Y-106451000D01*
X97346000Y-106451000D01*
G37*
G36*
X120476000Y-106351000D02*
G01*
X117874000Y-106351000D01*
X117874000Y-104449000D01*
X120476000Y-104449000D01*
X120476000Y-106351000D01*
X120476000Y-106351000D01*
G37*
G36*
X116476000Y-106351000D02*
G01*
X113874000Y-106351000D01*
X113874000Y-104449000D01*
X116476000Y-104449000D01*
X116476000Y-106351000D01*
X116476000Y-106351000D01*
G37*
G36*
X111946000Y-97451000D02*
G01*
X110344000Y-97451000D01*
X110344000Y-95449000D01*
X111946000Y-95449000D01*
X111946000Y-97451000D01*
X111946000Y-97451000D01*
G37*
G36*
X102106000Y-97451000D02*
G01*
X100504000Y-97451000D01*
X100504000Y-95449000D01*
X102106000Y-95449000D01*
X102106000Y-97451000D01*
X102106000Y-97451000D01*
G37*
G36*
X104646000Y-97451000D02*
G01*
X103044000Y-97451000D01*
X103044000Y-95449000D01*
X104646000Y-95449000D01*
X104646000Y-97451000D01*
X104646000Y-97451000D01*
G37*
G36*
X109406000Y-97451000D02*
G01*
X107804000Y-97451000D01*
X107804000Y-95449000D01*
X109406000Y-95449000D01*
X109406000Y-97451000D01*
X109406000Y-97451000D01*
G37*
G36*
X94806000Y-97451000D02*
G01*
X93204000Y-97451000D01*
X93204000Y-95449000D01*
X94806000Y-95449000D01*
X94806000Y-97451000D01*
X94806000Y-97451000D01*
G37*
G36*
X97346000Y-97451000D02*
G01*
X95744000Y-97451000D01*
X95744000Y-95449000D01*
X97346000Y-95449000D01*
X97346000Y-97451000D01*
X97346000Y-97451000D01*
G37*
G36*
X104226000Y-94751000D02*
G01*
X103324000Y-94751000D01*
X103324000Y-93749000D01*
X104226000Y-93749000D01*
X104226000Y-94751000D01*
X104226000Y-94751000D01*
G37*
G36*
X111526000Y-94751000D02*
G01*
X110624000Y-94751000D01*
X110624000Y-93749000D01*
X111526000Y-93749000D01*
X111526000Y-94751000D01*
X111526000Y-94751000D01*
G37*
G36*
X94526000Y-94751000D02*
G01*
X93624000Y-94751000D01*
X93624000Y-93749000D01*
X94526000Y-93749000D01*
X94526000Y-94751000D01*
X94526000Y-94751000D01*
G37*
G36*
X108954591Y-93753085D02*
G01*
X108988569Y-93763393D01*
X109019890Y-93780134D01*
X109047339Y-93802661D01*
X109069866Y-93830110D01*
X109086607Y-93861431D01*
X109096915Y-93895409D01*
X109101000Y-93936890D01*
X109101000Y-94538110D01*
X109096915Y-94579591D01*
X109086607Y-94613569D01*
X109069866Y-94644890D01*
X109047339Y-94672339D01*
X109019890Y-94694866D01*
X108988569Y-94711607D01*
X108954591Y-94721915D01*
X108913110Y-94726000D01*
X108236890Y-94726000D01*
X108195409Y-94721915D01*
X108161431Y-94711607D01*
X108130110Y-94694866D01*
X108102661Y-94672339D01*
X108080134Y-94644890D01*
X108063393Y-94613569D01*
X108053085Y-94579591D01*
X108049000Y-94538110D01*
X108049000Y-93936890D01*
X108053085Y-93895409D01*
X108063393Y-93861431D01*
X108080134Y-93830110D01*
X108102661Y-93802661D01*
X108130110Y-93780134D01*
X108161431Y-93763393D01*
X108195409Y-93753085D01*
X108236890Y-93749000D01*
X108913110Y-93749000D01*
X108954591Y-93753085D01*
X108954591Y-93753085D01*
G37*
G36*
X96954591Y-93753085D02*
G01*
X96988569Y-93763393D01*
X97019890Y-93780134D01*
X97047339Y-93802661D01*
X97069866Y-93830110D01*
X97086607Y-93861431D01*
X97096915Y-93895409D01*
X97101000Y-93936890D01*
X97101000Y-94538110D01*
X97096915Y-94579591D01*
X97086607Y-94613569D01*
X97069866Y-94644890D01*
X97047339Y-94672339D01*
X97019890Y-94694866D01*
X96988569Y-94711607D01*
X96954591Y-94721915D01*
X96913110Y-94726000D01*
X96236890Y-94726000D01*
X96195409Y-94721915D01*
X96161431Y-94711607D01*
X96130110Y-94694866D01*
X96102661Y-94672339D01*
X96080134Y-94644890D01*
X96063393Y-94613569D01*
X96053085Y-94579591D01*
X96049000Y-94538110D01*
X96049000Y-93936890D01*
X96053085Y-93895409D01*
X96063393Y-93861431D01*
X96080134Y-93830110D01*
X96102661Y-93802661D01*
X96130110Y-93780134D01*
X96161431Y-93763393D01*
X96195409Y-93753085D01*
X96236890Y-93749000D01*
X96913110Y-93749000D01*
X96954591Y-93753085D01*
X96954591Y-93753085D01*
G37*
G36*
X101654591Y-93740585D02*
G01*
X101688569Y-93750893D01*
X101719890Y-93767634D01*
X101747339Y-93790161D01*
X101769866Y-93817610D01*
X101786607Y-93848931D01*
X101796915Y-93882909D01*
X101801000Y-93924390D01*
X101801000Y-94525610D01*
X101796915Y-94567091D01*
X101786607Y-94601069D01*
X101769866Y-94632390D01*
X101747339Y-94659839D01*
X101719890Y-94682366D01*
X101688569Y-94699107D01*
X101654591Y-94709415D01*
X101613110Y-94713500D01*
X100936890Y-94713500D01*
X100895409Y-94709415D01*
X100861431Y-94699107D01*
X100830110Y-94682366D01*
X100802661Y-94659839D01*
X100780134Y-94632390D01*
X100763393Y-94601069D01*
X100753085Y-94567091D01*
X100749000Y-94525610D01*
X100749000Y-93924390D01*
X100753085Y-93882909D01*
X100763393Y-93848931D01*
X100780134Y-93817610D01*
X100802661Y-93790161D01*
X100830110Y-93767634D01*
X100861431Y-93750893D01*
X100895409Y-93740585D01*
X100936890Y-93736500D01*
X101613110Y-93736500D01*
X101654591Y-93740585D01*
X101654591Y-93740585D01*
G37*
G36*
X108954591Y-92178085D02*
G01*
X108988569Y-92188393D01*
X109019890Y-92205134D01*
X109047339Y-92227661D01*
X109069866Y-92255110D01*
X109086607Y-92286431D01*
X109096915Y-92320409D01*
X109101000Y-92361890D01*
X109101000Y-92963110D01*
X109096915Y-93004591D01*
X109086607Y-93038569D01*
X109069866Y-93069890D01*
X109047339Y-93097339D01*
X109019890Y-93119866D01*
X108988569Y-93136607D01*
X108954591Y-93146915D01*
X108913110Y-93151000D01*
X108236890Y-93151000D01*
X108195409Y-93146915D01*
X108161431Y-93136607D01*
X108130110Y-93119866D01*
X108102661Y-93097339D01*
X108080134Y-93069890D01*
X108063393Y-93038569D01*
X108053085Y-93004591D01*
X108049000Y-92963110D01*
X108049000Y-92361890D01*
X108053085Y-92320409D01*
X108063393Y-92286431D01*
X108080134Y-92255110D01*
X108102661Y-92227661D01*
X108130110Y-92205134D01*
X108161431Y-92188393D01*
X108195409Y-92178085D01*
X108236890Y-92174000D01*
X108913110Y-92174000D01*
X108954591Y-92178085D01*
X108954591Y-92178085D01*
G37*
G36*
X96954591Y-92178085D02*
G01*
X96988569Y-92188393D01*
X97019890Y-92205134D01*
X97047339Y-92227661D01*
X97069866Y-92255110D01*
X97086607Y-92286431D01*
X97096915Y-92320409D01*
X97101000Y-92361890D01*
X97101000Y-92963110D01*
X97096915Y-93004591D01*
X97086607Y-93038569D01*
X97069866Y-93069890D01*
X97047339Y-93097339D01*
X97019890Y-93119866D01*
X96988569Y-93136607D01*
X96954591Y-93146915D01*
X96913110Y-93151000D01*
X96236890Y-93151000D01*
X96195409Y-93146915D01*
X96161431Y-93136607D01*
X96130110Y-93119866D01*
X96102661Y-93097339D01*
X96080134Y-93069890D01*
X96063393Y-93038569D01*
X96053085Y-93004591D01*
X96049000Y-92963110D01*
X96049000Y-92361890D01*
X96053085Y-92320409D01*
X96063393Y-92286431D01*
X96080134Y-92255110D01*
X96102661Y-92227661D01*
X96130110Y-92205134D01*
X96161431Y-92188393D01*
X96195409Y-92178085D01*
X96236890Y-92174000D01*
X96913110Y-92174000D01*
X96954591Y-92178085D01*
X96954591Y-92178085D01*
G37*
G36*
X101654591Y-92165585D02*
G01*
X101688569Y-92175893D01*
X101719890Y-92192634D01*
X101747339Y-92215161D01*
X101769866Y-92242610D01*
X101786607Y-92273931D01*
X101796915Y-92307909D01*
X101801000Y-92349390D01*
X101801000Y-92950610D01*
X101796915Y-92992091D01*
X101786607Y-93026069D01*
X101769866Y-93057390D01*
X101747339Y-93084839D01*
X101719890Y-93107366D01*
X101688569Y-93124107D01*
X101654591Y-93134415D01*
X101613110Y-93138500D01*
X100936890Y-93138500D01*
X100895409Y-93134415D01*
X100861431Y-93124107D01*
X100830110Y-93107366D01*
X100802661Y-93084839D01*
X100780134Y-93057390D01*
X100763393Y-93026069D01*
X100753085Y-92992091D01*
X100749000Y-92950610D01*
X100749000Y-92349390D01*
X100753085Y-92307909D01*
X100763393Y-92273931D01*
X100780134Y-92242610D01*
X100802661Y-92215161D01*
X100830110Y-92192634D01*
X100861431Y-92175893D01*
X100895409Y-92165585D01*
X100936890Y-92161500D01*
X101613110Y-92161500D01*
X101654591Y-92165585D01*
X101654591Y-92165585D01*
G37*
G36*
X105176000Y-92751000D02*
G01*
X104274000Y-92751000D01*
X104274000Y-91749000D01*
X105176000Y-91749000D01*
X105176000Y-92751000D01*
X105176000Y-92751000D01*
G37*
G36*
X112476000Y-92751000D02*
G01*
X111574000Y-92751000D01*
X111574000Y-91749000D01*
X112476000Y-91749000D01*
X112476000Y-92751000D01*
X112476000Y-92751000D01*
G37*
G36*
X110576000Y-92751000D02*
G01*
X109674000Y-92751000D01*
X109674000Y-91749000D01*
X110576000Y-91749000D01*
X110576000Y-92751000D01*
X110576000Y-92751000D01*
G37*
G36*
X95476000Y-92751000D02*
G01*
X94574000Y-92751000D01*
X94574000Y-91749000D01*
X95476000Y-91749000D01*
X95476000Y-92751000D01*
X95476000Y-92751000D01*
G37*
G36*
X93576000Y-92751000D02*
G01*
X92674000Y-92751000D01*
X92674000Y-91749000D01*
X93576000Y-91749000D01*
X93576000Y-92751000D01*
X93576000Y-92751000D01*
G37*
G36*
X103276000Y-92751000D02*
G01*
X102374000Y-92751000D01*
X102374000Y-91749000D01*
X103276000Y-91749000D01*
X103276000Y-92751000D01*
X103276000Y-92751000D01*
G37*
G36*
X112454591Y-90253085D02*
G01*
X112488569Y-90263393D01*
X112519890Y-90280134D01*
X112547339Y-90302661D01*
X112569866Y-90330110D01*
X112586607Y-90361431D01*
X112596915Y-90395409D01*
X112601000Y-90436890D01*
X112601000Y-91038110D01*
X112596915Y-91079591D01*
X112586607Y-91113569D01*
X112569866Y-91144890D01*
X112547339Y-91172339D01*
X112519890Y-91194866D01*
X112488569Y-91211607D01*
X112454591Y-91221915D01*
X112413110Y-91226000D01*
X111736890Y-91226000D01*
X111695409Y-91221915D01*
X111661431Y-91211607D01*
X111630110Y-91194866D01*
X111602661Y-91172339D01*
X111580134Y-91144890D01*
X111563393Y-91113569D01*
X111553085Y-91079591D01*
X111549000Y-91038110D01*
X111549000Y-90436890D01*
X111553085Y-90395409D01*
X111563393Y-90361431D01*
X111580134Y-90330110D01*
X111602661Y-90302661D01*
X111630110Y-90280134D01*
X111661431Y-90263393D01*
X111695409Y-90253085D01*
X111736890Y-90249000D01*
X112413110Y-90249000D01*
X112454591Y-90253085D01*
X112454591Y-90253085D01*
G37*
G36*
X105154591Y-90253085D02*
G01*
X105188569Y-90263393D01*
X105219890Y-90280134D01*
X105247339Y-90302661D01*
X105269866Y-90330110D01*
X105286607Y-90361431D01*
X105296915Y-90395409D01*
X105301000Y-90436890D01*
X105301000Y-91038110D01*
X105296915Y-91079591D01*
X105286607Y-91113569D01*
X105269866Y-91144890D01*
X105247339Y-91172339D01*
X105219890Y-91194866D01*
X105188569Y-91211607D01*
X105154591Y-91221915D01*
X105113110Y-91226000D01*
X104436890Y-91226000D01*
X104395409Y-91221915D01*
X104361431Y-91211607D01*
X104330110Y-91194866D01*
X104302661Y-91172339D01*
X104280134Y-91144890D01*
X104263393Y-91113569D01*
X104253085Y-91079591D01*
X104249000Y-91038110D01*
X104249000Y-90436890D01*
X104253085Y-90395409D01*
X104263393Y-90361431D01*
X104280134Y-90330110D01*
X104302661Y-90302661D01*
X104330110Y-90280134D01*
X104361431Y-90263393D01*
X104395409Y-90253085D01*
X104436890Y-90249000D01*
X105113110Y-90249000D01*
X105154591Y-90253085D01*
X105154591Y-90253085D01*
G37*
G36*
X95454591Y-90253085D02*
G01*
X95488569Y-90263393D01*
X95519890Y-90280134D01*
X95547339Y-90302661D01*
X95569866Y-90330110D01*
X95586607Y-90361431D01*
X95596915Y-90395409D01*
X95601000Y-90436890D01*
X95601000Y-91038110D01*
X95596915Y-91079591D01*
X95586607Y-91113569D01*
X95569866Y-91144890D01*
X95547339Y-91172339D01*
X95519890Y-91194866D01*
X95488569Y-91211607D01*
X95454591Y-91221915D01*
X95413110Y-91226000D01*
X94736890Y-91226000D01*
X94695409Y-91221915D01*
X94661431Y-91211607D01*
X94630110Y-91194866D01*
X94602661Y-91172339D01*
X94580134Y-91144890D01*
X94563393Y-91113569D01*
X94553085Y-91079591D01*
X94549000Y-91038110D01*
X94549000Y-90436890D01*
X94553085Y-90395409D01*
X94563393Y-90361431D01*
X94580134Y-90330110D01*
X94602661Y-90302661D01*
X94630110Y-90280134D01*
X94661431Y-90263393D01*
X94695409Y-90253085D01*
X94736890Y-90249000D01*
X95413110Y-90249000D01*
X95454591Y-90253085D01*
X95454591Y-90253085D01*
G37*
G36*
X82444929Y-85023190D02*
G01*
X82890982Y-85207951D01*
X82890984Y-85207952D01*
X83292421Y-85476184D01*
X83633816Y-85817579D01*
X83902049Y-86219018D01*
X84086810Y-86665071D01*
X84181000Y-87138596D01*
X84181000Y-87621404D01*
X84086810Y-88094929D01*
X83902049Y-88540982D01*
X83902048Y-88540984D01*
X83633816Y-88942421D01*
X83292421Y-89283816D01*
X82890984Y-89552048D01*
X82890983Y-89552049D01*
X82890982Y-89552049D01*
X82444929Y-89736810D01*
X81971404Y-89831000D01*
X81488596Y-89831000D01*
X81015071Y-89736810D01*
X80569018Y-89552049D01*
X80569017Y-89552049D01*
X80569016Y-89552048D01*
X80167579Y-89283816D01*
X79826184Y-88942421D01*
X79557952Y-88540984D01*
X79557951Y-88540982D01*
X79373190Y-88094929D01*
X79279000Y-87621404D01*
X79279000Y-87138596D01*
X79373190Y-86665071D01*
X79557951Y-86219018D01*
X79826184Y-85817579D01*
X80167579Y-85476184D01*
X80569016Y-85207952D01*
X80569018Y-85207951D01*
X81015071Y-85023190D01*
X81488596Y-84929000D01*
X81971404Y-84929000D01*
X82444929Y-85023190D01*
X82444929Y-85023190D01*
G37*
G36*
X95454591Y-88678085D02*
G01*
X95488569Y-88688393D01*
X95519890Y-88705134D01*
X95547339Y-88727661D01*
X95569866Y-88755110D01*
X95586607Y-88786431D01*
X95596915Y-88820409D01*
X95601000Y-88861890D01*
X95601000Y-89463110D01*
X95596915Y-89504591D01*
X95586607Y-89538569D01*
X95569866Y-89569890D01*
X95547339Y-89597339D01*
X95519890Y-89619866D01*
X95488569Y-89636607D01*
X95454591Y-89646915D01*
X95413110Y-89651000D01*
X94736890Y-89651000D01*
X94695409Y-89646915D01*
X94661431Y-89636607D01*
X94630110Y-89619866D01*
X94602661Y-89597339D01*
X94580134Y-89569890D01*
X94563393Y-89538569D01*
X94553085Y-89504591D01*
X94549000Y-89463110D01*
X94549000Y-88861890D01*
X94553085Y-88820409D01*
X94563393Y-88786431D01*
X94580134Y-88755110D01*
X94602661Y-88727661D01*
X94630110Y-88705134D01*
X94661431Y-88688393D01*
X94695409Y-88678085D01*
X94736890Y-88674000D01*
X95413110Y-88674000D01*
X95454591Y-88678085D01*
X95454591Y-88678085D01*
G37*
G36*
X105154591Y-88678085D02*
G01*
X105188569Y-88688393D01*
X105219890Y-88705134D01*
X105247339Y-88727661D01*
X105269866Y-88755110D01*
X105286607Y-88786431D01*
X105296915Y-88820409D01*
X105301000Y-88861890D01*
X105301000Y-89463110D01*
X105296915Y-89504591D01*
X105286607Y-89538569D01*
X105269866Y-89569890D01*
X105247339Y-89597339D01*
X105219890Y-89619866D01*
X105188569Y-89636607D01*
X105154591Y-89646915D01*
X105113110Y-89651000D01*
X104436890Y-89651000D01*
X104395409Y-89646915D01*
X104361431Y-89636607D01*
X104330110Y-89619866D01*
X104302661Y-89597339D01*
X104280134Y-89569890D01*
X104263393Y-89538569D01*
X104253085Y-89504591D01*
X104249000Y-89463110D01*
X104249000Y-88861890D01*
X104253085Y-88820409D01*
X104263393Y-88786431D01*
X104280134Y-88755110D01*
X104302661Y-88727661D01*
X104330110Y-88705134D01*
X104361431Y-88688393D01*
X104395409Y-88678085D01*
X104436890Y-88674000D01*
X105113110Y-88674000D01*
X105154591Y-88678085D01*
X105154591Y-88678085D01*
G37*
G36*
X112454591Y-88678085D02*
G01*
X112488569Y-88688393D01*
X112519890Y-88705134D01*
X112547339Y-88727661D01*
X112569866Y-88755110D01*
X112586607Y-88786431D01*
X112596915Y-88820409D01*
X112601000Y-88861890D01*
X112601000Y-89463110D01*
X112596915Y-89504591D01*
X112586607Y-89538569D01*
X112569866Y-89569890D01*
X112547339Y-89597339D01*
X112519890Y-89619866D01*
X112488569Y-89636607D01*
X112454591Y-89646915D01*
X112413110Y-89651000D01*
X111736890Y-89651000D01*
X111695409Y-89646915D01*
X111661431Y-89636607D01*
X111630110Y-89619866D01*
X111602661Y-89597339D01*
X111580134Y-89569890D01*
X111563393Y-89538569D01*
X111553085Y-89504591D01*
X111549000Y-89463110D01*
X111549000Y-88861890D01*
X111553085Y-88820409D01*
X111563393Y-88786431D01*
X111580134Y-88755110D01*
X111602661Y-88727661D01*
X111630110Y-88705134D01*
X111661431Y-88688393D01*
X111695409Y-88678085D01*
X111736890Y-88674000D01*
X112413110Y-88674000D01*
X112454591Y-88678085D01*
X112454591Y-88678085D01*
G37*
G36*
X83204473Y-79685938D02*
G01*
X83332049Y-79738782D01*
X83446859Y-79815495D01*
X83544505Y-79913141D01*
X83621218Y-80027951D01*
X83674062Y-80155527D01*
X83701000Y-80290956D01*
X83701000Y-80429044D01*
X83674062Y-80564473D01*
X83621218Y-80692049D01*
X83544505Y-80806859D01*
X83446859Y-80904505D01*
X83332049Y-80981218D01*
X83204473Y-81034062D01*
X83069044Y-81061000D01*
X82930956Y-81061000D01*
X82795527Y-81034062D01*
X82667951Y-80981218D01*
X82553141Y-80904505D01*
X82455495Y-80806859D01*
X82378782Y-80692049D01*
X82325938Y-80564473D01*
X82299000Y-80429044D01*
X82299000Y-80290956D01*
X82325938Y-80155527D01*
X82378782Y-80027951D01*
X82455495Y-79913141D01*
X82553141Y-79815495D01*
X82667951Y-79738782D01*
X82795527Y-79685938D01*
X82930956Y-79659000D01*
X83069044Y-79659000D01*
X83204473Y-79685938D01*
X83204473Y-79685938D01*
G37*
G36*
X101179591Y-79703085D02*
G01*
X101213569Y-79713393D01*
X101244890Y-79730134D01*
X101272339Y-79752661D01*
X101294866Y-79780110D01*
X101311607Y-79811431D01*
X101321915Y-79845409D01*
X101326000Y-79886890D01*
X101326000Y-80563110D01*
X101321915Y-80604591D01*
X101311607Y-80638569D01*
X101294866Y-80669890D01*
X101272339Y-80697339D01*
X101244890Y-80719866D01*
X101213569Y-80736607D01*
X101179591Y-80746915D01*
X101138110Y-80751000D01*
X100536890Y-80751000D01*
X100495409Y-80746915D01*
X100461431Y-80736607D01*
X100430110Y-80719866D01*
X100402661Y-80697339D01*
X100380134Y-80669890D01*
X100363393Y-80638569D01*
X100353085Y-80604591D01*
X100349000Y-80563110D01*
X100349000Y-79886890D01*
X100353085Y-79845409D01*
X100363393Y-79811431D01*
X100380134Y-79780110D01*
X100402661Y-79752661D01*
X100430110Y-79730134D01*
X100461431Y-79713393D01*
X100495409Y-79703085D01*
X100536890Y-79699000D01*
X101138110Y-79699000D01*
X101179591Y-79703085D01*
X101179591Y-79703085D01*
G37*
G36*
X102754591Y-79703085D02*
G01*
X102788569Y-79713393D01*
X102819890Y-79730134D01*
X102847339Y-79752661D01*
X102869866Y-79780110D01*
X102886607Y-79811431D01*
X102896915Y-79845409D01*
X102901000Y-79886890D01*
X102901000Y-80563110D01*
X102896915Y-80604591D01*
X102886607Y-80638569D01*
X102869866Y-80669890D01*
X102847339Y-80697339D01*
X102819890Y-80719866D01*
X102788569Y-80736607D01*
X102754591Y-80746915D01*
X102713110Y-80751000D01*
X102111890Y-80751000D01*
X102070409Y-80746915D01*
X102036431Y-80736607D01*
X102005110Y-80719866D01*
X101977661Y-80697339D01*
X101955134Y-80669890D01*
X101938393Y-80638569D01*
X101928085Y-80604591D01*
X101924000Y-80563110D01*
X101924000Y-79886890D01*
X101928085Y-79845409D01*
X101938393Y-79811431D01*
X101955134Y-79780110D01*
X101977661Y-79752661D01*
X102005110Y-79730134D01*
X102036431Y-79713393D01*
X102070409Y-79703085D01*
X102111890Y-79699000D01*
X102713110Y-79699000D01*
X102754591Y-79703085D01*
X102754591Y-79703085D01*
G37*
G36*
X80664473Y-78315938D02*
G01*
X80792049Y-78368782D01*
X80906859Y-78445495D01*
X81004505Y-78543141D01*
X81081218Y-78657951D01*
X81134062Y-78785527D01*
X81161000Y-78920956D01*
X81161000Y-79059044D01*
X81134062Y-79194473D01*
X81081218Y-79322049D01*
X81004505Y-79436859D01*
X80906859Y-79534505D01*
X80792049Y-79611218D01*
X80664473Y-79664062D01*
X80529044Y-79691000D01*
X80390956Y-79691000D01*
X80255527Y-79664062D01*
X80127951Y-79611218D01*
X80013141Y-79534505D01*
X79915495Y-79436859D01*
X79838782Y-79322049D01*
X79785938Y-79194473D01*
X79759000Y-79059044D01*
X79759000Y-78920956D01*
X79785938Y-78785527D01*
X79838782Y-78657951D01*
X79915495Y-78543141D01*
X80013141Y-78445495D01*
X80127951Y-78368782D01*
X80255527Y-78315938D01*
X80390956Y-78289000D01*
X80529044Y-78289000D01*
X80664473Y-78315938D01*
X80664473Y-78315938D01*
G37*
G36*
X105126000Y-78521000D02*
G01*
X103524000Y-78521000D01*
X103524000Y-77819000D01*
X105126000Y-77819000D01*
X105126000Y-78521000D01*
X105126000Y-78521000D01*
G37*
G36*
X99726000Y-78521000D02*
G01*
X98124000Y-78521000D01*
X98124000Y-77819000D01*
X99726000Y-77819000D01*
X99726000Y-78521000D01*
X99726000Y-78521000D01*
G37*
G36*
X83204473Y-76945938D02*
G01*
X83332049Y-76998782D01*
X83446859Y-77075495D01*
X83544505Y-77173141D01*
X83621218Y-77287951D01*
X83674062Y-77415527D01*
X83701000Y-77550956D01*
X83701000Y-77689044D01*
X83674062Y-77824473D01*
X83621218Y-77952049D01*
X83544505Y-78066859D01*
X83446859Y-78164505D01*
X83332049Y-78241218D01*
X83204473Y-78294062D01*
X83069044Y-78321000D01*
X82930956Y-78321000D01*
X82795527Y-78294062D01*
X82667951Y-78241218D01*
X82553141Y-78164505D01*
X82455495Y-78066859D01*
X82378782Y-77952049D01*
X82325938Y-77824473D01*
X82299000Y-77689044D01*
X82299000Y-77550956D01*
X82325938Y-77415527D01*
X82378782Y-77287951D01*
X82455495Y-77173141D01*
X82553141Y-77075495D01*
X82667951Y-76998782D01*
X82795527Y-76945938D01*
X82930956Y-76919000D01*
X83069044Y-76919000D01*
X83204473Y-76945938D01*
X83204473Y-76945938D01*
G37*
G36*
X99726000Y-77251000D02*
G01*
X98124000Y-77251000D01*
X98124000Y-76549000D01*
X99726000Y-76549000D01*
X99726000Y-77251000D01*
X99726000Y-77251000D01*
G37*
G36*
X105126000Y-77251000D02*
G01*
X103524000Y-77251000D01*
X103524000Y-76549000D01*
X105126000Y-76549000D01*
X105126000Y-77251000D01*
X105126000Y-77251000D01*
G37*
G36*
X80664473Y-75575938D02*
G01*
X80792049Y-75628782D01*
X80906859Y-75705495D01*
X81004505Y-75803141D01*
X81081218Y-75917951D01*
X81134062Y-76045527D01*
X81161000Y-76180956D01*
X81161000Y-76319044D01*
X81134062Y-76454473D01*
X81081218Y-76582049D01*
X81004505Y-76696859D01*
X80906859Y-76794505D01*
X80792049Y-76871218D01*
X80664473Y-76924062D01*
X80529044Y-76951000D01*
X80390956Y-76951000D01*
X80255527Y-76924062D01*
X80127951Y-76871218D01*
X80013141Y-76794505D01*
X79915495Y-76696859D01*
X79838782Y-76582049D01*
X79785938Y-76454473D01*
X79759000Y-76319044D01*
X79759000Y-76180956D01*
X79785938Y-76045527D01*
X79838782Y-75917951D01*
X79915495Y-75803141D01*
X80013141Y-75705495D01*
X80127951Y-75628782D01*
X80255527Y-75575938D01*
X80390956Y-75549000D01*
X80529044Y-75549000D01*
X80664473Y-75575938D01*
X80664473Y-75575938D01*
G37*
G36*
X97254591Y-75315585D02*
G01*
X97288569Y-75325893D01*
X97319890Y-75342634D01*
X97347339Y-75365161D01*
X97369866Y-75392610D01*
X97386607Y-75423931D01*
X97396915Y-75457909D01*
X97401000Y-75499390D01*
X97401000Y-76100610D01*
X97396915Y-76142091D01*
X97386607Y-76176069D01*
X97369866Y-76207390D01*
X97347339Y-76234839D01*
X97319890Y-76257366D01*
X97288569Y-76274107D01*
X97254591Y-76284415D01*
X97213110Y-76288500D01*
X96536890Y-76288500D01*
X96495409Y-76284415D01*
X96461431Y-76274107D01*
X96430110Y-76257366D01*
X96402661Y-76234839D01*
X96380134Y-76207390D01*
X96363393Y-76176069D01*
X96353085Y-76142091D01*
X96349000Y-76100610D01*
X96349000Y-75499390D01*
X96353085Y-75457909D01*
X96363393Y-75423931D01*
X96380134Y-75392610D01*
X96402661Y-75365161D01*
X96430110Y-75342634D01*
X96461431Y-75325893D01*
X96495409Y-75315585D01*
X96536890Y-75311500D01*
X97213110Y-75311500D01*
X97254591Y-75315585D01*
X97254591Y-75315585D01*
G37*
G36*
X99726000Y-75981000D02*
G01*
X98124000Y-75981000D01*
X98124000Y-75279000D01*
X99726000Y-75279000D01*
X99726000Y-75981000D01*
X99726000Y-75981000D01*
G37*
G36*
X105126000Y-75981000D02*
G01*
X103524000Y-75981000D01*
X103524000Y-75279000D01*
X105126000Y-75279000D01*
X105126000Y-75981000D01*
X105126000Y-75981000D01*
G37*
G36*
X83204473Y-74205938D02*
G01*
X83332049Y-74258782D01*
X83446859Y-74335495D01*
X83544505Y-74433141D01*
X83621218Y-74547951D01*
X83674062Y-74675527D01*
X83701000Y-74810956D01*
X83701000Y-74949044D01*
X83674062Y-75084473D01*
X83621218Y-75212049D01*
X83544505Y-75326859D01*
X83446859Y-75424505D01*
X83332049Y-75501218D01*
X83204473Y-75554062D01*
X83069044Y-75581000D01*
X82930956Y-75581000D01*
X82795527Y-75554062D01*
X82667951Y-75501218D01*
X82553141Y-75424505D01*
X82455495Y-75326859D01*
X82378782Y-75212049D01*
X82325938Y-75084473D01*
X82299000Y-74949044D01*
X82299000Y-74810956D01*
X82325938Y-74675527D01*
X82378782Y-74547951D01*
X82455495Y-74433141D01*
X82553141Y-74335495D01*
X82667951Y-74258782D01*
X82795527Y-74205938D01*
X82930956Y-74179000D01*
X83069044Y-74179000D01*
X83204473Y-74205938D01*
X83204473Y-74205938D01*
G37*
G36*
X88879591Y-74528085D02*
G01*
X88913569Y-74538393D01*
X88944890Y-74555134D01*
X88972339Y-74577661D01*
X88994866Y-74605110D01*
X89011607Y-74636431D01*
X89021915Y-74670409D01*
X89026000Y-74711890D01*
X89026000Y-75388110D01*
X89021915Y-75429591D01*
X89011607Y-75463569D01*
X88994866Y-75494890D01*
X88972339Y-75522339D01*
X88944890Y-75544866D01*
X88913569Y-75561607D01*
X88879591Y-75571915D01*
X88838110Y-75576000D01*
X88236890Y-75576000D01*
X88195409Y-75571915D01*
X88161431Y-75561607D01*
X88130110Y-75544866D01*
X88102661Y-75522339D01*
X88080134Y-75494890D01*
X88063393Y-75463569D01*
X88053085Y-75429591D01*
X88049000Y-75388110D01*
X88049000Y-74711890D01*
X88053085Y-74670409D01*
X88063393Y-74636431D01*
X88080134Y-74605110D01*
X88102661Y-74577661D01*
X88130110Y-74555134D01*
X88161431Y-74538393D01*
X88195409Y-74528085D01*
X88236890Y-74524000D01*
X88838110Y-74524000D01*
X88879591Y-74528085D01*
X88879591Y-74528085D01*
G37*
G36*
X91929591Y-74528085D02*
G01*
X91963569Y-74538393D01*
X91994890Y-74555134D01*
X92022339Y-74577661D01*
X92044866Y-74605110D01*
X92061607Y-74636431D01*
X92071915Y-74670409D01*
X92076000Y-74711890D01*
X92076000Y-75388110D01*
X92071915Y-75429591D01*
X92061607Y-75463569D01*
X92044866Y-75494890D01*
X92022339Y-75522339D01*
X91994890Y-75544866D01*
X91963569Y-75561607D01*
X91929591Y-75571915D01*
X91888110Y-75576000D01*
X91286890Y-75576000D01*
X91245409Y-75571915D01*
X91211431Y-75561607D01*
X91180110Y-75544866D01*
X91152661Y-75522339D01*
X91130134Y-75494890D01*
X91113393Y-75463569D01*
X91103085Y-75429591D01*
X91099000Y-75388110D01*
X91099000Y-74711890D01*
X91103085Y-74670409D01*
X91113393Y-74636431D01*
X91130134Y-74605110D01*
X91152661Y-74577661D01*
X91180110Y-74555134D01*
X91211431Y-74538393D01*
X91245409Y-74528085D01*
X91286890Y-74524000D01*
X91888110Y-74524000D01*
X91929591Y-74528085D01*
X91929591Y-74528085D01*
G37*
G36*
X90354591Y-74528085D02*
G01*
X90388569Y-74538393D01*
X90419890Y-74555134D01*
X90447339Y-74577661D01*
X90469866Y-74605110D01*
X90486607Y-74636431D01*
X90496915Y-74670409D01*
X90501000Y-74711890D01*
X90501000Y-75388110D01*
X90496915Y-75429591D01*
X90486607Y-75463569D01*
X90469866Y-75494890D01*
X90447339Y-75522339D01*
X90419890Y-75544866D01*
X90388569Y-75561607D01*
X90354591Y-75571915D01*
X90313110Y-75576000D01*
X89711890Y-75576000D01*
X89670409Y-75571915D01*
X89636431Y-75561607D01*
X89605110Y-75544866D01*
X89577661Y-75522339D01*
X89555134Y-75494890D01*
X89538393Y-75463569D01*
X89528085Y-75429591D01*
X89524000Y-75388110D01*
X89524000Y-74711890D01*
X89528085Y-74670409D01*
X89538393Y-74636431D01*
X89555134Y-74605110D01*
X89577661Y-74577661D01*
X89605110Y-74555134D01*
X89636431Y-74538393D01*
X89670409Y-74528085D01*
X89711890Y-74524000D01*
X90313110Y-74524000D01*
X90354591Y-74528085D01*
X90354591Y-74528085D01*
G37*
G36*
X87304591Y-74528085D02*
G01*
X87338569Y-74538393D01*
X87369890Y-74555134D01*
X87397339Y-74577661D01*
X87419866Y-74605110D01*
X87436607Y-74636431D01*
X87446915Y-74670409D01*
X87451000Y-74711890D01*
X87451000Y-75388110D01*
X87446915Y-75429591D01*
X87436607Y-75463569D01*
X87419866Y-75494890D01*
X87397339Y-75522339D01*
X87369890Y-75544866D01*
X87338569Y-75561607D01*
X87304591Y-75571915D01*
X87263110Y-75576000D01*
X86661890Y-75576000D01*
X86620409Y-75571915D01*
X86586431Y-75561607D01*
X86555110Y-75544866D01*
X86527661Y-75522339D01*
X86505134Y-75494890D01*
X86488393Y-75463569D01*
X86478085Y-75429591D01*
X86474000Y-75388110D01*
X86474000Y-74711890D01*
X86478085Y-74670409D01*
X86488393Y-74636431D01*
X86505134Y-74605110D01*
X86527661Y-74577661D01*
X86555110Y-74555134D01*
X86586431Y-74538393D01*
X86620409Y-74528085D01*
X86661890Y-74524000D01*
X87263110Y-74524000D01*
X87304591Y-74528085D01*
X87304591Y-74528085D01*
G37*
G36*
X97254591Y-73740585D02*
G01*
X97288569Y-73750893D01*
X97319890Y-73767634D01*
X97347339Y-73790161D01*
X97369866Y-73817610D01*
X97386607Y-73848931D01*
X97396915Y-73882909D01*
X97401000Y-73924390D01*
X97401000Y-74525610D01*
X97396915Y-74567091D01*
X97386607Y-74601069D01*
X97369866Y-74632390D01*
X97347339Y-74659839D01*
X97319890Y-74682366D01*
X97288569Y-74699107D01*
X97254591Y-74709415D01*
X97213110Y-74713500D01*
X96536890Y-74713500D01*
X96495409Y-74709415D01*
X96461431Y-74699107D01*
X96430110Y-74682366D01*
X96402661Y-74659839D01*
X96380134Y-74632390D01*
X96363393Y-74601069D01*
X96353085Y-74567091D01*
X96349000Y-74525610D01*
X96349000Y-73924390D01*
X96353085Y-73882909D01*
X96363393Y-73848931D01*
X96380134Y-73817610D01*
X96402661Y-73790161D01*
X96430110Y-73767634D01*
X96461431Y-73750893D01*
X96495409Y-73740585D01*
X96536890Y-73736500D01*
X97213110Y-73736500D01*
X97254591Y-73740585D01*
X97254591Y-73740585D01*
G37*
G36*
X99726000Y-74711000D02*
G01*
X98124000Y-74711000D01*
X98124000Y-74009000D01*
X99726000Y-74009000D01*
X99726000Y-74711000D01*
X99726000Y-74711000D01*
G37*
G36*
X105126000Y-74711000D02*
G01*
X103524000Y-74711000D01*
X103524000Y-74009000D01*
X105126000Y-74009000D01*
X105126000Y-74711000D01*
X105126000Y-74711000D01*
G37*
G36*
X80664473Y-72835938D02*
G01*
X80792049Y-72888782D01*
X80906859Y-72965495D01*
X81004505Y-73063141D01*
X81081218Y-73177951D01*
X81134062Y-73305527D01*
X81161000Y-73440956D01*
X81161000Y-73579044D01*
X81134062Y-73714473D01*
X81081218Y-73842049D01*
X81004505Y-73956859D01*
X80906859Y-74054505D01*
X80792049Y-74131218D01*
X80664473Y-74184062D01*
X80529044Y-74211000D01*
X80390956Y-74211000D01*
X80255527Y-74184062D01*
X80127951Y-74131218D01*
X80013141Y-74054505D01*
X79915495Y-73956859D01*
X79838782Y-73842049D01*
X79785938Y-73714473D01*
X79759000Y-73579044D01*
X79759000Y-73440956D01*
X79785938Y-73305527D01*
X79838782Y-73177951D01*
X79915495Y-73063141D01*
X80013141Y-72965495D01*
X80127951Y-72888782D01*
X80255527Y-72835938D01*
X80390956Y-72809000D01*
X80529044Y-72809000D01*
X80664473Y-72835938D01*
X80664473Y-72835938D01*
G37*
G36*
X87317091Y-72978085D02*
G01*
X87351069Y-72988393D01*
X87382390Y-73005134D01*
X87409839Y-73027661D01*
X87432366Y-73055110D01*
X87449107Y-73086431D01*
X87459415Y-73120409D01*
X87463500Y-73161890D01*
X87463500Y-73838110D01*
X87459415Y-73879591D01*
X87449107Y-73913569D01*
X87432366Y-73944890D01*
X87409839Y-73972339D01*
X87382390Y-73994866D01*
X87351069Y-74011607D01*
X87317091Y-74021915D01*
X87275610Y-74026000D01*
X86674390Y-74026000D01*
X86632909Y-74021915D01*
X86598931Y-74011607D01*
X86567610Y-73994866D01*
X86540161Y-73972339D01*
X86517634Y-73944890D01*
X86500893Y-73913569D01*
X86490585Y-73879591D01*
X86486500Y-73838110D01*
X86486500Y-73161890D01*
X86490585Y-73120409D01*
X86500893Y-73086431D01*
X86517634Y-73055110D01*
X86540161Y-73027661D01*
X86567610Y-73005134D01*
X86598931Y-72988393D01*
X86632909Y-72978085D01*
X86674390Y-72974000D01*
X87275610Y-72974000D01*
X87317091Y-72978085D01*
X87317091Y-72978085D01*
G37*
G36*
X88892091Y-72978085D02*
G01*
X88926069Y-72988393D01*
X88957390Y-73005134D01*
X88984839Y-73027661D01*
X89007366Y-73055110D01*
X89024107Y-73086431D01*
X89034415Y-73120409D01*
X89038500Y-73161890D01*
X89038500Y-73838110D01*
X89034415Y-73879591D01*
X89024107Y-73913569D01*
X89007366Y-73944890D01*
X88984839Y-73972339D01*
X88957390Y-73994866D01*
X88926069Y-74011607D01*
X88892091Y-74021915D01*
X88850610Y-74026000D01*
X88249390Y-74026000D01*
X88207909Y-74021915D01*
X88173931Y-74011607D01*
X88142610Y-73994866D01*
X88115161Y-73972339D01*
X88092634Y-73944890D01*
X88075893Y-73913569D01*
X88065585Y-73879591D01*
X88061500Y-73838110D01*
X88061500Y-73161890D01*
X88065585Y-73120409D01*
X88075893Y-73086431D01*
X88092634Y-73055110D01*
X88115161Y-73027661D01*
X88142610Y-73005134D01*
X88173931Y-72988393D01*
X88207909Y-72978085D01*
X88249390Y-72974000D01*
X88850610Y-72974000D01*
X88892091Y-72978085D01*
X88892091Y-72978085D01*
G37*
G36*
X90354591Y-72978085D02*
G01*
X90388569Y-72988393D01*
X90419890Y-73005134D01*
X90447339Y-73027661D01*
X90469866Y-73055110D01*
X90486607Y-73086431D01*
X90496915Y-73120409D01*
X90501000Y-73161890D01*
X90501000Y-73838110D01*
X90496915Y-73879591D01*
X90486607Y-73913569D01*
X90469866Y-73944890D01*
X90447339Y-73972339D01*
X90419890Y-73994866D01*
X90388569Y-74011607D01*
X90354591Y-74021915D01*
X90313110Y-74026000D01*
X89711890Y-74026000D01*
X89670409Y-74021915D01*
X89636431Y-74011607D01*
X89605110Y-73994866D01*
X89577661Y-73972339D01*
X89555134Y-73944890D01*
X89538393Y-73913569D01*
X89528085Y-73879591D01*
X89524000Y-73838110D01*
X89524000Y-73161890D01*
X89528085Y-73120409D01*
X89538393Y-73086431D01*
X89555134Y-73055110D01*
X89577661Y-73027661D01*
X89605110Y-73005134D01*
X89636431Y-72988393D01*
X89670409Y-72978085D01*
X89711890Y-72974000D01*
X90313110Y-72974000D01*
X90354591Y-72978085D01*
X90354591Y-72978085D01*
G37*
G36*
X91929591Y-72978085D02*
G01*
X91963569Y-72988393D01*
X91994890Y-73005134D01*
X92022339Y-73027661D01*
X92044866Y-73055110D01*
X92061607Y-73086431D01*
X92071915Y-73120409D01*
X92076000Y-73161890D01*
X92076000Y-73838110D01*
X92071915Y-73879591D01*
X92061607Y-73913569D01*
X92044866Y-73944890D01*
X92022339Y-73972339D01*
X91994890Y-73994866D01*
X91963569Y-74011607D01*
X91929591Y-74021915D01*
X91888110Y-74026000D01*
X91286890Y-74026000D01*
X91245409Y-74021915D01*
X91211431Y-74011607D01*
X91180110Y-73994866D01*
X91152661Y-73972339D01*
X91130134Y-73944890D01*
X91113393Y-73913569D01*
X91103085Y-73879591D01*
X91099000Y-73838110D01*
X91099000Y-73161890D01*
X91103085Y-73120409D01*
X91113393Y-73086431D01*
X91130134Y-73055110D01*
X91152661Y-73027661D01*
X91180110Y-73005134D01*
X91211431Y-72988393D01*
X91245409Y-72978085D01*
X91286890Y-72974000D01*
X91888110Y-72974000D01*
X91929591Y-72978085D01*
X91929591Y-72978085D01*
G37*
G36*
X105126000Y-73441000D02*
G01*
X103524000Y-73441000D01*
X103524000Y-72739000D01*
X105126000Y-72739000D01*
X105126000Y-73441000D01*
X105126000Y-73441000D01*
G37*
G36*
X99726000Y-73441000D02*
G01*
X98124000Y-73441000D01*
X98124000Y-72739000D01*
X99726000Y-72739000D01*
X99726000Y-73441000D01*
X99726000Y-73441000D01*
G37*
G36*
X83204473Y-71465938D02*
G01*
X83332049Y-71518782D01*
X83446859Y-71595495D01*
X83544505Y-71693141D01*
X83621218Y-71807951D01*
X83674062Y-71935527D01*
X83701000Y-72070956D01*
X83701000Y-72209044D01*
X83674062Y-72344473D01*
X83621218Y-72472049D01*
X83544505Y-72586859D01*
X83446859Y-72684505D01*
X83332049Y-72761218D01*
X83204473Y-72814062D01*
X83069044Y-72841000D01*
X82930956Y-72841000D01*
X82795527Y-72814062D01*
X82667951Y-72761218D01*
X82553141Y-72684505D01*
X82455495Y-72586859D01*
X82378782Y-72472049D01*
X82325938Y-72344473D01*
X82299000Y-72209044D01*
X82299000Y-72070956D01*
X82325938Y-71935527D01*
X82378782Y-71807951D01*
X82455495Y-71693141D01*
X82553141Y-71595495D01*
X82667951Y-71518782D01*
X82795527Y-71465938D01*
X82930956Y-71439000D01*
X83069044Y-71439000D01*
X83204473Y-71465938D01*
X83204473Y-71465938D01*
G37*
G36*
X99726000Y-72171000D02*
G01*
X98124000Y-72171000D01*
X98124000Y-71469000D01*
X99726000Y-71469000D01*
X99726000Y-72171000D01*
X99726000Y-72171000D01*
G37*
G36*
X105126000Y-72171000D02*
G01*
X103524000Y-72171000D01*
X103524000Y-71469000D01*
X105126000Y-71469000D01*
X105126000Y-72171000D01*
X105126000Y-72171000D01*
G37*
G36*
X80664473Y-70095938D02*
G01*
X80792049Y-70148782D01*
X80906859Y-70225495D01*
X81004505Y-70323141D01*
X81081218Y-70437951D01*
X81134062Y-70565527D01*
X81161000Y-70700956D01*
X81161000Y-70839044D01*
X81134062Y-70974473D01*
X81081218Y-71102049D01*
X81004505Y-71216859D01*
X80906859Y-71314505D01*
X80792049Y-71391218D01*
X80664473Y-71444062D01*
X80529044Y-71471000D01*
X80390956Y-71471000D01*
X80255527Y-71444062D01*
X80127951Y-71391218D01*
X80013141Y-71314505D01*
X79915495Y-71216859D01*
X79838782Y-71102049D01*
X79785938Y-70974473D01*
X79759000Y-70839044D01*
X79759000Y-70700956D01*
X79785938Y-70565527D01*
X79838782Y-70437951D01*
X79915495Y-70323141D01*
X80013141Y-70225495D01*
X80127951Y-70148782D01*
X80255527Y-70095938D01*
X80390956Y-70069000D01*
X80529044Y-70069000D01*
X80664473Y-70095938D01*
X80664473Y-70095938D01*
G37*
G36*
X99726000Y-70901000D02*
G01*
X98124000Y-70901000D01*
X98124000Y-70199000D01*
X99726000Y-70199000D01*
X99726000Y-70901000D01*
X99726000Y-70901000D01*
G37*
G36*
X105126000Y-70901000D02*
G01*
X103524000Y-70901000D01*
X103524000Y-70199000D01*
X105126000Y-70199000D01*
X105126000Y-70901000D01*
X105126000Y-70901000D01*
G37*
G36*
X83204473Y-68725938D02*
G01*
X83332049Y-68778782D01*
X83446859Y-68855495D01*
X83544505Y-68953141D01*
X83621218Y-69067951D01*
X83674062Y-69195527D01*
X83701000Y-69330956D01*
X83701000Y-69469044D01*
X83674062Y-69604473D01*
X83621218Y-69732049D01*
X83544505Y-69846859D01*
X83446859Y-69944505D01*
X83332049Y-70021218D01*
X83204473Y-70074062D01*
X83069044Y-70101000D01*
X82930956Y-70101000D01*
X82795527Y-70074062D01*
X82667951Y-70021218D01*
X82553141Y-69944505D01*
X82455495Y-69846859D01*
X82378782Y-69732049D01*
X82325938Y-69604473D01*
X82299000Y-69469044D01*
X82299000Y-69330956D01*
X82325938Y-69195527D01*
X82378782Y-69067951D01*
X82455495Y-68953141D01*
X82553141Y-68855495D01*
X82667951Y-68778782D01*
X82795527Y-68725938D01*
X82930956Y-68699000D01*
X83069044Y-68699000D01*
X83204473Y-68725938D01*
X83204473Y-68725938D01*
G37*
G36*
X99726000Y-69631000D02*
G01*
X98124000Y-69631000D01*
X98124000Y-68929000D01*
X99726000Y-68929000D01*
X99726000Y-69631000D01*
X99726000Y-69631000D01*
G37*
G36*
X105126000Y-69631000D02*
G01*
X103524000Y-69631000D01*
X103524000Y-68929000D01*
X105126000Y-68929000D01*
X105126000Y-69631000D01*
X105126000Y-69631000D01*
G37*
G36*
X82444929Y-60023190D02*
G01*
X82890982Y-60207951D01*
X82890984Y-60207952D01*
X83292421Y-60476184D01*
X83633816Y-60817579D01*
X83902049Y-61219018D01*
X84086810Y-61665071D01*
X84181000Y-62138596D01*
X84181000Y-62621404D01*
X84086810Y-63094929D01*
X83902049Y-63540982D01*
X83902048Y-63540984D01*
X83633816Y-63942421D01*
X83292421Y-64283816D01*
X82890984Y-64552048D01*
X82890983Y-64552049D01*
X82890982Y-64552049D01*
X82444929Y-64736810D01*
X81971404Y-64831000D01*
X81488596Y-64831000D01*
X81015071Y-64736810D01*
X80569018Y-64552049D01*
X80569017Y-64552049D01*
X80569016Y-64552048D01*
X80167579Y-64283816D01*
X79826184Y-63942421D01*
X79557952Y-63540984D01*
X79557951Y-63540982D01*
X79373190Y-63094929D01*
X79279000Y-62621404D01*
X79279000Y-62138596D01*
X79373190Y-61665071D01*
X79557951Y-61219018D01*
X79826184Y-60817579D01*
X80167579Y-60476184D01*
X80569016Y-60207952D01*
X80569018Y-60207951D01*
X81015071Y-60023190D01*
X81488596Y-59929000D01*
X81971404Y-59929000D01*
X82444929Y-60023190D01*
X82444929Y-60023190D01*
G37*
G36*
X97217091Y-54578085D02*
G01*
X97251069Y-54588393D01*
X97282390Y-54605134D01*
X97309839Y-54627661D01*
X97332366Y-54655110D01*
X97349107Y-54686431D01*
X97359415Y-54720409D01*
X97363500Y-54761890D01*
X97363500Y-55438110D01*
X97359415Y-55479591D01*
X97349107Y-55513569D01*
X97332366Y-55544890D01*
X97309839Y-55572339D01*
X97282390Y-55594866D01*
X97251069Y-55611607D01*
X97217091Y-55621915D01*
X97175610Y-55626000D01*
X96574390Y-55626000D01*
X96532909Y-55621915D01*
X96498931Y-55611607D01*
X96467610Y-55594866D01*
X96440161Y-55572339D01*
X96417634Y-55544890D01*
X96400893Y-55513569D01*
X96390585Y-55479591D01*
X96386500Y-55438110D01*
X96386500Y-54761890D01*
X96390585Y-54720409D01*
X96400893Y-54686431D01*
X96417634Y-54655110D01*
X96440161Y-54627661D01*
X96467610Y-54605134D01*
X96498931Y-54588393D01*
X96532909Y-54578085D01*
X96574390Y-54574000D01*
X97175610Y-54574000D01*
X97217091Y-54578085D01*
X97217091Y-54578085D01*
G37*
G36*
X95642091Y-54578085D02*
G01*
X95676069Y-54588393D01*
X95707390Y-54605134D01*
X95734839Y-54627661D01*
X95757366Y-54655110D01*
X95774107Y-54686431D01*
X95784415Y-54720409D01*
X95788500Y-54761890D01*
X95788500Y-55438110D01*
X95784415Y-55479591D01*
X95774107Y-55513569D01*
X95757366Y-55544890D01*
X95734839Y-55572339D01*
X95707390Y-55594866D01*
X95676069Y-55611607D01*
X95642091Y-55621915D01*
X95600610Y-55626000D01*
X94999390Y-55626000D01*
X94957909Y-55621915D01*
X94923931Y-55611607D01*
X94892610Y-55594866D01*
X94865161Y-55572339D01*
X94842634Y-55544890D01*
X94825893Y-55513569D01*
X94815585Y-55479591D01*
X94811500Y-55438110D01*
X94811500Y-54761890D01*
X94815585Y-54720409D01*
X94825893Y-54686431D01*
X94842634Y-54655110D01*
X94865161Y-54627661D01*
X94892610Y-54605134D01*
X94923931Y-54588393D01*
X94957909Y-54578085D01*
X94999390Y-54574000D01*
X95600610Y-54574000D01*
X95642091Y-54578085D01*
X95642091Y-54578085D01*
G37*
G36*
X95642091Y-53078085D02*
G01*
X95676069Y-53088393D01*
X95707390Y-53105134D01*
X95734839Y-53127661D01*
X95757366Y-53155110D01*
X95774107Y-53186431D01*
X95784415Y-53220409D01*
X95788500Y-53261890D01*
X95788500Y-53938110D01*
X95784415Y-53979591D01*
X95774107Y-54013569D01*
X95757366Y-54044890D01*
X95734839Y-54072339D01*
X95707390Y-54094866D01*
X95676069Y-54111607D01*
X95642091Y-54121915D01*
X95600610Y-54126000D01*
X94999390Y-54126000D01*
X94957909Y-54121915D01*
X94923931Y-54111607D01*
X94892610Y-54094866D01*
X94865161Y-54072339D01*
X94842634Y-54044890D01*
X94825893Y-54013569D01*
X94815585Y-53979591D01*
X94811500Y-53938110D01*
X94811500Y-53261890D01*
X94815585Y-53220409D01*
X94825893Y-53186431D01*
X94842634Y-53155110D01*
X94865161Y-53127661D01*
X94892610Y-53105134D01*
X94923931Y-53088393D01*
X94957909Y-53078085D01*
X94999390Y-53074000D01*
X95600610Y-53074000D01*
X95642091Y-53078085D01*
X95642091Y-53078085D01*
G37*
G36*
X97217091Y-53078085D02*
G01*
X97251069Y-53088393D01*
X97282390Y-53105134D01*
X97309839Y-53127661D01*
X97332366Y-53155110D01*
X97349107Y-53186431D01*
X97359415Y-53220409D01*
X97363500Y-53261890D01*
X97363500Y-53938110D01*
X97359415Y-53979591D01*
X97349107Y-54013569D01*
X97332366Y-54044890D01*
X97309839Y-54072339D01*
X97282390Y-54094866D01*
X97251069Y-54111607D01*
X97217091Y-54121915D01*
X97175610Y-54126000D01*
X96574390Y-54126000D01*
X96532909Y-54121915D01*
X96498931Y-54111607D01*
X96467610Y-54094866D01*
X96440161Y-54072339D01*
X96417634Y-54044890D01*
X96400893Y-54013569D01*
X96390585Y-53979591D01*
X96386500Y-53938110D01*
X96386500Y-53261890D01*
X96390585Y-53220409D01*
X96400893Y-53186431D01*
X96417634Y-53155110D01*
X96440161Y-53127661D01*
X96467610Y-53105134D01*
X96498931Y-53088393D01*
X96532909Y-53078085D01*
X96574390Y-53074000D01*
X97175610Y-53074000D01*
X97217091Y-53078085D01*
X97217091Y-53078085D01*
G37*
G36*
X108779591Y-50865585D02*
G01*
X108813569Y-50875893D01*
X108844890Y-50892634D01*
X108872339Y-50915161D01*
X108894866Y-50942610D01*
X108911607Y-50973931D01*
X108921915Y-51007909D01*
X108926000Y-51049390D01*
X108926000Y-51650610D01*
X108921915Y-51692091D01*
X108911607Y-51726069D01*
X108894866Y-51757390D01*
X108872339Y-51784839D01*
X108844890Y-51807366D01*
X108813569Y-51824107D01*
X108779591Y-51834415D01*
X108738110Y-51838500D01*
X108061890Y-51838500D01*
X108020409Y-51834415D01*
X107986431Y-51824107D01*
X107955110Y-51807366D01*
X107927661Y-51784839D01*
X107905134Y-51757390D01*
X107888393Y-51726069D01*
X107878085Y-51692091D01*
X107874000Y-51650610D01*
X107874000Y-51049390D01*
X107878085Y-51007909D01*
X107888393Y-50973931D01*
X107905134Y-50942610D01*
X107927661Y-50915161D01*
X107955110Y-50892634D01*
X107986431Y-50875893D01*
X108020409Y-50865585D01*
X108061890Y-50861500D01*
X108738110Y-50861500D01*
X108779591Y-50865585D01*
X108779591Y-50865585D01*
G37*
G36*
X119029591Y-50765585D02*
G01*
X119063569Y-50775893D01*
X119094890Y-50792634D01*
X119122339Y-50815161D01*
X119144866Y-50842610D01*
X119161607Y-50873931D01*
X119171915Y-50907909D01*
X119176000Y-50949390D01*
X119176000Y-51550610D01*
X119171915Y-51592091D01*
X119161607Y-51626069D01*
X119144866Y-51657390D01*
X119122339Y-51684839D01*
X119094890Y-51707366D01*
X119063569Y-51724107D01*
X119029591Y-51734415D01*
X118988110Y-51738500D01*
X118311890Y-51738500D01*
X118270409Y-51734415D01*
X118236431Y-51724107D01*
X118205110Y-51707366D01*
X118177661Y-51684839D01*
X118155134Y-51657390D01*
X118138393Y-51626069D01*
X118128085Y-51592091D01*
X118124000Y-51550610D01*
X118124000Y-50949390D01*
X118128085Y-50907909D01*
X118138393Y-50873931D01*
X118155134Y-50842610D01*
X118177661Y-50815161D01*
X118205110Y-50792634D01*
X118236431Y-50775893D01*
X118270409Y-50765585D01*
X118311890Y-50761500D01*
X118988110Y-50761500D01*
X119029591Y-50765585D01*
X119029591Y-50765585D01*
G37*
G36*
X105379591Y-50765585D02*
G01*
X105413569Y-50775893D01*
X105444890Y-50792634D01*
X105472339Y-50815161D01*
X105494866Y-50842610D01*
X105511607Y-50873931D01*
X105521915Y-50907909D01*
X105526000Y-50949390D01*
X105526000Y-51550610D01*
X105521915Y-51592091D01*
X105511607Y-51626069D01*
X105494866Y-51657390D01*
X105472339Y-51684839D01*
X105444890Y-51707366D01*
X105413569Y-51724107D01*
X105379591Y-51734415D01*
X105338110Y-51738500D01*
X104661890Y-51738500D01*
X104620409Y-51734415D01*
X104586431Y-51724107D01*
X104555110Y-51707366D01*
X104527661Y-51684839D01*
X104505134Y-51657390D01*
X104488393Y-51626069D01*
X104478085Y-51592091D01*
X104474000Y-51550610D01*
X104474000Y-50949390D01*
X104478085Y-50907909D01*
X104488393Y-50873931D01*
X104505134Y-50842610D01*
X104527661Y-50815161D01*
X104555110Y-50792634D01*
X104586431Y-50775893D01*
X104620409Y-50765585D01*
X104661890Y-50761500D01*
X105338110Y-50761500D01*
X105379591Y-50765585D01*
X105379591Y-50765585D01*
G37*
G36*
X115529591Y-50765585D02*
G01*
X115563569Y-50775893D01*
X115594890Y-50792634D01*
X115622339Y-50815161D01*
X115644866Y-50842610D01*
X115661607Y-50873931D01*
X115671915Y-50907909D01*
X115676000Y-50949390D01*
X115676000Y-51550610D01*
X115671915Y-51592091D01*
X115661607Y-51626069D01*
X115644866Y-51657390D01*
X115622339Y-51684839D01*
X115594890Y-51707366D01*
X115563569Y-51724107D01*
X115529591Y-51734415D01*
X115488110Y-51738500D01*
X114811890Y-51738500D01*
X114770409Y-51734415D01*
X114736431Y-51724107D01*
X114705110Y-51707366D01*
X114677661Y-51684839D01*
X114655134Y-51657390D01*
X114638393Y-51626069D01*
X114628085Y-51592091D01*
X114624000Y-51550610D01*
X114624000Y-50949390D01*
X114628085Y-50907909D01*
X114638393Y-50873931D01*
X114655134Y-50842610D01*
X114677661Y-50815161D01*
X114705110Y-50792634D01*
X114736431Y-50775893D01*
X114770409Y-50765585D01*
X114811890Y-50761500D01*
X115488110Y-50761500D01*
X115529591Y-50765585D01*
X115529591Y-50765585D01*
G37*
G36*
X112129591Y-50765585D02*
G01*
X112163569Y-50775893D01*
X112194890Y-50792634D01*
X112222339Y-50815161D01*
X112244866Y-50842610D01*
X112261607Y-50873931D01*
X112271915Y-50907909D01*
X112276000Y-50949390D01*
X112276000Y-51550610D01*
X112271915Y-51592091D01*
X112261607Y-51626069D01*
X112244866Y-51657390D01*
X112222339Y-51684839D01*
X112194890Y-51707366D01*
X112163569Y-51724107D01*
X112129591Y-51734415D01*
X112088110Y-51738500D01*
X111411890Y-51738500D01*
X111370409Y-51734415D01*
X111336431Y-51724107D01*
X111305110Y-51707366D01*
X111277661Y-51684839D01*
X111255134Y-51657390D01*
X111238393Y-51626069D01*
X111228085Y-51592091D01*
X111224000Y-51550610D01*
X111224000Y-50949390D01*
X111228085Y-50907909D01*
X111238393Y-50873931D01*
X111255134Y-50842610D01*
X111277661Y-50815161D01*
X111305110Y-50792634D01*
X111336431Y-50775893D01*
X111370409Y-50765585D01*
X111411890Y-50761500D01*
X112088110Y-50761500D01*
X112129591Y-50765585D01*
X112129591Y-50765585D01*
G37*
G36*
X97537022Y-48910590D02*
G01*
X97637681Y-48941125D01*
X97688012Y-48956392D01*
X97827164Y-49030771D01*
X97949133Y-49130867D01*
X98020340Y-49217634D01*
X98049229Y-49252835D01*
X98123608Y-49391987D01*
X98125714Y-49398931D01*
X98169410Y-49542977D01*
X98181000Y-49660655D01*
X98181000Y-50539345D01*
X98169410Y-50657023D01*
X98156864Y-50698380D01*
X98123608Y-50808013D01*
X98049229Y-50947165D01*
X97949133Y-51069133D01*
X97827165Y-51169229D01*
X97688013Y-51243608D01*
X97663644Y-51251000D01*
X97537023Y-51289410D01*
X97380000Y-51304875D01*
X97222978Y-51289410D01*
X97096357Y-51251000D01*
X97071988Y-51243608D01*
X96932836Y-51169229D01*
X96810868Y-51069133D01*
X96710772Y-50947165D01*
X96636393Y-50808013D01*
X96603137Y-50698380D01*
X96590591Y-50657023D01*
X96579000Y-50539345D01*
X96579000Y-49660656D01*
X96590590Y-49542978D01*
X96636392Y-49391989D01*
X96636392Y-49391988D01*
X96710771Y-49252836D01*
X96753399Y-49200893D01*
X96810867Y-49130867D01*
X96932835Y-49030771D01*
X97071987Y-48956392D01*
X97122318Y-48941125D01*
X97222977Y-48910590D01*
X97380000Y-48895125D01*
X97537022Y-48910590D01*
X97537022Y-48910590D01*
G37*
G36*
X94997022Y-48910590D02*
G01*
X95097681Y-48941125D01*
X95148012Y-48956392D01*
X95287164Y-49030771D01*
X95409133Y-49130867D01*
X95480340Y-49217634D01*
X95509229Y-49252835D01*
X95583608Y-49391987D01*
X95585714Y-49398931D01*
X95629410Y-49542977D01*
X95641000Y-49660655D01*
X95641000Y-50539345D01*
X95629410Y-50657023D01*
X95616864Y-50698380D01*
X95583608Y-50808013D01*
X95509229Y-50947165D01*
X95409133Y-51069133D01*
X95287165Y-51169229D01*
X95148013Y-51243608D01*
X95123644Y-51251000D01*
X94997023Y-51289410D01*
X94840000Y-51304875D01*
X94682978Y-51289410D01*
X94556357Y-51251000D01*
X94531988Y-51243608D01*
X94392836Y-51169229D01*
X94270868Y-51069133D01*
X94170772Y-50947165D01*
X94096393Y-50808013D01*
X94063137Y-50698380D01*
X94050591Y-50657023D01*
X94039000Y-50539345D01*
X94039000Y-49660656D01*
X94050590Y-49542978D01*
X94096392Y-49391989D01*
X94096392Y-49391988D01*
X94170771Y-49252836D01*
X94213399Y-49200893D01*
X94270867Y-49130867D01*
X94392835Y-49030771D01*
X94531987Y-48956392D01*
X94582318Y-48941125D01*
X94682977Y-48910590D01*
X94840000Y-48895125D01*
X94997022Y-48910590D01*
X94997022Y-48910590D01*
G37*
G36*
X93101000Y-51301000D02*
G01*
X91499000Y-51301000D01*
X91499000Y-48899000D01*
X93101000Y-48899000D01*
X93101000Y-51301000D01*
X93101000Y-51301000D01*
G37*
G36*
X165495239Y-48767101D02*
G01*
X165731053Y-48838634D01*
X165948381Y-48954799D01*
X166138871Y-49111129D01*
X166295201Y-49301619D01*
X166411366Y-49518947D01*
X166482899Y-49754761D01*
X166507053Y-50000000D01*
X166482899Y-50245239D01*
X166411366Y-50481053D01*
X166295201Y-50698381D01*
X166138871Y-50888871D01*
X165948381Y-51045201D01*
X165731053Y-51161366D01*
X165495239Y-51232899D01*
X165311457Y-51251000D01*
X165188543Y-51251000D01*
X165004761Y-51232899D01*
X164768947Y-51161366D01*
X164551619Y-51045201D01*
X164361129Y-50888871D01*
X164204799Y-50698381D01*
X164088634Y-50481053D01*
X164017101Y-50245239D01*
X163992947Y-50000000D01*
X164017101Y-49754761D01*
X164088634Y-49518947D01*
X164204799Y-49301619D01*
X164361129Y-49111129D01*
X164551619Y-48954799D01*
X164768947Y-48838634D01*
X165004761Y-48767101D01*
X165188543Y-48749000D01*
X165311457Y-48749000D01*
X165495239Y-48767101D01*
X165495239Y-48767101D01*
G37*
G36*
X192245239Y-48767101D02*
G01*
X192481053Y-48838634D01*
X192698381Y-48954799D01*
X192888871Y-49111129D01*
X193045201Y-49301619D01*
X193161366Y-49518947D01*
X193232899Y-49754761D01*
X193257053Y-50000000D01*
X193232899Y-50245239D01*
X193161366Y-50481053D01*
X193045201Y-50698381D01*
X192888871Y-50888871D01*
X192698381Y-51045201D01*
X192481053Y-51161366D01*
X192245239Y-51232899D01*
X192061457Y-51251000D01*
X191938543Y-51251000D01*
X191754761Y-51232899D01*
X191518947Y-51161366D01*
X191301619Y-51045201D01*
X191111129Y-50888871D01*
X190954799Y-50698381D01*
X190838634Y-50481053D01*
X190767101Y-50245239D01*
X190742947Y-50000000D01*
X190767101Y-49754761D01*
X190838634Y-49518947D01*
X190954799Y-49301619D01*
X191111129Y-49111129D01*
X191301619Y-48954799D01*
X191518947Y-48838634D01*
X191754761Y-48767101D01*
X191938543Y-48749000D01*
X192061457Y-48749000D01*
X192245239Y-48767101D01*
X192245239Y-48767101D01*
G37*
G36*
X138745239Y-48767101D02*
G01*
X138981053Y-48838634D01*
X139198381Y-48954799D01*
X139388871Y-49111129D01*
X139545201Y-49301619D01*
X139661366Y-49518947D01*
X139732899Y-49754761D01*
X139757053Y-50000000D01*
X139732899Y-50245239D01*
X139661366Y-50481053D01*
X139545201Y-50698381D01*
X139388871Y-50888871D01*
X139198381Y-51045201D01*
X138981053Y-51161366D01*
X138745239Y-51232899D01*
X138561457Y-51251000D01*
X138438543Y-51251000D01*
X138254761Y-51232899D01*
X138018947Y-51161366D01*
X137801619Y-51045201D01*
X137611129Y-50888871D01*
X137454799Y-50698381D01*
X137338634Y-50481053D01*
X137267101Y-50245239D01*
X137242947Y-50000000D01*
X137267101Y-49754761D01*
X137338634Y-49518947D01*
X137454799Y-49301619D01*
X137611129Y-49111129D01*
X137801619Y-48954799D01*
X138018947Y-48838634D01*
X138254761Y-48767101D01*
X138438543Y-48749000D01*
X138561457Y-48749000D01*
X138745239Y-48767101D01*
X138745239Y-48767101D01*
G37*
G36*
X108779591Y-49290585D02*
G01*
X108813569Y-49300893D01*
X108844890Y-49317634D01*
X108872339Y-49340161D01*
X108894866Y-49367610D01*
X108911607Y-49398931D01*
X108921915Y-49432909D01*
X108926000Y-49474390D01*
X108926000Y-50075610D01*
X108921915Y-50117091D01*
X108911607Y-50151069D01*
X108894866Y-50182390D01*
X108872339Y-50209839D01*
X108844890Y-50232366D01*
X108813569Y-50249107D01*
X108779591Y-50259415D01*
X108738110Y-50263500D01*
X108061890Y-50263500D01*
X108020409Y-50259415D01*
X107986431Y-50249107D01*
X107955110Y-50232366D01*
X107927661Y-50209839D01*
X107905134Y-50182390D01*
X107888393Y-50151069D01*
X107878085Y-50117091D01*
X107874000Y-50075610D01*
X107874000Y-49474390D01*
X107878085Y-49432909D01*
X107888393Y-49398931D01*
X107905134Y-49367610D01*
X107927661Y-49340161D01*
X107955110Y-49317634D01*
X107986431Y-49300893D01*
X108020409Y-49290585D01*
X108061890Y-49286500D01*
X108738110Y-49286500D01*
X108779591Y-49290585D01*
X108779591Y-49290585D01*
G37*
G36*
X105379591Y-49190585D02*
G01*
X105413569Y-49200893D01*
X105444890Y-49217634D01*
X105472339Y-49240161D01*
X105494866Y-49267610D01*
X105511607Y-49298931D01*
X105521915Y-49332909D01*
X105526000Y-49374390D01*
X105526000Y-49975610D01*
X105521915Y-50017091D01*
X105511607Y-50051069D01*
X105494866Y-50082390D01*
X105472339Y-50109839D01*
X105444890Y-50132366D01*
X105413569Y-50149107D01*
X105379591Y-50159415D01*
X105338110Y-50163500D01*
X104661890Y-50163500D01*
X104620409Y-50159415D01*
X104586431Y-50149107D01*
X104555110Y-50132366D01*
X104527661Y-50109839D01*
X104505134Y-50082390D01*
X104488393Y-50051069D01*
X104478085Y-50017091D01*
X104474000Y-49975610D01*
X104474000Y-49374390D01*
X104478085Y-49332909D01*
X104488393Y-49298931D01*
X104505134Y-49267610D01*
X104527661Y-49240161D01*
X104555110Y-49217634D01*
X104586431Y-49200893D01*
X104620409Y-49190585D01*
X104661890Y-49186500D01*
X105338110Y-49186500D01*
X105379591Y-49190585D01*
X105379591Y-49190585D01*
G37*
G36*
X119029591Y-49190585D02*
G01*
X119063569Y-49200893D01*
X119094890Y-49217634D01*
X119122339Y-49240161D01*
X119144866Y-49267610D01*
X119161607Y-49298931D01*
X119171915Y-49332909D01*
X119176000Y-49374390D01*
X119176000Y-49975610D01*
X119171915Y-50017091D01*
X119161607Y-50051069D01*
X119144866Y-50082390D01*
X119122339Y-50109839D01*
X119094890Y-50132366D01*
X119063569Y-50149107D01*
X119029591Y-50159415D01*
X118988110Y-50163500D01*
X118311890Y-50163500D01*
X118270409Y-50159415D01*
X118236431Y-50149107D01*
X118205110Y-50132366D01*
X118177661Y-50109839D01*
X118155134Y-50082390D01*
X118138393Y-50051069D01*
X118128085Y-50017091D01*
X118124000Y-49975610D01*
X118124000Y-49374390D01*
X118128085Y-49332909D01*
X118138393Y-49298931D01*
X118155134Y-49267610D01*
X118177661Y-49240161D01*
X118205110Y-49217634D01*
X118236431Y-49200893D01*
X118270409Y-49190585D01*
X118311890Y-49186500D01*
X118988110Y-49186500D01*
X119029591Y-49190585D01*
X119029591Y-49190585D01*
G37*
G36*
X115529591Y-49190585D02*
G01*
X115563569Y-49200893D01*
X115594890Y-49217634D01*
X115622339Y-49240161D01*
X115644866Y-49267610D01*
X115661607Y-49298931D01*
X115671915Y-49332909D01*
X115676000Y-49374390D01*
X115676000Y-49975610D01*
X115671915Y-50017091D01*
X115661607Y-50051069D01*
X115644866Y-50082390D01*
X115622339Y-50109839D01*
X115594890Y-50132366D01*
X115563569Y-50149107D01*
X115529591Y-50159415D01*
X115488110Y-50163500D01*
X114811890Y-50163500D01*
X114770409Y-50159415D01*
X114736431Y-50149107D01*
X114705110Y-50132366D01*
X114677661Y-50109839D01*
X114655134Y-50082390D01*
X114638393Y-50051069D01*
X114628085Y-50017091D01*
X114624000Y-49975610D01*
X114624000Y-49374390D01*
X114628085Y-49332909D01*
X114638393Y-49298931D01*
X114655134Y-49267610D01*
X114677661Y-49240161D01*
X114705110Y-49217634D01*
X114736431Y-49200893D01*
X114770409Y-49190585D01*
X114811890Y-49186500D01*
X115488110Y-49186500D01*
X115529591Y-49190585D01*
X115529591Y-49190585D01*
G37*
G36*
X112129591Y-49190585D02*
G01*
X112163569Y-49200893D01*
X112194890Y-49217634D01*
X112222339Y-49240161D01*
X112244866Y-49267610D01*
X112261607Y-49298931D01*
X112271915Y-49332909D01*
X112276000Y-49374390D01*
X112276000Y-49975610D01*
X112271915Y-50017091D01*
X112261607Y-50051069D01*
X112244866Y-50082390D01*
X112222339Y-50109839D01*
X112194890Y-50132366D01*
X112163569Y-50149107D01*
X112129591Y-50159415D01*
X112088110Y-50163500D01*
X111411890Y-50163500D01*
X111370409Y-50159415D01*
X111336431Y-50149107D01*
X111305110Y-50132366D01*
X111277661Y-50109839D01*
X111255134Y-50082390D01*
X111238393Y-50051069D01*
X111228085Y-50017091D01*
X111224000Y-49975610D01*
X111224000Y-49374390D01*
X111228085Y-49332909D01*
X111238393Y-49298931D01*
X111255134Y-49267610D01*
X111277661Y-49240161D01*
X111305110Y-49217634D01*
X111336431Y-49200893D01*
X111370409Y-49190585D01*
X111411890Y-49186500D01*
X112088110Y-49186500D01*
X112129591Y-49190585D01*
X112129591Y-49190585D01*
G37*
G36*
X108779591Y-47365585D02*
G01*
X108813569Y-47375893D01*
X108844890Y-47392634D01*
X108872339Y-47415161D01*
X108894866Y-47442610D01*
X108911607Y-47473931D01*
X108921915Y-47507909D01*
X108926000Y-47549390D01*
X108926000Y-48150610D01*
X108921915Y-48192091D01*
X108911607Y-48226069D01*
X108894866Y-48257390D01*
X108872339Y-48284839D01*
X108844890Y-48307366D01*
X108813569Y-48324107D01*
X108779591Y-48334415D01*
X108738110Y-48338500D01*
X108061890Y-48338500D01*
X108020409Y-48334415D01*
X107986431Y-48324107D01*
X107955110Y-48307366D01*
X107927661Y-48284839D01*
X107905134Y-48257390D01*
X107888393Y-48226069D01*
X107878085Y-48192091D01*
X107874000Y-48150610D01*
X107874000Y-47549390D01*
X107878085Y-47507909D01*
X107888393Y-47473931D01*
X107905134Y-47442610D01*
X107927661Y-47415161D01*
X107955110Y-47392634D01*
X107986431Y-47375893D01*
X108020409Y-47365585D01*
X108061890Y-47361500D01*
X108738110Y-47361500D01*
X108779591Y-47365585D01*
X108779591Y-47365585D01*
G37*
G36*
X105379591Y-47340585D02*
G01*
X105413569Y-47350893D01*
X105444890Y-47367634D01*
X105472339Y-47390161D01*
X105494866Y-47417610D01*
X105511607Y-47448931D01*
X105521915Y-47482909D01*
X105526000Y-47524390D01*
X105526000Y-48125610D01*
X105521915Y-48167091D01*
X105511607Y-48201069D01*
X105494866Y-48232390D01*
X105472339Y-48259839D01*
X105444890Y-48282366D01*
X105413569Y-48299107D01*
X105379591Y-48309415D01*
X105338110Y-48313500D01*
X104661890Y-48313500D01*
X104620409Y-48309415D01*
X104586431Y-48299107D01*
X104555110Y-48282366D01*
X104527661Y-48259839D01*
X104505134Y-48232390D01*
X104488393Y-48201069D01*
X104478085Y-48167091D01*
X104474000Y-48125610D01*
X104474000Y-47524390D01*
X104478085Y-47482909D01*
X104488393Y-47448931D01*
X104505134Y-47417610D01*
X104527661Y-47390161D01*
X104555110Y-47367634D01*
X104586431Y-47350893D01*
X104620409Y-47340585D01*
X104661890Y-47336500D01*
X105338110Y-47336500D01*
X105379591Y-47340585D01*
X105379591Y-47340585D01*
G37*
G36*
X215634239Y-41811467D02*
G01*
X215948282Y-41873934D01*
X216539926Y-42119001D01*
X217072392Y-42474784D01*
X217525216Y-42927608D01*
X217880999Y-43460074D01*
X218126066Y-44051718D01*
X218251000Y-44679804D01*
X218251000Y-45320196D01*
X218126066Y-45948282D01*
X217880999Y-46539926D01*
X217731611Y-46763500D01*
X217525217Y-47072391D01*
X217072391Y-47525217D01*
X217036213Y-47549390D01*
X216539926Y-47880999D01*
X215948282Y-48126066D01*
X215742035Y-48167091D01*
X215320197Y-48251000D01*
X214679803Y-48251000D01*
X214257965Y-48167091D01*
X214051718Y-48126066D01*
X213460074Y-47880999D01*
X212963787Y-47549390D01*
X212927609Y-47525217D01*
X212474783Y-47072391D01*
X212268389Y-46763500D01*
X212119001Y-46539926D01*
X211873934Y-45948282D01*
X211749000Y-45320196D01*
X211749000Y-44679804D01*
X211873934Y-44051718D01*
X212119001Y-43460074D01*
X212474784Y-42927608D01*
X212927608Y-42474784D01*
X213460074Y-42119001D01*
X214051718Y-41873934D01*
X214365761Y-41811467D01*
X214679803Y-41749000D01*
X215320197Y-41749000D01*
X215634239Y-41811467D01*
X215634239Y-41811467D01*
G37*
G36*
X75634239Y-41811467D02*
G01*
X75948282Y-41873934D01*
X76539926Y-42119001D01*
X77072392Y-42474784D01*
X77525216Y-42927608D01*
X77880999Y-43460074D01*
X78126066Y-44051718D01*
X78251000Y-44679804D01*
X78251000Y-45320196D01*
X78126066Y-45948282D01*
X77880999Y-46539926D01*
X77731611Y-46763500D01*
X77525217Y-47072391D01*
X77072391Y-47525217D01*
X77036213Y-47549390D01*
X76539926Y-47880999D01*
X75948282Y-48126066D01*
X75742035Y-48167091D01*
X75320197Y-48251000D01*
X74679803Y-48251000D01*
X74257965Y-48167091D01*
X74051718Y-48126066D01*
X73460074Y-47880999D01*
X72963787Y-47549390D01*
X72927609Y-47525217D01*
X72474783Y-47072391D01*
X72268389Y-46763500D01*
X72119001Y-46539926D01*
X71873934Y-45948282D01*
X71749000Y-45320196D01*
X71749000Y-44679804D01*
X71873934Y-44051718D01*
X72119001Y-43460074D01*
X72474784Y-42927608D01*
X72927608Y-42474784D01*
X73460074Y-42119001D01*
X74051718Y-41873934D01*
X74365761Y-41811467D01*
X74679803Y-41749000D01*
X75320197Y-41749000D01*
X75634239Y-41811467D01*
X75634239Y-41811467D01*
G37*
G36*
X119029591Y-47265585D02*
G01*
X119063569Y-47275893D01*
X119094890Y-47292634D01*
X119122339Y-47315161D01*
X119144866Y-47342610D01*
X119161607Y-47373931D01*
X119171915Y-47407909D01*
X119176000Y-47449390D01*
X119176000Y-48050610D01*
X119171915Y-48092091D01*
X119161607Y-48126069D01*
X119144866Y-48157390D01*
X119122339Y-48184839D01*
X119094890Y-48207366D01*
X119063569Y-48224107D01*
X119029591Y-48234415D01*
X118988110Y-48238500D01*
X118311890Y-48238500D01*
X118270409Y-48234415D01*
X118236431Y-48224107D01*
X118205110Y-48207366D01*
X118177661Y-48184839D01*
X118155134Y-48157390D01*
X118138393Y-48126069D01*
X118128085Y-48092091D01*
X118124000Y-48050610D01*
X118124000Y-47449390D01*
X118128085Y-47407909D01*
X118138393Y-47373931D01*
X118155134Y-47342610D01*
X118177661Y-47315161D01*
X118205110Y-47292634D01*
X118236431Y-47275893D01*
X118270409Y-47265585D01*
X118311890Y-47261500D01*
X118988110Y-47261500D01*
X119029591Y-47265585D01*
X119029591Y-47265585D01*
G37*
G36*
X115529591Y-47265585D02*
G01*
X115563569Y-47275893D01*
X115594890Y-47292634D01*
X115622339Y-47315161D01*
X115644866Y-47342610D01*
X115661607Y-47373931D01*
X115671915Y-47407909D01*
X115676000Y-47449390D01*
X115676000Y-48050610D01*
X115671915Y-48092091D01*
X115661607Y-48126069D01*
X115644866Y-48157390D01*
X115622339Y-48184839D01*
X115594890Y-48207366D01*
X115563569Y-48224107D01*
X115529591Y-48234415D01*
X115488110Y-48238500D01*
X114811890Y-48238500D01*
X114770409Y-48234415D01*
X114736431Y-48224107D01*
X114705110Y-48207366D01*
X114677661Y-48184839D01*
X114655134Y-48157390D01*
X114638393Y-48126069D01*
X114628085Y-48092091D01*
X114624000Y-48050610D01*
X114624000Y-47449390D01*
X114628085Y-47407909D01*
X114638393Y-47373931D01*
X114655134Y-47342610D01*
X114677661Y-47315161D01*
X114705110Y-47292634D01*
X114736431Y-47275893D01*
X114770409Y-47265585D01*
X114811890Y-47261500D01*
X115488110Y-47261500D01*
X115529591Y-47265585D01*
X115529591Y-47265585D01*
G37*
G36*
X112129591Y-47265585D02*
G01*
X112163569Y-47275893D01*
X112194890Y-47292634D01*
X112222339Y-47315161D01*
X112244866Y-47342610D01*
X112261607Y-47373931D01*
X112271915Y-47407909D01*
X112276000Y-47449390D01*
X112276000Y-48050610D01*
X112271915Y-48092091D01*
X112261607Y-48126069D01*
X112244866Y-48157390D01*
X112222339Y-48184839D01*
X112194890Y-48207366D01*
X112163569Y-48224107D01*
X112129591Y-48234415D01*
X112088110Y-48238500D01*
X111411890Y-48238500D01*
X111370409Y-48234415D01*
X111336431Y-48224107D01*
X111305110Y-48207366D01*
X111277661Y-48184839D01*
X111255134Y-48157390D01*
X111238393Y-48126069D01*
X111228085Y-48092091D01*
X111224000Y-48050610D01*
X111224000Y-47449390D01*
X111228085Y-47407909D01*
X111238393Y-47373931D01*
X111255134Y-47342610D01*
X111277661Y-47315161D01*
X111305110Y-47292634D01*
X111336431Y-47275893D01*
X111370409Y-47265585D01*
X111411890Y-47261500D01*
X112088110Y-47261500D01*
X112129591Y-47265585D01*
X112129591Y-47265585D01*
G37*
G36*
X108779591Y-45790585D02*
G01*
X108813569Y-45800893D01*
X108844890Y-45817634D01*
X108872339Y-45840161D01*
X108894866Y-45867610D01*
X108911607Y-45898931D01*
X108921915Y-45932909D01*
X108926000Y-45974390D01*
X108926000Y-46575610D01*
X108921915Y-46617091D01*
X108911607Y-46651069D01*
X108894866Y-46682390D01*
X108872339Y-46709839D01*
X108844890Y-46732366D01*
X108813569Y-46749107D01*
X108779591Y-46759415D01*
X108738110Y-46763500D01*
X108061890Y-46763500D01*
X108020409Y-46759415D01*
X107986431Y-46749107D01*
X107955110Y-46732366D01*
X107927661Y-46709839D01*
X107905134Y-46682390D01*
X107888393Y-46651069D01*
X107878085Y-46617091D01*
X107874000Y-46575610D01*
X107874000Y-45974390D01*
X107878085Y-45932909D01*
X107888393Y-45898931D01*
X107905134Y-45867610D01*
X107927661Y-45840161D01*
X107955110Y-45817634D01*
X107986431Y-45800893D01*
X108020409Y-45790585D01*
X108061890Y-45786500D01*
X108738110Y-45786500D01*
X108779591Y-45790585D01*
X108779591Y-45790585D01*
G37*
G36*
X105379591Y-45765585D02*
G01*
X105413569Y-45775893D01*
X105444890Y-45792634D01*
X105472339Y-45815161D01*
X105494866Y-45842610D01*
X105511607Y-45873931D01*
X105521915Y-45907909D01*
X105526000Y-45949390D01*
X105526000Y-46550610D01*
X105521915Y-46592091D01*
X105511607Y-46626069D01*
X105494866Y-46657390D01*
X105472339Y-46684839D01*
X105444890Y-46707366D01*
X105413569Y-46724107D01*
X105379591Y-46734415D01*
X105338110Y-46738500D01*
X104661890Y-46738500D01*
X104620409Y-46734415D01*
X104586431Y-46724107D01*
X104555110Y-46707366D01*
X104527661Y-46684839D01*
X104505134Y-46657390D01*
X104488393Y-46626069D01*
X104478085Y-46592091D01*
X104474000Y-46550610D01*
X104474000Y-45949390D01*
X104478085Y-45907909D01*
X104488393Y-45873931D01*
X104505134Y-45842610D01*
X104527661Y-45815161D01*
X104555110Y-45792634D01*
X104586431Y-45775893D01*
X104620409Y-45765585D01*
X104661890Y-45761500D01*
X105338110Y-45761500D01*
X105379591Y-45765585D01*
X105379591Y-45765585D01*
G37*
G36*
X112129591Y-45690585D02*
G01*
X112163569Y-45700893D01*
X112194890Y-45717634D01*
X112222339Y-45740161D01*
X112244866Y-45767610D01*
X112261607Y-45798931D01*
X112271915Y-45832909D01*
X112276000Y-45874390D01*
X112276000Y-46475610D01*
X112271915Y-46517091D01*
X112261607Y-46551069D01*
X112244866Y-46582390D01*
X112222339Y-46609839D01*
X112194890Y-46632366D01*
X112163569Y-46649107D01*
X112129591Y-46659415D01*
X112088110Y-46663500D01*
X111411890Y-46663500D01*
X111370409Y-46659415D01*
X111336431Y-46649107D01*
X111305110Y-46632366D01*
X111277661Y-46609839D01*
X111255134Y-46582390D01*
X111238393Y-46551069D01*
X111228085Y-46517091D01*
X111224000Y-46475610D01*
X111224000Y-45874390D01*
X111228085Y-45832909D01*
X111238393Y-45798931D01*
X111255134Y-45767610D01*
X111277661Y-45740161D01*
X111305110Y-45717634D01*
X111336431Y-45700893D01*
X111370409Y-45690585D01*
X111411890Y-45686500D01*
X112088110Y-45686500D01*
X112129591Y-45690585D01*
X112129591Y-45690585D01*
G37*
G36*
X119029591Y-45690585D02*
G01*
X119063569Y-45700893D01*
X119094890Y-45717634D01*
X119122339Y-45740161D01*
X119144866Y-45767610D01*
X119161607Y-45798931D01*
X119171915Y-45832909D01*
X119176000Y-45874390D01*
X119176000Y-46475610D01*
X119171915Y-46517091D01*
X119161607Y-46551069D01*
X119144866Y-46582390D01*
X119122339Y-46609839D01*
X119094890Y-46632366D01*
X119063569Y-46649107D01*
X119029591Y-46659415D01*
X118988110Y-46663500D01*
X118311890Y-46663500D01*
X118270409Y-46659415D01*
X118236431Y-46649107D01*
X118205110Y-46632366D01*
X118177661Y-46609839D01*
X118155134Y-46582390D01*
X118138393Y-46551069D01*
X118128085Y-46517091D01*
X118124000Y-46475610D01*
X118124000Y-45874390D01*
X118128085Y-45832909D01*
X118138393Y-45798931D01*
X118155134Y-45767610D01*
X118177661Y-45740161D01*
X118205110Y-45717634D01*
X118236431Y-45700893D01*
X118270409Y-45690585D01*
X118311890Y-45686500D01*
X118988110Y-45686500D01*
X119029591Y-45690585D01*
X119029591Y-45690585D01*
G37*
G36*
X115529591Y-45690585D02*
G01*
X115563569Y-45700893D01*
X115594890Y-45717634D01*
X115622339Y-45740161D01*
X115644866Y-45767610D01*
X115661607Y-45798931D01*
X115671915Y-45832909D01*
X115676000Y-45874390D01*
X115676000Y-46475610D01*
X115671915Y-46517091D01*
X115661607Y-46551069D01*
X115644866Y-46582390D01*
X115622339Y-46609839D01*
X115594890Y-46632366D01*
X115563569Y-46649107D01*
X115529591Y-46659415D01*
X115488110Y-46663500D01*
X114811890Y-46663500D01*
X114770409Y-46659415D01*
X114736431Y-46649107D01*
X114705110Y-46632366D01*
X114677661Y-46609839D01*
X114655134Y-46582390D01*
X114638393Y-46551069D01*
X114628085Y-46517091D01*
X114624000Y-46475610D01*
X114624000Y-45874390D01*
X114628085Y-45832909D01*
X114638393Y-45798931D01*
X114655134Y-45767610D01*
X114677661Y-45740161D01*
X114705110Y-45717634D01*
X114736431Y-45700893D01*
X114770409Y-45690585D01*
X114811890Y-45686500D01*
X115488110Y-45686500D01*
X115529591Y-45690585D01*
X115529591Y-45690585D01*
G37*
M02*
