%TF.GenerationSoftware,KiCad,Pcbnew,(6.0.0-rc1-dev-1521-g81a0ab4d7)*%
%TF.CreationDate,2019-02-15T12:53:34+01:00*%
%TF.ProjectId,sc,73632e6b-6963-4616-945f-706362585858,rev?*%
%TF.SameCoordinates,Original*%
%TF.FileFunction,Plated,1,2,PTH,Drill*%
%TF.FilePolarity,Positive*%
%FSLAX46Y46*%
G04 Gerber Fmt 4.6, Leading zero omitted, Abs format (unit mm)*
G04 Created by KiCad (PCBNEW (6.0.0-rc1-dev-1521-g81a0ab4d7)) date 02/15/19 12:53:34*
%MOMM*%
%LPD*%
G04 APERTURE LIST*
%TA.AperFunction,ViaDrill*%
%ADD10C,0.400000*%
%TD*%
%TA.AperFunction,ComponentDrill*%
%ADD11C,0.800000*%
%TD*%
%TA.AperFunction,ComponentDrill*%
%ADD12C,1.000000*%
%TD*%
%TA.AperFunction,ComponentDrill*%
%ADD13C,1.200000*%
%TD*%
%TA.AperFunction,ComponentDrill*%
%ADD14C,3.200000*%
%TD*%
G04 APERTURE END LIST*
D10*
X84000000Y-49475000D03*
X86900000Y-82400000D03*
X89750000Y-105212027D03*
X90000000Y-49475000D03*
X90000000Y-77500000D03*
X91000000Y-82400000D03*
X91000000Y-89000000D03*
X93250000Y-49225000D03*
X93250000Y-70750000D03*
X96250000Y-49225000D03*
X97625000Y-67000000D03*
X97750000Y-105212027D03*
X98250000Y-71500000D03*
X99000000Y-87000000D03*
X99275000Y-49200000D03*
X100250000Y-67000000D03*
X102275000Y-49200000D03*
X102608700Y-73250000D03*
X103560000Y-74940000D03*
X104000000Y-78000000D03*
X104300000Y-71500000D03*
X105250000Y-49225000D03*
X106750000Y-105212027D03*
X108000000Y-87000000D03*
X110150000Y-70475000D03*
D11*
%TO.C,J1*%
X75460000Y-76370000D03*
X75460000Y-79110000D03*
X75460000Y-81850000D03*
X75460000Y-84590000D03*
X78000000Y-75000000D03*
X78000000Y-77740000D03*
X78000000Y-80480000D03*
X78000000Y-83220000D03*
X78000000Y-85960000D03*
D12*
%TO.C,U1*%
X87500000Y-64750000D03*
X90040000Y-64750000D03*
X92580000Y-64750000D03*
D13*
%TO.C,C3*%
X134750000Y-50500000D03*
X134750000Y-110500000D03*
%TO.C,C1*%
X196250000Y-50500000D03*
X196250000Y-110500000D03*
%TO.C,C2*%
X165250000Y-50500000D03*
X165250000Y-110500000D03*
D14*
%TO.C,H3*%
X215000000Y-45000000D03*
%TO.C,H2*%
X215000000Y-115000000D03*
%TO.C,H1*%
X75000000Y-115000000D03*
%TO.C,H4*%
X75000000Y-45000000D03*
%TO.C,H5*%
X74500000Y-54500000D03*
%TO.C,J1*%
X76730000Y-67980000D03*
X76730000Y-92980000D03*
M02*
